<?xml version="1.0" encoding="utf-8"?>
<COLLADA xmlns="http://www.collada.org/2005/11/COLLADASchema" version="1.4.1">
  <asset>
    <contributor>
      <author>Blender User</author>
      <authoring_tool>Blender 2.68.4 r59916</authoring_tool>
    </contributor>
    <created>2013-09-09T12:28:15</created>
    <modified>2013-09-09T12:28:15</modified>
    <unit name="meter" meter="1"/>
    <up_axis>Z_UP</up_axis>
  </asset>
  <library_cameras>
    <camera id="Camera-camera" name="Camera">
      <optics>
        <technique_common>
          <perspective>
            <xfov sid="xfov">49.13434</xfov>
            <aspect_ratio>1.777778</aspect_ratio>
            <znear sid="znear">0.1</znear>
            <zfar sid="zfar">100</zfar>
          </perspective>
        </technique_common>
      </optics>
      <extra>
        <technique profile="blender">
          <YF_dofdist>0</YF_dofdist>
          <shiftx>0</shiftx>
          <shifty>0</shifty>
        </technique>
      </extra>
    </camera>
  </library_cameras>
  <library_lights>
    <light id="Lamp-light" name="Lamp">
      <technique_common>
        <point>
          <color sid="color">1 1 1</color>
          <constant_attenuation>1</constant_attenuation>
          <linear_attenuation>0</linear_attenuation>
          <quadratic_attenuation>0.00111109</quadratic_attenuation>
        </point>
      </technique_common>
      <extra>
        <technique profile="blender">
          <adapt_thresh>0.000999987</adapt_thresh>
          <area_shape>1</area_shape>
          <area_size>0.1</area_size>
          <area_sizey>0.1</area_sizey>
          <area_sizez>1</area_sizez>
          <atm_distance_factor>1</atm_distance_factor>
          <atm_extinction_factor>1</atm_extinction_factor>
          <atm_turbidity>2</atm_turbidity>
          <att1>0</att1>
          <att2>1</att2>
          <backscattered_light>1</backscattered_light>
          <bias>1</bias>
          <blue>1</blue>
          <buffers>1</buffers>
          <bufflag>0</bufflag>
          <bufsize>2880</bufsize>
          <buftype>2</buftype>
          <clipend>30.002</clipend>
          <clipsta>1.000799</clipsta>
          <compressthresh>0.04999995</compressthresh>
          <dist sid="blender_dist">29.99998</dist>
          <energy sid="blender_energy">1</energy>
          <falloff_type>2</falloff_type>
          <filtertype>0</filtertype>
          <flag>0</flag>
          <gamma sid="blender_gamma">1</gamma>
          <green>1</green>
          <halo_intensity sid="blnder_halo_intensity">1</halo_intensity>
          <horizon_brightness>1</horizon_brightness>
          <mode>8192</mode>
          <ray_samp>1</ray_samp>
          <ray_samp_method>1</ray_samp_method>
          <ray_samp_type>0</ray_samp_type>
          <ray_sampy>1</ray_sampy>
          <ray_sampz>1</ray_sampz>
          <red>1</red>
          <samp>3</samp>
          <shadhalostep>0</shadhalostep>
          <shadow_b sid="blender_shadow_b">0</shadow_b>
          <shadow_g sid="blender_shadow_g">0</shadow_g>
          <shadow_r sid="blender_shadow_r">0</shadow_r>
          <shadspotsize>45</shadspotsize>
          <sky_colorspace>0</sky_colorspace>
          <sky_exposure>1</sky_exposure>
          <skyblendfac>1</skyblendfac>
          <skyblendtype>1</skyblendtype>
          <soft>3</soft>
          <spotblend>0.15</spotblend>
          <spotsize>75</spotsize>
          <spread>1</spread>
          <sun_brightness>1</sun_brightness>
          <sun_effect_type>0</sun_effect_type>
          <sun_intensity>1</sun_intensity>
          <sun_size>1</sun_size>
          <type>0</type>
        </technique>
      </extra>
    </light>
  </library_lights>
  <library_images/>
  <library_geometries>
    <geometry id="ShapeIndexedFaceSet-mesh" name="ShapeIndexedFaceSet">
      <mesh>
        <source id="ShapeIndexedFaceSet-mesh-positions">
          <float_array id="ShapeIndexedFaceSet-mesh-positions-array" count="357">0 0 0 0.8128 22.62477 3.95732 0.8128 22.53833 4.390823 -0.8128 22.54433 4.376092 -0.8128 22.62477 3.95732 -0.8128 22.31452 4.735193 -0.8128 21.96808 4.983599 -0.8128 21.5543 5.08603 -0.8128 21.13202 5.027926 0.8128 20.6915 4.75281 0.8128 21.05772 4.999825 0.8128 21.49075 5.087605 0.8128 21.92435 5.002674 0.8128 22.29229 4.757971 0.34671 21.84372 5.03231 0.404256 21.86709 5.024436 0.289068 21.86718 5.024403 0.42926 21.92631 5.001874 0.422469 21.95902 4.987743 0.403855 21.98585 4.975225 0.34671 22.00882 4.96381 0.289875 21.98614 4.975082 0.271083 21.95933 4.987604 0.26416 21.92656 5.001771 -0.791342 20.30067 4.799976 -0.902094 20.30067 4.623546 0.503848 20.30067 4.973878 0.297712 20.30067 5.108443 0.04999399 20.30067 5.173352 -0.310632 20.30067 5.137556 0.762003 20.30067 4.525483 0.85295 20.30067 4.21132 0.650688 20.30067 4.778905 -0.487367 20.30067 5.061092 -0.650587 20.30067 4.947245 0.861598 20.34867 4.172275 0.859096 20.31523 4.18051 0.786786 20.30067 4.21132 0.781193 20.30067 4.228033 -1.013245 20.34883 4.172308 -1.01097 20.37607 4.193192 -1.014799 20.31544 4.180341 -1.013872 20.30067 4.21132 -0.977935 20.30067 4.423139 -0.932374 20.30067 4.21132 -0.915524 20.30067 4.333751 -0.883854 20.30067 4.454117 -0.473292 20.30067 4.879242 -0.117175 20.30067 4.986988 -0.768446 20.30067 4.652626 -0.836538 20.30067 4.55941 0.741207 20.30067 4.338485 0.775245 20.30067 4.244624 0.621546 20.30067 4.656231 0.708489 20.30067 4.432815 0.666144 20.30067 4.549694 0.47252 20.30067 4.850812 0.254101 20.30067 4.962005 0.8128 22.53821 3.523516 0.8128 22.29183 3.156201 0.8128 21.9234 2.911577 0.8128 21.48936 2.827039 0.8128 21.05615 2.91548 0.8128 20.68999 3.163356 -0.8128 20.7098 3.143773 -0.8128 21.07758 2.906716 -0.8128 21.50792 2.827113 -0.8128 21.93625 2.916933 -0.8128 22.29835 3.162752 -0.8128 22.53998 3.527801 0.127 22.58032 3.64346 0.156014 22.57402 3.622419 0.09672498 22.57342 3.6205 0.173516 22.56258 3.587562 0.186772 22.54661 3.5443 0.196126 22.52049 3.483116 0.193753 22.48991 3.421895 0.179795 22.46473 3.377516 0.159061 22.44841 3.351031 0.127 22.44062 3.338952 0.09212398 22.44995 3.353471 0.07072997 22.46909 3.384865 0.05846995 22.49697 3.435224 0.06001895 22.53028 3.504908 0.07538896 22.55754 3.573309 0.34671 22.00882 2.95083 0.403555 21.98613 2.939553 0.289875 21.98614 2.939558 0.422332 21.95934 2.927041 0.429259 21.92658 2.912879 0.404353 21.86718 2.890236 0.34671 21.84372 2.88233 0.289068 21.86718 2.890236 0.26416 21.92656 2.912869 0.271083 21.95933 2.927036 0.34671 21.14522 2.88233 0.278983 20.30067 3.200675 0.579499 20.30067 3.396487 0.718134 20.30067 3.454767 0.223814 20.30067 3.110084 -0.09443199 20.30067 3.085952 0.500474 20.30067 3.238176 -0.790126 20.30067 3.514196 -0.91461 20.30067 3.70332 -0.659583 20.30067 3.374103 -0.39508 20.30067 3.176972 -0.675172 20.30067 3.516293 -0.417229 20.30067 3.267194 -0.718901 20.30067 3.582433 -0.763362 20.30067 3.648084 -0.781688 20.30067 3.675786 -0.798603 20.30067 3.70332 -0.928666 20.31528 3.734172 0.847006 20.31897 3.736854 0.848168 20.3518 3.741582 0.843267 20.3056 3.722513 0.837854 20.30067 3.70332 0.765405 20.30067 3.70332 -0.07669299 20.30067 3.154536</float_array>
          <technique_common>
            <accessor source="#ShapeIndexedFaceSet-mesh-positions-array" count="119" stride="3">
              <param name="X" type="float"/>
              <param name="Y" type="float"/>
              <param name="Z" type="float"/>
            </accessor>
          </technique_common>
        </source>
        <source id="ShapeIndexedFaceSet-mesh-normals">
          <float_array id="ShapeIndexedFaceSet-mesh-normals-array" count="696">0.9997519 0.02184534 0.004355788 0.001845717 0.9806934 0.1955429 0 0.9820467 0.188638 0.9997699 0.02103787 -0.004197895 0.02598607 0.9803363 -0.1956161 0 0.9901202 -0.1402208 -0.00177747 0.8422848 0.5390299 0.003557622 0.8307111 0.5566924 0.999684 0.02088189 0.01399374 -0.9958325 0.08956384 0.01720398 -0.9947423 0.08625894 0.05520236 -0.9961737 0.08723562 -0.005278944 -0.9961392 0.08612525 -0.01700156 -0.01827448 0.9809034 -0.1936354 -0.006603479 0.5827019 0.8126592 -0.00322175 0.5910297 0.8066433 -0.9921281 0.07297146 0.1017689 -0.01500487 0.2402675 0.9705907 -0.007582485 0.3026143 0.9530829 -0.002069234 0.3553922 0.934715 6.26753e-5 0.4229106 0.9061715 -2.47515e-5 0.4278126 0.9038675 -3.87556e-4 0.4458371 0.8951141 2.10583e-5 0.4182297 0.9083413 -1.86861e-4 0.3968489 0.9178839 -0.9910979 0.06595021 0.1156524 -0.9850668 0.04138267 0.1671254 -0.9850639 0.04137611 0.1671441 -0.4097396 -0.1243423 0.9036883 0.005364537 0.1616751 0.9868295 0.001798272 0.0707184 0.9974947 -0.09877437 0.001334249 0.995109 -0.3941873 -0.1204526 0.9111024 -0.946799 -0.043868 0.3188215 -0.7077506 -0.2037456 0.6764442 -0.8352977 -0.1653341 0.5243496 -0.5619067 -0.1878222 0.8055953 -0.9328736 -0.07152158 0.3530319 0.8288608 -0.3128399 0.4638115 0.9233872 -0.2755011 0.267311 0.9836686 -0.1032308 0.1474437 0.8633775 -0.3328043 0.3792368 0.9849761 -0.09656649 0.1431679 0.4462549 -0.1777908 0.8770672 0.7547466 -0.3274967 0.5684221 0.5300893 -0.2441627 0.8120283 0.9973596 -0.01442742 0.07117259 0.9936567 -0.04947829 0.1009858 0.02913498 0.1921397 0.980935 0.252387 -0.09237265 0.9632071 0.9990484 0.008383572 0.04280084 0.03091984 0.5535038 0.8322725 0.008790433 0.2998316 0.9539517 2.11227e-5 0.3551274 0.9348179 -2.28422e-5 0.3730575 0.9278082 1.18549e-4 0.3966341 0.9179767 0.003088176 0.4246318 0.9053609 0.01072967 0.4661879 0.8846207 -1.02094e-4 0.3561136 0.9344427 0.9995136 0.01726949 0.02596718 -1.15415e-5 0.3193787 0.9476271 1.83964e-5 0.3966166 0.9179843 -3.13959e-5 0.3968212 0.9178959 3.02844e-5 0.4449976 0.8955317 0 -1 0 0 -1 0 0 -1 0 0 -1 0 0 -1 0 0 -1 0 0 -1 0 0 -1 0 0 -1 0 0 -1 0 0 -1 0 0 -1 0 0 -1 0 0 -1 0 0 -1 0 0 -1 0 0 -1 0 0 -1 0 0 -1 0 0 -1 0 0 -1 0 0 -1 0 0 -1 0 0.903342 -0.4283457 -0.02220857 0.7127312 -0.7011175 -0.02117979 0 -1 0 0 -1 0 0.9962927 -0.08139961 -0.0278356 0.9997496 0.01858711 -0.01246774 0.9996777 0.01404428 -0.02115201 0.9994974 0.006060779 -0.0311172 0.9990318 -0.03084033 -0.03137618 0.9994972 0.006054401 -0.03112256 0.9701808 -0.2407048 -0.0284664 0 -1 0 0 -1 0 0 -1 0 -0.9978007 0.05524468 0.03662961 -0.9906057 0.01336127 -0.1360955 -0.9917883 0.02624785 -0.1251679 -0.9946514 0.05801355 -0.08545756 -0.9958105 0.07625043 -0.05047112 -0.9971951 0.05144882 0.05435919 -0.9803116 -0.05640161 -0.1892299 -0.9839478 -0.03245949 -0.1754796 -0.8923738 -0.417182 -0.1721286 0 -1 0 0 -1 0 0 -1 0 -0.8638461 -0.4746354 -0.1687935 0 -1 0 0 -1 0 0 -1 0 0 -1 0 0 -1 0 0 -1 0 0 -1 0 0 -1 0 0 -1 0 0 -1 0 0 -1 0 0 -1 0 0 -1 0 0 -1 0 0 -1 0 0 -1 0 0 -1 0 0 -1 0 0 -1 0 0 -1 0 0.03287738 0.8300235 -0.5567586 2.48463e-5 0.9274029 -0.3740639 0.01142054 0.9620906 -0.2724909 0.005260825 0.9509319 -0.3093557 9.74625e-4 0.9369978 -0.3493339 4.54608e-4 0.9132013 -0.4075083 0.003574371 0.8945521 -0.4469495 0.01382339 0.8678238 -0.4966797 0.02680832 0.8414329 -0.5396963 -2.76079e-5 0.9203678 -0.3910539 0.001495838 0.9394871 -0.342581 0.03120356 0.5528734 -0.8326808 5.78644e-4 0.7765262 -0.6300846 0.02155566 0.8133625 -0.5813578 -8.96692e-4 0.5882976 -0.8086441 0.02889901 0.1911001 -0.9811451 0.01123315 0.4674655 -0.88394 0.003272712 0.4250094 -0.905183 1.82247e-4 0.3968912 -0.9178656 0 0.354906 -0.934902 0.008449316 0.3006521 -0.9536965 -1.47886e-4 0.35611 -0.9344441 -6.37324e-7 0.3781087 -0.9257612 0.03144437 -0.1999258 -0.9793063 0.001740574 0.1564 -0.9876922 -0.001828312 -0.1562147 -0.9877215 0.9986035 -0.01056748 -0.05176335 0.4474964 -0.5013247 -0.7405542 0.07210117 -0.3011424 -0.9508495 0.02207285 -0.2452096 -0.9692187 0.3663763 -0.4894721 -0.7913188 0.9918887 -0.07125592 -0.1052589 0.9975572 -0.02596789 -0.06484919 0.5772854 -0.5746173 -0.5801349 0.9822967 -0.1250469 -0.1394862 0.9506164 -0.229152 -0.2093269 0.791446 -0.477796 -0.3812142 -0.4207672 -0.4914789 -0.7624981 -0.7337242 -0.4779235 -0.4829471 -0.9234292 -0.2097463 -0.3213798 -0.6112242 -0.5495525 -0.5695586 -0.4952583 -0.5595841 -0.6645185 -0.9252083 -0.2055807 -0.3189455 -0.01006889 -0.181881 -0.983269 -0.006990492 -0.2309273 -0.9729459 -0.2603299 -0.4390974 -0.8598964 -0.01282948 0.2052205 -0.9786317 -0.01096814 0.5616301 -0.8273158 -0.001986086 0.4490444 -0.8935073 -5.75568e-4 0.4234913 -0.9059 9.09613e-5 0.396875 -0.9178726 -2.14665e-6 0.3867192 -0.9221975 -0.00348699 0.3116628 -0.9501864 -3.24316e-4 0.3560453 -0.9344687 5.06112e-6 0.4007346 -0.9161942 -0.02336472 0.8336479 -0.5518019 -0.01749843 0.8214821 -0.5699658 -0.006790637 0.9600688 -0.2796815 -0.00247395 0.9481732 -0.3177442 -0.002413153 0.9478743 -0.3186353 -0.001942217 0.899769 -0.4363622 -0.01749944 0.8484434 -0.5289967 -0.008480787 0.8739678 -0.4859099 -7.31234e-4 0.9104274 -0.4136682 -3.61592e-4 0.9353103 -0.3538286 -3.70717e-4 0.9577919 -0.2874624 4.84474e-4 0.9502375 -0.3115261 0.002619802 0.8945695 -0.4469212 0.001431405 0.8695849 -0.4937813 -0.002145707 0.874652 -0.4847465 5.28015e-4 0.8510649 -0.5250602 -0.001035034 0.8536038 -0.5209217 -2.92067e-4 0.8409351 -0.541136 -2.10353e-6 0.4450627 -0.8954994 3.31373e-6 0.4231314 -0.9060683 -4.40558e-6 0.4231628 -0.9060537 0 0.3193696 -0.9476302 0 -1 0 0 -1 0 0 -1 0 0 -1 0 0 -1 0 0 -1 0 0 -1 0 0 -1 0 0 -1 0 0 -1 0 0 -1 0 0 -1 0 0 -1 0 0 -1 0 0 -1 0 0 -1 0 0 -1 0 0 -1 0 0 -1 0 0 -1 0 0 -1 0</float_array>
          <technique_common>
            <accessor source="#ShapeIndexedFaceSet-mesh-normals-array" count="232" stride="3">
              <param name="X" type="float"/>
              <param name="Y" type="float"/>
              <param name="Z" type="float"/>
            </accessor>
          </technique_common>
        </source>
        <vertices id="ShapeIndexedFaceSet-mesh-vertices">
          <input semantic="POSITION" source="#ShapeIndexedFaceSet-mesh-positions"/>
        </vertices>
        <polylist count="232">
          <input semantic="VERTEX" source="#ShapeIndexedFaceSet-mesh-vertices" offset="0"/>
          <input semantic="NORMAL" source="#ShapeIndexedFaceSet-mesh-normals" offset="1"/>
          <vcount>3 3 3 3 3 3 3 3 3 3 3 3 3 3 3 3 3 3 3 3 3 3 3 3 3 3 3 3 3 3 3 3 3 3 3 3 3 3 3 3 3 3 3 3 3 3 3 3 3 3 3 3 3 3 3 3 3 3 3 3 3 3 3 3 3 3 3 3 3 3 3 3 3 3 3 3 3 3 3 3 3 3 3 3 3 3 3 3 3 3 3 3 3 3 3 3 3 3 3 3 3 3 3 3 3 3 3 3 3 3 3 3 3 3 3 3 3 3 3 3 3 3 3 3 3 3 3 3 3 3 3 3 3 3 3 3 3 3 3 3 3 3 3 3 3 3 3 3 3 3 3 3 3 3 3 3 3 3 3 3 3 3 3 3 3 3 3 3 3 3 3 3 3 3 3 3 3 3 3 3 3 3 3 3 3 3 3 3 3 3 3 3 3 3 3 3 3 3 3 3 3 3 3 3 3 3 3 3 3 3 3 3 3 3 3 3 3 3 3 3 3 3 3 3 3 3 3 3 3 3 3 3 </vcount>
          <p>1 0 2 0 35 0 1 1 3 1 2 1 1 2 4 2 3 2 1 3 35 3 58 3 1 4 58 4 70 4 1 5 70 5 4 5 2 6 3 6 5 6 2 7 5 7 13 7 2 8 13 8 35 8 3 9 4 9 40 9 3 10 40 10 5 10 4 11 39 11 40 11 4 12 69 12 39 12 4 13 70 13 69 13 5 14 6 14 20 14 5 15 20 15 13 15 5 16 40 16 6 16 6 17 7 17 14 17 6 18 14 18 16 18 6 19 16 19 23 19 6 20 18 20 19 20 6 21 19 21 21 21 6 22 21 22 20 22 6 23 22 23 18 23 6 24 23 24 22 24 6 25 40 25 42 25 6 26 42 26 43 26 6 27 43 27 7 27 7 28 8 28 33 28 7 29 11 29 14 29 7 30 28 30 11 30 7 31 29 31 28 31 7 32 33 32 29 32 7 33 43 33 8 33 8 34 24 34 34 34 8 35 25 35 24 35 8 36 34 36 33 36 8 37 43 37 25 37 9 38 10 38 32 38 9 39 30 39 31 39 9 40 31 40 36 40 9 41 32 41 30 41 9 42 36 42 10 42 10 43 11 43 27 43 10 44 26 44 32 44 10 45 27 45 26 45 10 46 35 46 11 46 10 47 36 47 35 47 11 48 12 48 14 48 11 49 28 49 27 49 11 50 35 50 12 50 12 51 13 51 20 51 12 52 15 52 14 52 12 53 16 53 15 53 12 54 17 54 23 54 12 55 18 55 17 55 12 56 19 56 18 56 12 57 20 57 19 57 12 58 23 58 16 58 12 59 35 59 13 59 14 60 15 60 16 60 17 61 18 61 23 61 18 62 22 62 23 62 19 63 20 63 21 63 24 64 25 64 49 64 24 65 47 65 34 65 24 66 49 66 47 66 25 67 43 67 46 67 25 68 46 68 50 68 25 69 50 69 49 69 26 70 27 70 57 70 26 71 56 71 32 71 26 72 57 72 56 72 27 73 28 73 57 73 28 74 29 74 48 74 28 75 48 75 57 75 29 76 33 76 47 76 29 77 47 77 48 77 30 78 32 78 53 78 30 79 51 79 31 79 30 80 53 80 55 80 30 81 54 81 51 81 30 82 55 82 54 82 31 83 37 83 116 83 31 84 38 84 37 84 31 85 51 85 52 85 31 86 52 86 38 86 31 87 115 87 36 87 31 88 116 88 115 88 32 89 56 89 53 89 33 90 34 90 47 90 35 91 36 91 113 91 35 92 59 92 58 92 35 93 60 93 59 93 35 94 61 94 60 94 35 95 113 95 114 95 35 96 114 96 61 96 36 97 115 97 113 97 37 98 38 98 117 98 37 99 117 99 116 99 38 100 52 100 117 100 39 101 41 101 40 101 39 102 66 102 41 102 39 103 67 103 66 103 39 104 68 104 67 104 39 105 69 105 68 105 40 106 41 106 42 106 41 107 65 107 112 107 41 108 66 108 65 108 41 109 112 109 42 109 42 110 44 110 45 110 42 111 45 111 43 111 42 112 103 112 44 112 42 113 112 113 103 113 43 114 45 114 46 114 44 115 47 115 45 115 44 116 103 116 111 116 44 117 111 117 47 117 45 118 47 118 49 118 45 119 49 119 46 119 46 120 49 120 50 120 47 121 54 121 48 121 47 122 111 122 54 122 48 123 54 123 55 123 48 124 55 124 57 124 51 125 54 125 109 125 51 126 108 126 52 126 51 127 109 127 108 127 52 128 106 128 117 128 52 129 108 129 106 129 53 130 56 130 57 130 53 131 57 131 55 131 54 132 110 132 109 132 54 133 111 133 110 133 58 134 59 134 78 134 58 135 69 135 74 135 58 136 71 136 70 136 58 137 73 137 71 137 58 138 74 138 84 138 58 139 75 139 83 139 58 140 76 140 75 140 58 141 77 141 76 141 58 142 78 142 77 142 58 143 83 143 69 143 58 144 84 144 73 144 59 145 60 145 85 145 59 146 68 146 79 146 59 147 79 147 78 147 59 148 85 148 68 148 60 149 61 149 91 149 60 150 86 150 85 150 60 151 88 151 86 151 60 152 89 152 88 152 60 153 90 153 92 153 60 154 91 154 90 154 60 155 92 155 93 155 60 156 93 156 89 156 61 157 62 157 95 157 61 158 66 158 91 158 61 159 95 159 66 159 61 160 114 160 62 160 62 161 63 161 101 161 62 162 99 162 100 162 62 163 100 163 95 163 62 164 101 164 99 164 62 165 113 165 63 165 62 166 114 166 113 166 63 167 98 167 101 167 63 168 113 168 115 168 63 169 115 169 116 169 63 170 116 170 98 170 64 171 65 171 105 171 64 172 102 172 103 172 64 173 103 173 112 173 64 174 104 174 102 174 64 175 105 175 104 175 64 176 112 176 65 176 65 177 66 177 95 177 65 178 95 178 100 178 65 179 100 179 105 179 66 180 67 180 91 180 67 181 68 181 85 181 67 182 85 182 87 182 67 183 87 183 94 183 67 184 88 184 89 184 67 185 89 185 93 185 67 186 92 186 91 186 67 187 93 187 92 187 67 188 94 188 88 188 68 189 69 189 80 189 68 190 80 190 79 190 69 191 70 191 72 191 69 192 72 192 73 192 69 193 73 193 84 193 69 194 75 194 82 194 69 195 81 195 80 195 69 196 82 196 81 196 69 197 83 197 75 197 69 198 84 198 74 198 70 199 71 199 72 199 71 200 73 200 72 200 75 201 76 201 82 201 76 202 77 202 81 202 76 203 81 203 82 203 77 204 78 204 80 204 77 205 80 205 81 205 78 206 79 206 80 206 85 207 86 207 87 207 86 208 88 208 94 208 86 209 94 209 87 209 90 210 91 210 92 210 96 211 97 211 117 211 96 212 99 212 101 212 96 213 101 213 97 213 96 214 117 214 118 214 96 215 118 215 99 215 97 216 98 216 117 216 97 217 101 217 98 217 98 218 116 218 117 218 99 219 118 219 100 219 100 220 118 220 105 220 102 221 104 221 106 221 102 222 106 222 108 222 102 223 108 223 109 223 102 224 109 224 103 224 103 225 109 225 110 225 103 226 110 226 111 226 104 227 105 227 107 227 104 228 107 228 106 228 105 229 118 229 107 229 106 230 107 230 118 230 106 231 118 231 117 231</p>
        </polylist>
      </mesh>
      <extra><technique profile="MAYA"><double_sided>1</double_sided></technique></extra>
    </geometry>
  </library_geometries>
  <library_controllers/>
  <library_visual_scenes>
    <visual_scene id="Scene" name="Scene">
      <node id="Camera" name="Camera" type="NODE">
        <matrix sid="transform">0.6858805 -0.3173701 0.6548619 7.481132 0.7276338 0.3124686 -0.6106656 -6.50764 -0.01081678 0.8953432 0.4452454 5.343665 0 0 0 1</matrix>
        <instance_camera url="#Camera-camera"/>
      </node>
      <node id="Lamp" name="Lamp" type="NODE">
        <matrix sid="transform">-0.2908646 -0.7711008 0.5663932 4.076245 0.9551712 -0.1998834 0.2183912 1.005454 -0.05518906 0.6045247 0.7946723 5.903862 0 0 0 1</matrix>
        <instance_light url="#Lamp-light"/>
      </node>
      <node id="ShapeIndexedFaceSet" name="ShapeIndexedFaceSet" type="NODE">
        <matrix sid="transform">-1 6.60024e-15 -8.74228e-8 0 -8.74228e-8 -7.54979e-8 1 0 0 1 7.54979e-8 0 0 0 0 1</matrix>
        <instance_geometry url="#ShapeIndexedFaceSet-mesh"/>
      </node>
    </visual_scene>
  </library_visual_scenes>
  <scene>
    <instance_visual_scene url="#Scene"/>
  </scene>
</COLLADA>