<?xml version="1.0" encoding="utf-8"?>
<COLLADA xmlns="http://www.collada.org/2005/11/COLLADASchema" version="1.4.1">
  <asset>
    <contributor>
      <author>Blender User</author>
      <authoring_tool>Blender 2.68.4 r59916</authoring_tool>
    </contributor>
    <created>2013-09-09T09:49:59</created>
    <modified>2013-09-09T09:49:59</modified>
    <unit name="meter" meter="1"/>
    <up_axis>Z_UP</up_axis>
  </asset>
  <library_cameras>
    <camera id="Camera-camera" name="Camera">
      <optics>
        <technique_common>
          <perspective>
            <xfov sid="xfov">49.13434</xfov>
            <aspect_ratio>1.777778</aspect_ratio>
            <znear sid="znear">0.1</znear>
            <zfar sid="zfar">100</zfar>
          </perspective>
        </technique_common>
      </optics>
      <extra>
        <technique profile="blender">
          <YF_dofdist>0</YF_dofdist>
          <shiftx>0</shiftx>
          <shifty>0</shifty>
        </technique>
      </extra>
    </camera>
    <camera id="Default-camera" name="Default">
      <optics>
        <technique_common>
          <perspective>
            <xfov sid="xfov">88.2441</xfov>
            <aspect_ratio>1.777778</aspect_ratio>
            <znear sid="znear">0.1</znear>
            <zfar sid="zfar">100</zfar>
          </perspective>
        </technique_common>
      </optics>
      <extra>
        <technique profile="blender">
          <YF_dofdist>0</YF_dofdist>
          <shiftx>0</shiftx>
          <shifty>0</shifty>
        </technique>
      </extra>
    </camera>
  </library_cameras>
  <library_lights>
    <light id="Lamp-light" name="Lamp">
      <technique_common>
        <point>
          <color sid="color">1 1 1</color>
          <constant_attenuation>1</constant_attenuation>
          <linear_attenuation>0</linear_attenuation>
          <quadratic_attenuation>0.00111109</quadratic_attenuation>
        </point>
      </technique_common>
      <extra>
        <technique profile="blender">
          <adapt_thresh>0.000999987</adapt_thresh>
          <area_shape>1</area_shape>
          <area_size>0.1</area_size>
          <area_sizey>0.1</area_sizey>
          <area_sizez>1</area_sizez>
          <atm_distance_factor>1</atm_distance_factor>
          <atm_extinction_factor>1</atm_extinction_factor>
          <atm_turbidity>2</atm_turbidity>
          <att1>0</att1>
          <att2>1</att2>
          <backscattered_light>1</backscattered_light>
          <bias>1</bias>
          <blue>1</blue>
          <buffers>1</buffers>
          <bufflag>0</bufflag>
          <bufsize>2880</bufsize>
          <buftype>2</buftype>
          <clipend>30.002</clipend>
          <clipsta>1.000799</clipsta>
          <compressthresh>0.04999995</compressthresh>
          <dist sid="blender_dist">29.99998</dist>
          <energy sid="blender_energy">1</energy>
          <falloff_type>2</falloff_type>
          <filtertype>0</filtertype>
          <flag>0</flag>
          <gamma sid="blender_gamma">1</gamma>
          <green>1</green>
          <halo_intensity sid="blnder_halo_intensity">1</halo_intensity>
          <horizon_brightness>1</horizon_brightness>
          <mode>8192</mode>
          <ray_samp>1</ray_samp>
          <ray_samp_method>1</ray_samp_method>
          <ray_samp_type>0</ray_samp_type>
          <ray_sampy>1</ray_sampy>
          <ray_sampz>1</ray_sampz>
          <red>1</red>
          <samp>3</samp>
          <shadhalostep>0</shadhalostep>
          <shadow_b sid="blender_shadow_b">0</shadow_b>
          <shadow_g sid="blender_shadow_g">0</shadow_g>
          <shadow_r sid="blender_shadow_r">0</shadow_r>
          <shadspotsize>45</shadspotsize>
          <sky_colorspace>0</sky_colorspace>
          <sky_exposure>1</sky_exposure>
          <skyblendfac>1</skyblendfac>
          <skyblendtype>1</skyblendtype>
          <soft>3</soft>
          <spotblend>0.15</spotblend>
          <spotsize>75</spotsize>
          <spread>1</spread>
          <sun_brightness>1</sun_brightness>
          <sun_effect_type>0</sun_effect_type>
          <sun_intensity>1</sun_intensity>
          <sun_size>1</sun_size>
          <type>0</type>
        </technique>
      </extra>
    </light>
  </library_lights>
  <library_images/>
  <library_effects>
    <effect id="Shape-effect">
      <profile_COMMON>
        <technique sid="common">
          <phong>
            <emission>
              <color sid="emission">0 0 0 1</color>
            </emission>
            <ambient>
              <color sid="ambient">0 0 0 1</color>
            </ambient>
            <diffuse>
              <color sid="diffuse">0.424 0.424 0.424 1</color>
            </diffuse>
            <specular>
              <color sid="specular">0.3 0.3 0.3 1</color>
            </specular>
            <shininess>
              <float sid="shininess">41</float>
            </shininess>
            <index_of_refraction>
              <float sid="index_of_refraction">1</float>
            </index_of_refraction>
          </phong>
        </technique>
        <extra>
          <technique profile="GOOGLEEARTH">
            <double_sided>1</double_sided>
          </technique>
        </extra>
      </profile_COMMON>
      <extra><technique profile="MAX3D"><double_sided>1</double_sided></technique></extra>
    </effect>
  </library_effects>
  <library_materials>
    <material id="Shape-material" name="Shape">
      <instance_effect url="#Shape-effect"/>
    </material>
  </library_materials>
  <library_geometries>
    <geometry id="ShapeIndexedFaceSet-mesh" name="ShapeIndexedFaceSet">
      <mesh>
        <source id="ShapeIndexedFaceSet-mesh-positions">
          <float_array id="ShapeIndexedFaceSet-mesh-positions-array" count="1308">0 0 0 0.3784983 14.60812 -1.224997 1.778e-6 14.44129 -0.8853772 0 14.70826 -1.356674 -0.4611393 14.63166 -1.18673 0.2921521 14.40473 -0.8807877 0.421546 14.34951 -0.8681722 -0.1699389 14.42863 -0.8693254 -0.3660836 14.38169 -0.8189293 0 14.42777 -0.8769099 0.3784983 14.73449 -1.63063 0 14.79585 -1.891198 -0.4611393 14.7704 -1.615557 0.3784983 14.74207 -2.055422 0 14.69328 -2.423052 -0.4611393 14.77889 -2.06619 0.3786165 14.40802 -2.827458 0 14.4132 -2.886669 -0.4611393 14.6564 -2.499939 0.3784983 14.63027 -2.465308 0 14.40697 -2.815481 -0.4663714 14.41262 -2.880097 -0.4415841 14.40652 -2.810406 -0.2783482 14.40702 -2.816129 0.6392101 14.39669 -2.697979 0.3812489 14.40134 -2.751129 0.3618507 14.40192 -2.757831 0.7260836 14.57124 -2.234166 0.7308636 14.39025 -2.624391 0.7229818 14.62137 -1.814082 0.7254989 14.62006 -1.816745 0.7246409 14.60974 -1.690052 0.6997662 14.63046 -1.755241 0.7186615 14.61394 -1.696427 0.368018 14.38273 -0.8783277 0.7260836 14.47068 -1.246735 0.691233 14.21949 -0.8752865 0.7335274 14.18797 -0.8772439 0.7886934 14.12355 -0.8731461 0.6923646 14.38502 -2.564633 0.8440222 14.37932 -2.499523 0.7024446 14.38418 -2.555081 0.7740424 14.59162 -1.837783 1.008113 14.34848 -2.173736 0.9902086 14.35504 -2.221944 0.6985 14.46317 -1.837791 0.6479601 14.49235 -1.8136 0.6270094 14.50445 -1.755241 0.6479601 14.49235 -1.696883 0.7681511 14.58119 -1.672702 0.6985 14.46317 -1.672691 1.009315 14.13875 -1.159145 1.009315 14.31555 -1.469134 0.9617449 13.95283 -0.9108138 1.017045 13.87046 -0.927545 1.047727 13.78399 -0.9328988 0.8175447 14.55153 -1.697419 0.7490397 14.43399 -1.696883 1.009315 14.38737 -1.818693 0.839345 14.54202 -1.755241 0.8217024 14.55873 -1.81306 0.7699903 14.4219 -1.755241 0.7490397 14.43399 -1.8136 0.9200497 14.35504 -2.221944 1.032102 14.33385 -2.114713 0.9598927 14.33758 -2.127202 1.178457 14.11308 -1.707668 1.07946 14.28891 -2.012219 1.200276 13.96824 -1.456792 1.200276 13.87719 -1.328936 1.200276 13.76361 -1.22064 1.092246 13.72649 -0.9582582 1.200276 13.63183 -1.135928 1.153684 13.54944 -0.9938464 1.168128 13.38026 -1.003456 0.9655947 14.33387 -2.114773 1.112473 14.13936 -1.753175 1.016614 14.28891 -2.012219 1.145063 13.96824 -1.456792 1.139106 14.04288 -1.586076 1.145063 13.76361 -1.220646 1.145063 13.87719 -1.328936 1.200276 13.48631 -1.077598 1.145063 13.63183 -1.135927 1.183563 13.39096 -1.016731 1.195987 13.43369 -1.053531 1.145063 13.48631 -1.077598 1.132884 13.40507 -1.031342 1.142011 13.44248 -1.058881 1.133298 13.40194 -1.028293 1.133626 13.39942 -1.025792 1.145423 13.38329 -1.007458 -0.9744644 14.60799 -1.75252 -0.9554281 14.62982 -1.862017 -0.9856755 14.60988 -1.751958 -0.4634283 14.37661 -0.8188861 -0.3926289 14.36439 -0.8072407 -0.3601128 14.36996 -0.8123662 -0.6434249 14.35377 -0.8187952 -0.4245097 14.34189 -0.8027416 -0.9155491 14.56091 -1.231609 -0.9150764 14.26036 -0.8192369 -0.7888689 14.73737 -1.69734 -0.8457812 14.71863 -1.672692 -0.9155491 14.64311 -2.299932 -0.909033 14.70955 -1.812838 -0.7676251 14.748 -1.755241 -0.7940025 14.74501 -1.813771 -0.8535497 14.72908 -1.837781 -0.9198226 14.40209 -2.759694 -0.8619793 14.40465 -2.789016 -0.4893341 14.41246 -2.878257 -0.581546 14.40521 -2.795429 -1.421258 13.49581 -0.8225287 -1.439982 13.34494 -0.8225277 -1.456142 13.34309 -0.8436123 -1.408641 13.34122 -0.8649477 -1.381835 13.48769 -0.8027416 -1.422005 13.34621 -0.80796 -1.472 13.34122 -0.8649477 -1.533471 13.35415 -0.9560032 -1.575405 13.40486 -1.031074 -1.515586 13.40424 -1.030495 -1.472192 13.35393 -0.955421 -1.591122 13.48631 -1.077598 -1.320407 13.81452 -0.8220873 -1.591122 13.76361 -1.220642 -1.532095 13.48631 -1.077598 -1.364552 13.70755 -0.8223657 -1.305422 14.16162 -1.080343 -1.591122 13.96824 -1.456792 -1.532095 13.76362 -1.220647 -1.305422 14.38221 -1.45304 -1.561433 14.11326 -1.707972 -1.532095 13.96824 -1.456792 -1.305422 14.45655 -1.879693 -1.444346 14.28891 -2.012219 -1.511889 14.08601 -1.660775 -1.393731 14.33389 -2.114833 -1.379676 14.28891 -2.012219 -1.311649 14.36341 -2.317617 -1.350627 14.35504 -2.221944 -1.326164 14.33396 -2.115035 -1.28022 14.35504 -2.221944 -1.163377 14.3842 -2.555292 -0.9202862 14.70461 -1.796753 -0.9295826 14.69832 -1.755241 -0.920987 14.69853 -1.720757 -1.211115 13.99907 -0.8210342 -0.9199222 14.2577 -0.8192341 -1.199203 13.9482 -0.8027416 -1.330735 13.68294 -0.8027416 -0.9386253 14.20328 -0.8027416 -1.14806 14.37628 -2.464759 -1.258399 14.35964 -2.274496 -0.8891994 14.3965 -2.695801 -0.9323133 14.39421 -2.669695 -0.7871397 14.49998 -1.8136 -0.8080903 14.48789 -1.755241 -0.9041692 14.70221 -1.697096 -0.6808071 14.30796 -0.8027416 -0.7871397 14.49998 -1.696883 -0.6860601 14.55834 -1.696883 -0.7366 14.52916 -1.672691 -0.6651094 14.57044 -1.755241 -0.7366 14.52916 -1.837791 -0.6860601 14.55834 -1.8136 -1.047384 13.77114 -0.8027416 -1.164666 13.34667 -0.8027416 -1.399532 13.34667 -0.8027416 -1.19056 13.34122 -0.8649477 -1.034192 13.75727 -0.810181 -1.142508 13.34122 -0.8649477 -1.146703 13.34602 -0.8101843 -0.7942727 14.11024 -0.8027416 -0.4179842 14.32516 -0.810181 -0.355948 14.35593 -0.8138018 -0.7796319 14.09932 -0.810181 0.9604266 14.36593 -1.816651 0.6917289 14.52081 -2.267313 0.6989536 14.57505 -1.95365 0.8129095 14.50101 -1.947012 -1.254347 14.43525 -1.864936 0.9604266 14.30771 -1.510417 0.9604266 14.16691 -1.23231 -1.254347 14.36202 -1.459935 -1.254347 14.15434 -1.104602 1.094181 13.64884 -1.030858 1.118962 13.48651 -1.019949 1.100472 13.6193 -1.029816 1.10456 13.59704 -1.028537 1.107224 13.58027 -1.02719 1.108967 13.56749 -1.025835 1.110138 13.55715 -1.024408 1.110412 13.55427 -1.023931 1.110901 13.54789 -1.022674 1.111085 13.54027 -1.02043 1.109954 13.53631 -1.016839 0.9623918 13.9597 -1.010946 1.014641 13.88235 -1.031342 1.054651 13.78324 -1.031342 1.084026 13.68927 -1.031342 -1.306345 13.74728 -0.8535416 -1.395396 13.39322 -0.8535416 -1.260227 13.8462 -0.8535416 -1.408397 13.36654 -0.8671624 -1.407666 13.39183 -0.8693752 1.103197 13.55234 -1.002745 1.026173 13.77841 -0.9367696 1.14662 13.38271 -1.006701 0.5867514 14.60951 -1.752176 0.6178796 14.60478 -1.854811 0.5856986 14.61227 -1.752027 -0.8844859 14.5855 -2.338223 -0.8846162 14.66327 -1.948655 -0.8864979 14.66263 -1.947936 -0.9813033 14.62481 -1.869773 -0.4512714 14.66237 -2.34727 0 14.65254 -2.387132 0.3616904 14.62984 -2.331734 -1.151589 13.34122 -0.8751804 -1.140318 13.34173 -0.8591126 -1.054387 13.6946 -0.9968581 -1.062323 13.69168 -1.012453 -1.188418 13.36656 -0.8671639 -1.19056 13.34122 -0.8789416 -1.16434 13.34122 -0.8789416 -1.139449 13.34337 -0.8404703 -1.139363 13.34444 -0.8281416 -1.066181 13.66529 -0.8281416 -1.139533 13.34229 -0.8528007 -1.111649 13.5192 -0.9251483 0.3616904 14.70531 -1.856928 0.5575785 14.64002 -1.751228 0.5999404 14.62725 -1.878249 0.5893712 14.60999 -1.624786 0.6107555 14.58699 -1.651614 0.690355 14.58004 -1.950622 -0.7190328 14.5393 -1.720046 -0.7541669 14.51902 -1.720046 0.6964083 14.56457 -1.919378 0 14.74485 -1.902089 0.3616904 14.62161 -1.383505 0 14.67378 -1.41348 0.6917289 14.42009 -1.234406 0.3615759 14.39106 -0.9673483 0 14.44713 -0.9748266 0.691145 14.54219 -1.546405 0.6819182 14.54808 -1.549191 0.4073644 14.37548 -0.9658414 0.34941 14.39484 -1.031342 0.6934383 14.22509 -0.9652389 0.7588123 14.17494 -0.9697265 0.7286313 14.19897 -1.031342 0.771382 14.48031 -1.591615 0.7973091 14.47525 -1.555664 0.6821256 14.53766 -1.590604 0.7885778 14.50455 -1.917852 0.8917163 14.43738 -1.868178 0.8548637 14.44893 -1.852411 0.9162527 14.40781 -1.751577 0.8831776 14.42204 -1.635587 0.8740224 14.42224 -1.752221 0.8433651 14.43517 -1.653762 0.8416844 14.06372 -1.031342 0.9011755 13.96845 -1.023902 1.105077 13.5472 -1.010863 1.102147 13.55665 -1.008442 1.098552 13.56898 -1.005942 0.9361256 13.90917 -1.005942 1.107503 13.54038 -1.013327 1.042283 13.72248 -0.9681408 -0.4512714 14.74058 -1.82843 -0.4512714 14.63382 -1.314704 -0.2677021 14.41673 -0.9347975 -0.07431507 14.44482 -1.031342 -0.8844859 14.48574 -1.179982 -0.5028862 14.33605 -0.8535416 -0.452914 14.35788 -0.8728933 -0.488553 14.34257 -1.031342 -0.8769294 14.23799 -0.8535416 -0.8347581 14.10675 -0.8535416 -0.8405109 14.10108 -1.031342 -0.5918558 14.72537 -1.751196 -0.6263198 14.706 -1.628183 -0.7294865 14.67339 -1.551128 -0.8656424 14.63634 -1.552871 -0.7523251 14.70134 -1.953011 -0.638382 14.72426 -1.876061 -0.8638403 14.66325 -1.925526 -0.7526917 14.69017 -1.918076 -0.665972 14.70171 -1.851111 -0.6313107 14.6981 -1.751535 -0.6596827 14.68263 -1.653631 -0.7414964 14.66071 -1.590414 -0.8881829 14.6303 -1.562136 -0.8493765 14.63575 -1.584957 -0.9712803 14.60893 -1.631988 -0.9438432 14.61421 -1.644992 -0.8853332 14.23368 -0.8535416 -1.133249 14.03459 -0.8535416 -1.01221 14.60409 -1.751319 -1.071437 13.77979 -0.8535416 -1.185739 13.39183 -0.8693752 -1.185576 13.39322 -0.8535416 -1.185658 13.39252 -0.861458 -1.163202 13.52187 -0.9512008 -1.084857 13.75157 -1.031342 -1.097731 13.72253 -1.028545 -1.109104 13.69497 -1.020441 -1.033867 13.74074 -1.005942 -0.9158511 13.93719 -0.8281416 -1.044678 13.71712 -1.003622 -0.8005864 14.06912 -1.005942 -0.6976308 14.15874 -0.8281416 -0.4752904 14.29283 -1.005942 -0.4152814 14.31822 -0.8281416 -0.3574959 14.33899 -0.8362379 -0.3836736 14.33001 -0.8303897 -0.09336197 14.39251 -1.005942 -0.354966 14.34431 -0.8227601 -0.1662747 14.38418 -0.8857562 0 14.39889 -0.8904816 0 14.39633 -0.9015814 0.2996763 14.35635 -1.005942 0.2760424 14.3625 -0.8972321 0.6528422 14.19155 -0.8911151 0.412594 14.32966 -0.8729124 0 14.40604 -0.8816137 0.6569883 14.18865 -1.005942 0.9143512 13.9392 -0.9228991 0.7718697 14.10945 -0.8776495 0.5454368 14.26626 -1.023902 0.1009962 14.39933 -1.023902 -0.3598687 14.34604 -1.023902 -0.7622101 14.11504 -1.023902 -1.040596 13.74392 -1.023902 -1.056842 13.75157 -1.031342 -0.7857861 14.11803 -1.031342 -1.067893 13.72259 -1.028561 -0.4029436 14.35005 -1.031342 0.03897273 14.42108 -1.031342 0.4751362 14.32076 -1.031342 -1.135666 13.51885 -0.9499928 -1.077818 13.69497 -1.020441 0 14.41312 -0.8776861 0.6301024 14.38534 -1.720046 0.5751096 14.41709 -1.755241 0.596394 14.4048 -1.695955 0.5497096 14.3731 -1.755241 0.6125045 14.3955 -1.755241 0.596394 14.4048 -1.814528 0.5709823 14.36082 -1.814498 0.6990057 14.34556 -1.695955 0.6477 14.37518 -1.671435 0.5709823 14.36082 -1.695985 0.6223 14.33119 -1.671422 0.6828953 14.35486 -1.755241 0.7202901 14.33327 -1.755241 0.6736174 14.30156 -1.695985 0.6652974 14.36502 -1.720046 0.6652974 14.36502 -1.790437 0.6990057 14.34556 -1.814528 0.6948902 14.28928 -1.755241 0.6477 14.37518 -1.839048 0.6736174 14.30156 -1.814498 0.6223 14.33119 -1.839061 0.6301024 14.38534 -1.790437 0.6633045 14.48349 -1.755241 0.6809329 14.47331 -1.720046 0.6809329 14.47331 -1.790437 0.7160669 14.45303 -1.790437 0.7336953 14.44285 -1.755241 0.7160669 14.45303 -1.720046 0.8123776 14.40633 -1.671065 0.8364692 14.39734 -1.755241 0.7542822 14.25499 -1.755241 0.7155833 14.27733 -1.863035 0.8205958 14.42126 -1.839948 0.7155833 14.27733 -1.647448 0.5290165 14.38505 -1.647448 0.6223 14.33119 -1.602865 0.7516162 14.44456 -1.613231 0.6698849 14.49771 -1.608757 0.5828055 14.56758 -1.755241 0.4903175 14.40739 -1.755241 0.6044098 14.5438 -1.663637 0.6144423 14.56056 -1.84725 0.5290165 14.38505 -1.863035 0.6223 14.33119 -1.907618 0.6859247 14.52401 -1.901936 0.7663579 14.46973 -1.897182 -0.6652974 14.36502 -1.720046 -0.7202901 14.33327 -1.755241 -0.6990057 14.34556 -1.695955 -0.6948902 14.28928 -1.755241 -0.6828953 14.35486 -1.755241 -0.6990057 14.34556 -1.814528 -0.6736174 14.30156 -1.814498 -0.596394 14.4048 -1.695955 -0.6477 14.37518 -1.671435 -0.6736174 14.30156 -1.695985 -0.6223 14.33119 -1.671422 -0.6125045 14.3955 -1.755241 -0.5751096 14.41709 -1.755241 -0.5709823 14.36082 -1.695985 -0.6301024 14.38534 -1.720046 -0.6301024 14.38534 -1.790437 -0.596394 14.4048 -1.814528 -0.5497096 14.3731 -1.755241 -0.6477 14.37518 -1.839048 -0.5709823 14.36082 -1.814498 -0.6223 14.33119 -1.839061 -0.6652974 14.36502 -1.790437 -0.7014045 14.54948 -1.755241 -0.7190328 14.5393 -1.790437 -0.7717953 14.50884 -1.755241 -0.7541669 14.51902 -1.790437 -0.6553279 14.63572 -1.666173 -0.6301862 14.64965 -1.755241 -0.4903175 14.40739 -1.755241 -0.5290165 14.38505 -1.863035 -0.6667295 14.65351 -1.845653 -0.5290165 14.38505 -1.647448 -0.7155833 14.27733 -1.647448 -0.6223 14.33119 -1.602865 -0.7328433 14.617 -1.610325 -0.8347499 14.59785 -1.611507 -0.9446263 14.58467 -1.755241 -0.7542822 14.25499 -1.755241 -0.9134904 14.58454 -1.668783 -0.9229047 14.60004 -1.841108 -0.7155833 14.27733 -1.863035 -0.6223 14.33119 -1.907618 -0.8536122 14.62393 -1.897772 -0.7535827 14.64469 -1.901433</float_array>
          <technique_common>
            <accessor source="#ShapeIndexedFaceSet-mesh-positions-array" count="436" stride="3">
              <param name="X" type="float"/>
              <param name="Y" type="float"/>
              <param name="Z" type="float"/>
            </accessor>
          </technique_common>
        </source>
        <source id="ShapeIndexedFaceSet-mesh-normals">
          <float_array id="ShapeIndexedFaceSet-mesh-normals-array" count="2622">0.05861973 0.86861 0.4920166 0.03707611 0.869508 0.4925253 0.09762036 0.8459027 0.5243272 0.01758468 0.2616596 0.965 0.0149427 0.7020176 0.7120028 0.06725996 0.5295937 0.8455806 -0.01086789 0.8378036 0.5458636 0.08071404 0.5290626 0.8447355 0.04859948 0.9856712 0.1615248 0.04216611 0.9859597 0.1615721 0.1474746 0.9443067 0.2941703 -0.04455327 0.950495 0.3075293 0.05725252 0.9802974 -0.1890478 0.03572911 0.9812811 -0.1892375 0.1481485 0.9888074 0.01765936 -0.04387187 0.9988598 0.0188241 0.09217989 0.852283 -0.5148948 0.01775598 0.8557922 -0.5170149 0.08320373 0.8493506 -0.5212301 0.1301129 0.9565542 -0.2609111 -0.031641 0.9618789 -0.2716391 1.33119e-6 -0.9961966 -0.08713376 -0.008643329 0.8418119 -0.5397018 2.47308e-7 -0.9961951 -0.08715176 2.90116e-7 -0.996195 -0.08715152 4.81801e-6 -0.9961966 -0.08713376 0.2846246 0.8170834 -0.5013616 1.14599e-5 -0.9961928 -0.08717727 0 -0.9961928 -0.08717685 0 -0.9961929 -0.08717691 0.3209308 0.9137225 -0.2492282 0.3830853 0.8304564 -0.4044601 0.396054 0.8348376 -0.3823449 0.3200452 0.9472512 0.01691716 0.3940737 0.9129194 -0.1062269 0.3848374 0.9185961 -0.08989661 0.3674948 0.8879382 0.2766104 0.2973071 0.9543064 -0.03013026 0.355314 0.9233971 0.1452233 0.3658821 0.8968959 0.2484109 0.2189358 0.8150047 0.5365022 0.3421194 0.7830313 0.5194385 0.3682569 0.887446 0.2771759 0.09485125 0.4276236 0.8989667 0.3744052 0.7514453 0.5432778 0.3873062 0.7761385 0.4975972 0.5294754 0.678853 0.508738 0.2415834 0.2662079 0.933151 0.07224702 0.09553349 0.992801 0 -0.9961935 -0.08716976 1.07837e-5 -0.9961931 -0.08717399 0.4792442 0.7984393 -0.3644444 1.25618e-5 -0.9961932 -0.0871731 -3.59498e-5 -0.9961915 -0.08719283 0.4696375 0.8769572 -0.1019148 0.6308017 0.7672585 -0.1157734 0.6186544 0.7410512 -0.2609789 0.631587 0.764219 -0.1306417 0.6565575 -0.2101656 0.724405 0.3018779 -0.1776021 0.9366575 0.7979989 -0.4625592 0.3863118 0.3325305 -0.1899015 0.9237753 0.7988378 -0.4612092 -0.3861921 0.800013 -0.4618877 0.3829346 0.5706964 -0.329014 -0.7523665 0.7992119 -0.4632713 -0.3829361 0.4525714 0.8512698 0.2655537 0.2726444 -0.1609838 -0.9485511 0.3435182 -0.1706582 -0.9235101 0.6022165 0.6398437 0.4774256 0.6107321 0.7497136 0.2548249 0.6541242 0.6570369 0.3747321 0.6435936 0.5484263 0.5338688 0.6898139 0.6149557 0.3820815 0.7751332 0.4254968 0.4670342 0.4058639 0.08769047 0.9097169 0.1752117 -0.03944951 0.9837401 0.5935275 0.7541608 0.2810102 -0.3424976 0.1954262 -0.918969 -0.3298402 0.1945712 -0.9237682 0.6950776 0.7038937 0.1462904 -0.800523 0.4648409 -0.3782669 0.6947013 0.70458 0.1447663 0.6744993 0.7382377 0.007459402 -0.8016564 0.462837 0.378324 -0.80001 0.4618865 -0.3829423 0.6103498 0.7798207 -0.1391144 -0.3420339 0.1952739 0.919174 0.6707097 0.737062 -0.08299374 -0.7989288 0.4637565 0.3829395 -0.3301159 0.1940887 0.9237712 0 -0.9961946 -0.08715695 6.91364e-6 -0.9961944 -0.08715879 0 -0.9908806 -0.1347434 0.6611 0.7455926 -0.0838955 -0.009139239 -0.9714496 -0.23707 0.03365963 -0.9802679 -0.1947866 0.8243695 0.5544694 0.1139239 0.7528892 0.6553592 -0.0605176 0.8444469 0.5345509 0.03412836 0.8399499 0.4713859 0.2688485 0.8553112 0.4774301 0.2012544 0.84542 0.362758 0.3920099 0.8525861 0.4256812 0.3031378 0.8451192 0.3564646 0.3983797 0.65854 0.1885684 0.7285376 0.8418982 0.3723809 0.3905636 0.8804844 0.2563615 0.3987808 0.8811458 0.2218249 0.4175833 0.482697 -0.008531212 0.8757458 0.4881717 -0.006936371 0.87272 1.016e-4 -0.9158126 -0.4016059 -1.55265e-5 -0.9582628 -0.2858889 -1.80974e-5 -0.8660278 -0.4999959 0 -0.9158541 -0.4015113 0 -0.8660268 -0.4999976 0 -0.8660274 -0.4999965 -1.38238e-5 -0.8660266 -0.4999979 -1.58322e-5 -0.8660264 -0.4999983 0 -0.8145654 -0.5800718 -1.25333e-5 -0.6900589 -0.7237533 6.2622e-6 -0.8145641 -0.5800735 7.81324e-6 -0.6900641 -0.7237483 2.15341e-5 -0.5407613 -0.8411761 0.9083993 0.1555537 0.38809 -9.19266e-6 -0.3720458 -0.9282144 -1.29676e-6 -0.540768 -0.8411718 0.8795713 0.1367323 0.4556959 0 -0.415931 -0.9093962 0.9013902 0.1094478 0.4189472 0 -0.3720428 -0.9282156 0.03378546 -0.6578683 -0.7523748 0.02682816 -0.3941936 -0.9186357 -0.01616019 -0.5901782 -0.8071113 0.6472414 0.01196676 0.7621912 0.01226079 -0.6977586 -0.7162281 0.01004564 -0.7027636 -0.7113526 -0.008326351 -0.7534675 -0.6574324 0.00548017 -0.7815245 -0.6238504 -0.1733824 -0.9596291 -0.2214738 -0.04187184 0.8071779 0.5888214 -0.03049886 0.5911401 0.8059921 0.04885584 0.5064826 0.860865 0.07065725 0.5141704 0.8547727 -0.04773789 0.820994 0.5689376 -0.1034643 0.8176828 0.566295 -0.04736733 0.3769977 0.9250022 -0.09813028 0.3270294 0.9399055 -0.1757423 0.9366317 0.3030439 -0.1809409 0.7946943 0.5794147 -0.2853338 0.8274805 0.4835913 -0.1048796 0.9943084 0.01873832 -0.1716566 0.9359368 0.3075003 -0.1721956 0.9340742 0.3128163 -0.1461724 0.9520242 -0.2688561 -0.2224887 0.9663853 -0.1288348 0.1313429 0.9653794 0.2253702 -0.1041315 0.9945562 -0.003825962 -0.2035499 0.9692437 -0.1383259 -0.492563 0.4415674 -0.7499333 -0.1603857 0.8318935 -0.531253 -0.2237298 0.8640764 -0.4509068 -1.52965e-5 0.9962001 0.08709388 5.18709e-5 0.9961748 0.08738338 -3.62624e-5 -0.9961917 -0.08719009 -6.17969e-6 -0.9961953 -0.0871495 -0.7939763 0.09853965 0.5999097 4.34485e-7 -0.9961918 0.08718824 -0.4389282 0.05447876 0.896869 -0.6288248 0.1504043 0.7628617 -6.32854e-5 -0.9961959 0.08714151 -0.8026558 0.1022192 0.5876179 0 -0.9961919 0.08718729 -0.8161007 0.1123203 0.5668896 0 -0.9900723 -0.1405596 -0.8239359 0.1338232 0.5506551 -0.003156185 -0.8294661 -0.5585483 -0.00233227 -0.9905095 -0.1374243 0.002249658 -0.8300691 -0.5576559 -0.8253149 0.1514742 0.5439768 0.003285288 -0.4955374 -0.8685804 -0.8126747 0.2671415 0.5178757 0 -0.4584407 -0.8887249 -0.8300772 0.3413926 0.4409341 -0.8160126 0.2181269 0.5352982 0 -0.4978165 -0.8672824 -0.8086194 0.4446267 0.3852815 2.99237e-5 -0.7557409 -0.6548708 -0.7833877 0.3924301 0.4819774 -2.35349e-5 -0.4584447 -0.888723 -0.8030737 0.5522149 0.2239003 0 -0.8660246 -0.5000014 -0.7817479 0.5366476 0.3176154 0 -0.7557446 -0.6548664 -0.7882842 0.6132211 0.05067437 -2.10119e-5 -0.8660241 -0.5000024 -0.7697542 0.6288655 0.1095747 -2.50857e-5 -0.8660259 -0.4999992 -0.7395315 0.6693247 -0.07139807 0 -0.9158803 -0.4014514 0 -0.8660258 -0.4999994 0.9239948 0.04188102 0.3801047 3.49963e-4 -0.9810878 -0.1935627 -0.6424362 0.7513822 -0.1506665 -3.3217e-4 -0.915897 -0.4014132 0 -0.9961946 -0.08715665 0 -0.9811031 -0.1934856 -0.5641092 0.8092325 -0.1640838 -3.4746e-6 0.9961948 0.08715385 -6.59285e-7 -0.9961947 -0.08715641 -0.5185829 0.7592479 -0.3932104 -0.5574759 0.8178706 0.1425074 -0.5217131 0.8462148 -0.1083328 -0.5644212 0.7103905 0.4204452 -0.659035 0.7513577 -0.03368073 -0.570586 0.8096753 0.137323 -0.5130754 0.8247641 0.237735 -0.7289142 0.4286417 0.5338073 -0.5435389 0.6079277 0.5787827 -0.5136234 0.6931098 0.5057569 -0.4482226 0.8178719 0.3608074 -0.2747444 0.1108909 0.9551014 -0.393648 0.2280499 0.8905249 -0.4342754 0.1156168 0.8933295 -0.3850473 0.190934 0.9029301 -0.427271 0.1118211 0.8971821 -0.3411105 0.3780571 0.8606489 -0.2650249 0.2707298 0.9254552 4.48132e-6 -0.996195 -0.08715265 2.60472e-4 -0.9962026 -0.08706557 2.26697e-6 -0.996195 -0.0871523 -1.08736e-5 -0.9961956 -0.08714509 -1.05534e-5 -0.9961939 -0.08716422 2.03616e-5 -0.9961943 -0.08715999 -0.5251555 0.8441116 -0.1081082 0.8188347 0.5113169 0.2608922 0.689369 0.3987645 0.6047787 0.8459926 0.4884378 -0.2138342 0.800014 0.4618918 0.3829275 -0.5145143 0.8239302 0.2375164 0.6880765 0.4605885 -0.5607218 -0.3613902 0.8946364 0.262722 -0.1092472 0.2002772 0.9736294 -0.150755 0.4342046 0.8881099 -0.1336653 0.3292185 0.9347453 -0.04834944 0.3652096 0.9296689 0.332233 0.1912937 -0.9235951 0.7997185 0.4624018 -0.3829294 -0.3350855 -0.1947794 -0.9218344 -0.3317878 -0.1912004 -0.9237745 0.3317866 0.1911939 -0.9237762 -0.8020755 -0.4615609 -0.378994 -0.7996515 -0.4616806 0.3839382 -0.8000095 -0.4618874 -0.3829423 -0.3232567 -0.1891497 0.9272149 -0.7998514 -0.4621628 0.3829403 -0.3318669 -0.1910568 0.9237757 0.3436489 0.1965404 0.9183013 0.3305532 0.1933221 0.9237754 6.05933e-6 -0.9961957 -0.08714336 6.13206e-6 -0.9961961 -0.0871402 0 0 1 0 -0.9961929 0.08717542 0.3980466 -0.1099814 0.9107486 0 -0.996193 0.08717542 -3.78554e-6 -0.9961931 0.08717411 0.3775345 -0.1032919 0.9202165 0 0 1 -0.2266474 0.02844202 0.9735615 0 -0.996193 0.08717542 5.06952e-5 -0.9961937 0.08716803 0 0 1 0 0 1 0 0 1 0 0 1 0 0 1 0 0 1 0.2062504 -0.3292194 0.9214529 0.1607311 -0.03048014 0.9865275 0.1691247 -0.05049848 0.9843001 0.215171 -0.3254319 0.9207581 0.3022671 -0.2256175 0.9261379 0.2121406 -0.3397108 0.916293 0.2943742 -0.219085 0.9302396 -0.726184 -0.6847841 0.06105399 -0.8280112 -0.5604487 -0.01716828 -0.5978515 -0.7947027 0.1049822 -1.90835e-4 -0.9962056 -0.08703058 -0.5964761 -0.730572 0.3323864 -0.6471253 -0.7591245 0.07041925 -0.6096724 -0.7785833 0.1486866 -0.5337107 -0.7957154 0.2863389 -0.7048196 -0.7063377 0.06569904 0.638213 -0.7597351 0.1244462 0.5331481 -0.8328878 0.1484961 0.720237 -0.6899173 0.07261466 0.786697 -0.6145286 -0.05884367 -0.8346158 -0.4928148 -0.2460691 -0.8452428 -0.4352887 -0.3099811 -0.8336012 -0.4928054 -0.2495032 -0.8388055 -0.5185971 -0.1657177 -0.8109552 -0.5748108 -0.1092897 0.7913488 -0.560128 -0.2449974 0.8007412 -0.452699 -0.3922719 0.772964 -0.5477603 -0.3201333 0.7664723 -0.632027 -0.1142897 -0.8980112 -0.1636886 -0.4083894 -0.9054138 -0.1118469 -0.4095315 -0.9340606 -0.209182 -0.2894369 -0.9227934 -0.1887042 -0.3359212 -0.9157061 -0.1745821 -0.361944 -0.9112396 -0.1643493 -0.377666 -0.9082481 -0.1563525 -0.3881228 -0.9067531 -0.1516042 -0.3934653 -0.9056091 -0.1478201 -0.397519 -0.9037418 -0.1407603 -0.4042737 -0.8997016 -0.1227224 -0.4188989 -0.9024764 -0.1377828 -0.4081081 -0.8436872 -0.3704506 -0.3885334 -0.8337259 -0.406805 -0.3733775 -0.8636479 -0.2725988 -0.424031 -0.8301445 -0.491159 -0.2638617 -0.897524 -0.3623358 -0.2513231 -0.8882688 -0.2776764 -0.3658883 -0.8902364 -0.228273 -0.3941709 0.8160754 -0.264956 -0.5136334 0.8120847 -0.158915 -0.5614842 0.7970925 -0.20048 -0.5696063 0.7752422 -0.4078115 -0.4823788 0.785324 -0.3661155 -0.4992252 0.8130133 -0.05852264 -0.5792965 0 -0.08715528 -0.9961947 -4.82407e-5 -0.08715438 -0.9961948 0.8116317 -0.1445283 -0.5660085 0.8260369 -0.07277786 -0.5588975 0.7208517 -0.460161 -0.5182902 -0.9807569 -0.1864644 -0.05785387 -0.8997383 -0.0941869 -0.4261453 -0.8680902 -0.07985359 -0.4899417 -0.9807159 -0.1861937 -0.05939954 -0.8993299 -0.3239673 0.2936852 -0.7052092 -0.03359007 -0.7082031 0.00288254 -0.7888056 -0.6146361 -0.6082925 -0.2860726 0.7403666 -0.9069249 -0.3316645 -0.2597803 -0.119929 -0.2097992 0.9703615 -0.1698788 -0.2185924 0.9609155 0.5315854 -0.8131303 0.2371416 0.5304467 -0.8312786 0.166139 0.4128086 -0.8524485 0.3208122 0.5660487 -0.8116531 0.1442503 0.5037426 -0.8391894 0.2049502 0.4451808 -0.8018742 0.3985122 0.3115448 -0.8417897 0.4408288 0.1712975 -0.8752089 0.4524008 0.1644853 -0.8729518 0.4592383 0.05992329 -0.8732172 0.4836331 4.57517e-6 -0.9962056 -0.08703023 0.006590485 -0.8675269 0.4973465 0.02367776 -0.8748661 0.4837858 -0.09095513 -0.8639497 0.4952958 -1.71515e-5 -0.9961972 -0.0871278 -0.3054221 -0.8396933 0.4490351 -0.1265423 -0.8747109 0.4678332 -0.3564936 -0.8501459 0.3875104 0 -1 0 -1.53439e-4 -0.9961941 0.08716273 0.8911039 -0.336051 -0.3049647 0.8589671 -0.3527414 -0.3711455 0.6819151 -0.4107475 -0.6052093 2.67556e-6 -0.08714389 -0.9961957 -0.9964458 0.08423745 0 0 -1 0 0 -1 0 -2.66211e-4 -0.9962012 0.08708035 0.8995355 -0.2051752 0.385667 -4.87792e-6 -0.9961959 0.08714246 0.001048982 -0.9961799 0.08731842 0.9056565 -0.2477638 -0.3440922 0.9881883 -0.1531071 0.006493926 0.9677754 -0.2207401 -0.1211798 0.9881963 -0.1530503 0.006614446 0.9750214 -0.1962301 -0.1040533 0.2066335 0.3117144 0.9274356 -0.3120362 -0.9500314 -0.008584797 -0.6954853 -0.7001367 -0.1615819 -0.2276011 -0.9587233 -0.1704334 -0.7221304 -0.6915392 0.01735705 -0.7024459 -0.7117264 -0.003897547 -0.3423079 -0.9232289 0.174567 -0.6028409 -0.7538205 -0.2614144 -0.2956891 -0.9434406 0.1499592 -0.4999821 0.8660357 8.53462e-5 -0.6821932 -0.713086 -0.1616194 -0.3390638 -0.924992 0.171539 -0.4520134 -0.8771584 0.1621022 -0.5538291 -0.7838372 -0.2808427 -0.6001371 -0.7569561 -0.2585597 -0.1265301 -0.9796645 0.1557169 -0.08991199 -0.9783888 0.1862018 -0.2285275 -0.9586679 -0.1695021 -0.1266028 -0.9768027 -0.1727085 -0.08983671 -0.9855868 -0.1433454 -0.3005585 -0.8342587 -0.4622519 -0.1246493 -0.8679021 -0.4808415 -0.3749068 -0.8635413 -0.3372557 -0.3999935 -0.8201174 -0.4091609 -0.355138 -0.8879131 -0.2923821 -0.08975821 -0.8848289 -0.4571884 -0.2770724 -0.8564233 -0.4356262 0.3222791 0.9466297 -0.005333185 0.152589 0.9878534 0.02936267 -0.3912765 -0.7464305 -0.538279 0.4604044 0.8751716 -0.1486687 -0.6054179 -0.6463604 -0.4644216 -0.5710705 -0.7071987 -0.4168315 0.6090585 0.7930502 0.01091432 0.4563217 0.8834635 -0.1061263 -0.606479 -0.7408007 -0.2887863 -0.6419029 -0.6841039 -0.3463561 -0.5604841 -0.8185671 0.1257203 -0.4407297 -0.6075481 -0.6607894 -0.5017292 -0.8295821 0.2450741 -0.6456678 -0.7412695 0.1833921 -0.527422 -0.8245147 0.2049429 -0.6401698 -0.7557798 0.1377661 -0.5025842 -0.8023402 -0.3219616 -0.5197843 -0.80539 -0.2849056 -0.786217 -0.4529195 0.4203887 -0.3997424 -0.8662902 -0.2995787 -0.4480222 -0.8521545 -0.2703865 -0.7099062 -0.7036949 -0.02909773 -0.3564701 -0.9207596 -0.158527 -0.7473896 -0.6508845 -0.1332601 -0.3236725 -0.9458708 0.02375924 -0.7698901 -0.626945 -0.119202 -0.3151304 -0.9303229 -0.1875957 -0.6625788 -0.7097213 -0.2393428 -0.3841999 -0.9037167 0.1889086 -0.322774 -0.9461796 0.02368819 -0.4127328 -0.8945127 0.1717516 -0.6745073 -0.5419691 -0.5013077 0.7163836 0.6930285 -0.08066052 0.6246473 0.5642612 -0.5398381 0 0 -1 0 0 -1 0 0 -1 -0.09512299 -0.03579145 -0.9948219 -0.8155125 -0.5277999 -0.2374166 -0.1441043 -0.06553125 -0.9873903 -0.1877798 -0.09062021 -0.9780218 -0.2308378 -0.1143453 -0.96625 -0.2760861 -0.1384915 -0.9511028 -0.3278425 -0.1654146 -0.9301383 -0.3687803 -0.1862369 -0.9106684 -0.8823183 -0.155254 -0.4443092 -0.8810058 -0.1587616 -0.445672 -0.8803369 -0.1666934 -0.4440947 -0.8769671 -0.4187158 -0.2358087 -0.8662285 -0.4376166 0.2411224 -0.8835072 -0.1517193 -0.4431662 -0.8825891 -0.1536021 -0.4443455 -0.883804 -0.1494307 -0.4433519 -0.8775306 -0.1299303 -0.4615821 -0.8511955 -0.1182078 -0.511364 -0.7925171 -0.09105885 -0.6030132 -0.5981475 -0.01193052 -0.8012973 -0.9638213 -0.2528635 0.08431214 -0.9363576 -0.2972648 -0.1867299 -0.8360394 -0.3991744 0.376428 -0.00488311 -0.982356 0.1869568 -0.01413863 -0.9894893 -0.143913 0.03365755 -0.9882666 0.148984 -0.02180165 -0.8882037 -0.4589322 0.04212576 -0.9782125 -0.203287 0.0226401 -0.8632657 -0.5042417 -0.09912562 0.9910183 0.08975934 0.1149765 0.9748108 -0.191113 0.1469213 -0.8227733 -0.5490522 -0.3999665 0.9165287 0.001407086 0.2038383 -0.7775603 -0.5948529 0 0 -1 -0.5684266 0.8226968 -0.007828533 -0.5657049 0.8244652 -0.01533383 0.1243804 -0.8417841 -0.5252895 0.09217333 -0.844706 -0.5272342 -0.3094865 0.9506437 -0.02224028 -0.005818963 -0.9790651 -0.2034642 -0.08504968 -0.9803106 -0.178207 0.09726232 -0.9566381 -0.2745608 0.2421579 -0.8695067 -0.4304854 0.2003284 -0.911917 -0.3581562 0.06707227 -0.9866001 0.1487328 0.01773631 -0.9651247 0.2611892 0.09346157 -0.9952848 -0.02594608 0.1747201 -0.9578353 0.2280888 0.2772763 -0.9421786 0.1881951 0.2615277 -0.9359654 -0.2357372 0.2672983 -0.9520007 -0.1491514 0.2149618 -0.957175 -0.193926 0.3673256 -0.887033 -0.2797222 0.2435184 -0.9245737 -0.2930227 0.5162563 -0.8362358 -0.1849028 0.3832892 -0.8551427 -0.3490278 0.5681456 -0.8223932 0.02966505 0.55562 -0.8011354 -0.2224153 0.4404253 -0.8700263 0.2215395 0.5577068 -0.829476 0.03054088 0.2530989 -0.9405878 0.2263526 0.3800199 -0.9078869 0.1769924 0.3688603 -0.8681786 -0.3319758 0.2088546 -0.970096 0.1236668 0.2298083 -0.9639424 0.1341763 0.5041689 -0.8061212 -0.3098102 0.4921262 -0.8012781 -0.3402429 0.2107763 -0.9763535 0.04803359 0.1790521 -0.9813241 0.07031029 0.3761631 -0.7338438 -0.565663 0.5052591 -0.6836772 -0.5265917 0.5570425 -0.7170088 -0.4190489 0 0 -1 0.5192425 -0.6465676 -0.5588718 0 0 -1 -0.2350918 0.9524537 -0.1938135 0.6000982 -0.7871599 -0.1423425 0.6182728 -0.7648185 -0.181084 0.5703439 -0.8213901 0.005129635 0.6899804 -0.4650686 -0.5546514 0 0 -1 0 0 -1 0 0 -1 0.1791576 -0.983583 -0.02161157 0.2091082 -0.9710709 -0.1153042 0.2119839 -0.9763085 -0.04341059 0.2372012 -0.9556264 -0.1746821 -0.5000053 0.8660224 -3.66041e-5 0.2216295 -0.9683853 -0.1144992 0 0.9961872 -0.08724194 0 -0.0871669 -0.9961937 0 0 -1 0 0.9961763 -0.08736556 9.40234e-6 0.996198 -0.08711838 0 0 -1 -0.947991 0.2799029 0.1515503 -0.9857811 0.1679724 -0.004562854 -0.9857862 0.1679418 -0.004608273 -0.8100153 0.5863605 0.007520556 -0.8192245 0.5727362 -0.02905964 -0.9140319 0.405616 0.004618763 -0.9469661 0.3169946 0.05262762 -0.9229561 0.3846924 0.01280581 -0.9940305 0.1020155 -0.03868055 -0.9892116 0.1120769 -0.0943349 0.8742144 -0.4833342 -0.04623007 0.6442562 -0.3561953 0.6768003 0.9088013 -0.4170617 -0.01182013 0.9177445 -0.397142 -0.00484085 0.9521536 -0.305321 0.01351654 0.7112043 -0.7005276 -0.05873316 0.5214551 -0.5136269 0.6813751 0.8112812 -0.5763337 0.09829741 0.6587213 -0.4902466 -0.5707404 0.4913865 -0.8699482 -0.04158675 0.415108 -0.734905 -0.5362836 0.5644975 -0.8208514 0.08686536 -0.3550191 0.9169161 -0.1822804 0.3535054 -0.8970436 0.2652293 0.359221 -0.8891816 0.2834014 0.2521966 -0.9662293 0.05289435 0.3377175 -0.8599401 0.3826875 0.4905931 -0.7856101 0.3770081 0.3681239 -0.8817924 0.2948337 0.2498565 -0.9645759 0.08464646 0.05904144 -0.8403379 -0.538838 0.2041184 -0.923106 0.3259002 0.07039403 -0.9971675 -0.02648931 0.09220689 -0.9703847 0.2232743 -0.122062 -0.9920813 0.02959018 -0.1220588 -0.9672496 0.222553 -0.09099179 -0.9888853 0.1175855 -0.4123458 -0.9102283 -0.03814953 -0.2760807 -0.5811241 0.7655548 -0.08695316 -0.7756254 0.6251755 -0.1652482 -0.9301274 -0.3279573 -0.6948112 -0.7191588 -0.006935954 -0.4707528 -0.5724025 0.6713771 -0.4248577 -0.905229 0.007507562 -0.4687079 -0.7548224 -0.4588639 -0.864396 -0.5007429 -0.04556459 -0.655273 -0.5042269 0.5624701 -0.7058139 -0.7049438 0.06986331 -0.704559 -0.4420964 -0.5551104 -0.9141564 -0.3637014 0.1789951 -0.5114858 -0.5108553 -0.6909481 -0.2625001 -0.5592995 -0.7863065 -0.5323767 -0.6359494 0.5586979 -0.05403375 -0.5872312 -0.8076137 -0.2152835 -0.7189894 0.6608383 0.1582557 -0.6063178 -0.7793163 0.08683383 -0.7509149 0.6546654 0.4220132 -0.6136611 -0.6673267 0.4211958 -0.733631 0.5332726 0.7887778 -0.5603473 0.2526667 -0.8985605 0.4227714 0.1177 0.8319513 -0.4372268 -0.3415989 0.8203779 -0.4250894 -0.3824645 0.7412714 -0.5560323 -0.3759584 0 0 -1 0.3127996 -0.2313678 -0.9212086 0 0 -1 0 -0.09552234 -0.9954273 0.3227251 -0.211602 -0.9225363 0 0 -1 0.2331306 -0.3846698 -0.8931289 0 0 -1 0.271131 -0.203377 -0.9408112 0 0 -1 0.09003251 -0.5601292 -0.8234983 0 0 -1 0.1423889 -0.2480104 -0.958236 0 0 -1 -0.1600471 -0.695815 -0.7001618 0 0 -1 0.02879327 -0.2489961 -0.9680764 0 0 -1 -0.498141 -0.7103666 -0.4972271 0 0 -1 -0.0648595 -0.2166134 -0.9741005 -0.1339672 -0.1600303 -0.9779791 -3.08993e-4 -0.09570151 -0.99541 0 -0.3713909 -0.9284766 9.47424e-6 -0.3713889 -0.9284774 9.21178e-6 -0.3713909 -0.9284766 0 -0.2821515 -0.9593698 0 -0.3713876 -0.928478 1.14773e-4 -0.2820751 -0.9593923 0.2599903 -0.3945059 -0.8813457 0.08122235 -0.3930444 -0.9159252 0.3448741 -0.417194 -0.8408395 0.4464361 -0.3962672 -0.8022887 0.371632 -0.3436291 -0.8624435 0.2328621 -0.7571711 0.6103009 -0.107544 -0.4819356 0.8695817 0.2286473 -0.4719057 0.8514842 0.2304963 -0.5817522 0.7800229 -0.1019544 -0.1873541 0.9769871 -0.05863755 -0.2068053 0.9766234 -0.02224904 -0.05288964 0.9983525 -0.06978136 -0.2270787 0.9713732 -0.103083 -0.1889839 0.9765547 -0.1076389 -0.2513783 0.961885 0.1842637 -0.05199682 0.9815005 0.1836162 -0.04595452 0.9819232 0.3225972 -0.5605949 0.7626693 -0.4999957 -0.8660279 -2.32106e-5 0.8000081 -0.461876 -0.382959 -0.5000216 -0.8660129 1.07983e-5 0.7999906 -0.4619081 0.382957 -0.5000216 -0.8660129 3.08097e-5 0.8000184 -0.4618819 0.3829303 -0.5000019 -0.8660243 1.98796e-5 0.3314186 -0.1908353 -0.9239825 -0.5000019 -0.8660243 -3.48624e-5 0.7999997 -0.4619122 -0.382933 -0.3313151 0.1910124 -0.923983 0.3315093 -0.1916703 -0.9237771 -0.4999884 -0.8660321 -1.51359e-5 -0.8000153 0.4618792 -0.3829399 -0.5000183 -0.8660148 -4.31696e-6 -0.5000019 -0.8660243 -3.50137e-5 -0.3314067 0.191856 -0.9237753 -0.5000076 -0.866021 2.43011e-5 -0.8000113 0.4618879 0.382938 -0.4999884 -0.8660321 -1.55897e-5 -0.8000131 0.4618889 -0.382933 -0.5000019 -0.8660243 -1.98795e-5 -0.3309749 0.1916046 0.9239823 -0.5000019 -0.8660243 3.49397e-5 -0.8000193 0.4618804 0.3829303 0.3310822 -0.1914213 0.9239819 -0.3317466 0.1912641 0.9237761 -0.4999811 -0.8660363 -3.85233e-6 -0.5000019 -0.8660243 3.47884e-5 0.3318456 -0.1910846 0.9237776 0.7499998 -0.4330142 0.4999989 0.7498475 -0.4332737 -0.5000027 0.7496721 -0.432825 -0.5006538 1.17333e-6 2.03226e-6 1 0.7495236 -0.4330866 0.5006499 -0.7501446 0.4327545 0.5000067 1.17333e-6 2.03226e-6 1 -0.749996 0.4330073 -0.5000106 -0.7496805 0.4328251 0.5006411 1.17333e-6 2.03226e-6 -1 -0.7498251 0.4325702 -0.5006449 1.17333e-6 2.03226e-6 -1 0.8292183 -0.4787493 0.2884373 0.8000071 -0.4618841 -0.3829515 0.5815799 -0.7744039 0.2491253 0.7931672 -0.5308041 -0.298551 0.541196 -0.7772434 -0.3209356 0.517407 -0.812762 0.2677834 0.7713232 -0.5087734 0.3823743 -0.5000134 -0.8660177 -1.96777e-7 -0.5000045 -0.8660228 -4.0836e-6 -0.5000134 -0.8660177 1.21465e-5 -0.4999977 -0.8660268 1.67116e-6 0.2949222 -0.2521311 0.9216565 -0.4999977 -0.8660268 -3.10785e-6 0.5633183 -0.2804052 0.7772036 -0.4999971 -0.8660271 -4.36044e-6 -0.4999974 -0.8660268 -3.96002e-6 -0.3621323 0.1361135 0.9221352 0.06541001 0.01661133 0.9977203 -0.8000097 0.4618815 0.3829489 -0.4999895 -0.8660315 -3.75987e-6 -0.8455106 0.4333606 0.3119462 -0.4736815 0.3090593 0.8246868 -0.5000001 -0.8660253 -1.61415e-5 -0.8209423 0.4739668 -0.3184481 -0.8166869 0.4319097 -0.3827226 -0.4999927 -0.8660296 2.17426e-6 -0.4999927 -0.8660296 2.25236e-6 -0.9663125 0.07290339 0.2468304 -0.945096 0.01767665 -0.3263147 -0.9496317 0.1108118 -0.2931217 -0.6850038 -0.1168689 0.7191046 -0.5000053 0.8660224 3.66045e-5 -0.9636182 0.06974917 0.2580212 -0.9331302 -0.3516535 -0.07488566 -0.6855607 -0.09999883 0.721115 -0.220023 -0.4127746 0.8838592 -0.213913 -0.3490248 0.9123721 0.2390142 -0.6754143 0.6976301 0.269846 -0.6030784 0.7506528 -0.4999976 -0.8660268 -1.67115e-6 -0.35723 0.1450639 -0.9226827 -0.4999977 -0.8660268 3.10785e-6 -0.4751103 0.3054533 -0.8252081 -0.4999867 -0.8660331 6.31919e-7 -0.5000002 -0.8660253 1.61415e-5 0.300511 -0.2429941 -0.9223052 0.06446748 0.008133232 -0.9978867 0.5626958 -0.2861402 -0.7755625 -0.4999975 -0.8660269 3.96003e-6 0.2314633 -0.6231436 -0.7470722 0.5258505 -0.7915125 -0.3114309 -0.2133677 -0.3944915 -0.8937845 0.2417101 -0.6048033 -0.7588077 -0.6486122 -0.1529659 -0.7455895 -0.2068161 -0.340885 -0.9170739 -0.6565078 -0.07726156 -0.750352 0.5000193 0.8660143 -1.41853e-6 0.5000193 0.8660143 3.96288e-5 0.4999949 0.8660284 -1.02748e-5 0.4999994 0.8660258 -1.52224e-5 0.4999994 0.8660258 1.68517e-5 0.4999818 0.8660359 -1.45723e-5 0.5000004 0.8660252 2.06367e-5 0.5000037 0.8660233 8.61625e-6 0.5000016 0.8660245 4.35399e-6 0.5000016 0.8660245 -7.61758e-6 0.5000048 0.8660226 -6.49412e-6 0.5000004 0.8660252 -1.50192e-5 0.4999994 0.8660258 -1.88043e-5 0.4999994 0.8660258 1.52223e-5 0.5000076 -0.866021 -2.43012e-5 0.8000106 0.4618875 -0.3829399 0.4999884 -0.8660321 1.51358e-5 0.8000165 0.4618788 0.382938 0.4999884 -0.8660321 1.55899e-5 0.800014 0.4618895 0.3829303 0.5000019 -0.8660243 1.98796e-5 0.3309725 0.1916056 -0.9239829 0.5000019 -0.8660243 -3.49397e-5 0.8000179 0.4618806 -0.3829329 -0.3310797 -0.1914224 -0.9239825 0.3317491 0.191263 -0.9237754 0.5000216 -0.8660129 -1.07983e-5 -0.7999904 -0.4619069 -0.382959 0.4999811 -0.8660363 3.85236e-6 0.5000019 -0.8660243 -3.47884e-5 -0.331848 -0.1910835 -0.923777 0.4999956 -0.866028 2.32105e-5 -0.8000088 -0.4618765 0.382957 0.5000216 -0.8660129 -3.08094e-5 -0.8000174 -0.4618814 -0.382933 0.5000019 -0.8660243 -1.98795e-5 -0.3314189 -0.190838 0.9239818 0.5000019 -0.8660243 3.48624e-5 -0.8000001 -0.4619135 0.3829303 0.3313153 0.1910151 0.9239823 -0.331509 -0.1916676 0.9237778 0.5000183 -0.8660148 4.31693e-6 0.5000019 -0.8660243 3.50137e-5 0.3314064 0.1918534 0.923776 -0.7499986 -0.4330121 -0.5000028 -0.7499146 -0.4331619 0.4999989 -0.7496752 -0.4328253 0.500649 -6.70473e-7 1.16129e-6 -1 -0.7495874 -0.4329729 -0.5006528 0.7500807 0.4328607 -0.5000106 -6.70443e-7 1.1613e-6 -1 0.7499977 0.4330089 0.5000068 0.7496739 0.4328219 -0.5006538 -6.70469e-7 1.16128e-6 1 0.7497607 0.432676 0.5006499 -6.70446e-7 1.1613e-6 1 0.8241916 0.4758484 0.3070448 0.8000078 0.4618858 -0.3829478 0.9616121 0.01602882 0.2739437 0.8349657 0.4489125 -0.3182921 0.9267128 0.04999423 -0.3724297 0.9604399 9.87159e-4 0.2784857 0.813205 0.4383543 0.3828096 0.4999927 -0.8660296 -2.17427e-6 0.4999894 -0.8660315 3.75986e-6 0.4999927 -0.8660296 -2.25234e-6 0.4999977 -0.8660268 1.67116e-6 0.3493707 0.1592282 0.9233561 0.4999977 -0.8660268 -3.10785e-6 0.503888 0.3140064 0.8046719 0.4999867 -0.8660331 -6.31922e-7 0.5000001 -0.8660253 -1.61415e-5 -0.3141331 -0.2203453 0.9234545 -0.01537686 0.02014446 0.9996788 -0.800007 -0.4618833 0.3829526 0.5000045 -0.8660228 4.08361e-6 -0.8131167 -0.5035345 0.2920517 -0.5313209 -0.2869256 0.7971022 0.4999974 -0.8660268 -3.96002e-6 -0.8275346 -0.4777764 -0.2948156 -0.7888419 -0.4807776 -0.3828594 0.5000134 -0.8660176 1.96777e-7 0.5000134 -0.8660176 -1.21466e-5 -0.5897511 -0.7794824 0.211189 -0.5446341 -0.7908165 -0.2792543 -0.6095857 -0.750386 -0.2555899 -0.2917196 -0.7620331 0.5781048 -0.5000053 0.8660224 -5.64019e-6 -0.5672007 -0.7835893 0.2535174 -0.1720984 -0.9739913 -0.1473873 0.09310233 -0.5469269 0.8319873 -0.3134059 -0.6230305 0.7166658 0.6017865 -0.1536861 0.7837306 0.6325206 -0.2138777 0.7444286 0.1359348 -0.3882667 0.9114662 0.4999976 -0.8660268 -1.67115e-6 -0.3154259 -0.2181741 -0.9235295 0.4999977 -0.8660268 3.10785e-6 -0.5419673 -0.2947112 -0.7870303 0.4999971 -0.8660271 4.36041e-6 0.4999975 -0.8660269 3.96003e-6 0.3469717 0.1635178 -0.923511 -0.03741067 0.004049837 -0.9992918 0.4924301 0.3053663 -0.8150239 0.5000002 -0.8660253 1.61415e-5 0.5369535 -0.2992068 -0.7887689 0.6163811 -0.09818607 -0.7813027 0.9425446 -0.05219084 -0.3299785 0.08596283 -0.5594751 -0.8243774 0.1451665 -0.3425652 -0.9282111 -0.2635575 -0.7302902 -0.6302489 -0.2955375 -0.6009915 -0.7426082 -0.5000022 0.8660241 -4.76525e-6 -0.5000023 0.8660241 2.1554e-5 -0.5000187 0.8660145 1.57745e-5 -0.4999821 0.8660357 4.96898e-5 -0.500013 0.8660179 -2.66913e-5 -0.5000053 0.8660224 -4.1296e-5 -0.5000052 0.8660224 5.8677e-6 -0.5000187 0.8660147 1.12374e-6 -0.5000187 0.8660146 -1.49046e-5 -0.5000099 0.8660197 3.09349e-6</float_array>
          <technique_common>
            <accessor source="#ShapeIndexedFaceSet-mesh-normals-array" count="874" stride="3">
              <param name="X" type="float"/>
              <param name="Y" type="float"/>
              <param name="Z" type="float"/>
            </accessor>
          </technique_common>
        </source>
        <vertices id="ShapeIndexedFaceSet-mesh-vertices">
          <input semantic="POSITION" source="#ShapeIndexedFaceSet-mesh-positions"/>
        </vertices>
        <polylist material="Shape-material" count="874">
          <input semantic="VERTEX" source="#ShapeIndexedFaceSet-mesh-vertices" offset="0"/>
          <input semantic="NORMAL" source="#ShapeIndexedFaceSet-mesh-normals" offset="1"/>
          <vcount>3 3 3 3 3 3 3 3 3 3 3 3 3 3 3 3 3 3 3 3 3 3 3 3 3 3 3 3 3 3 3 3 3 3 3 3 3 3 3 3 3 3 3 3 3 3 3 3 3 3 3 3 3 3 3 3 3 3 3 3 3 3 3 3 3 3 3 3 3 3 3 3 3 3 3 3 3 3 3 3 3 3 3 3 3 3 3 3 3 3 3 3 3 3 3 3 3 3 3 3 3 3 3 3 3 3 3 3 3 3 3 3 3 3 3 3 3 3 3 3 3 3 3 3 3 3 3 3 3 3 3 3 3 3 3 3 3 3 3 3 3 3 3 3 3 3 3 3 3 3 3 3 3 3 3 3 3 3 3 3 3 3 3 3 3 3 3 3 3 3 3 3 3 3 3 3 3 3 3 3 3 3 3 3 3 3 3 3 3 3 3 3 3 3 3 3 3 3 3 3 3 3 3 3 3 3 3 3 3 3 3 3 3 3 3 3 3 3 3 3 3 3 3 3 3 3 3 3 3 3 3 3 3 3 3 3 3 3 3 3 3 3 3 3 3 3 3 3 3 3 3 3 3 3 3 3 3 3 3 3 3 3 3 3 3 3 3 3 3 3 3 3 3 3 3 3 3 3 3 3 3 3 3 3 3 3 3 3 3 3 3 3 3 3 3 3 3 3 3 3 3 3 3 3 3 3 3 3 3 3 3 3 3 3 3 3 3 3 3 3 3 3 3 3 3 3 3 3 3 3 3 3 3 3 3 3 3 3 3 3 3 3 3 3 3 3 3 3 3 3 3 3 3 3 3 3 3 3 3 3 3 3 3 3 3 3 3 3 3 3 3 3 3 3 3 3 3 3 3 3 3 3 3 3 3 3 3 3 3 3 3 3 3 3 3 3 3 3 3 3 3 3 3 3 3 3 3 3 3 3 3 3 3 3 3 3 3 3 3 3 3 3 3 3 3 3 3 3 3 3 3 3 3 3 3 3 3 3 3 3 3 3 3 3 3 3 3 3 3 3 3 3 3 3 3 3 3 3 3 3 3 3 3 3 3 3 3 3 3 3 3 3 3 3 3 3 3 3 3 3 3 3 3 3 3 3 3 3 3 3 3 3 3 3 3 3 3 3 3 3 3 3 3 3 3 3 3 3 3 3 3 3 3 3 3 3 3 3 3 3 3 3 3 3 3 3 3 3 3 3 3 3 3 3 3 3 3 3 3 3 3 3 3 3 3 3 3 3 3 3 3 3 3 3 3 3 3 3 3 3 3 3 3 3 3 3 3 3 3 3 3 3 3 3 3 3 3 3 3 3 3 3 3 3 3 3 3 3 3 3 3 3 3 3 3 3 3 3 3 3 3 3 3 3 3 3 3 3 3 3 3 3 3 3 3 3 3 3 3 3 3 3 3 3 3 3 3 3 3 3 3 3 3 3 3 3 3 3 3 3 3 3 3 3 3 3 3 3 3 3 3 3 3 3 3 3 3 3 3 3 3 3 3 3 3 3 3 3 3 3 3 3 3 3 3 3 3 3 3 3 3 3 3 3 3 3 3 3 3 3 3 3 3 3 3 3 3 3 3 3 3 3 3 3 3 3 3 3 3 3 3 3 3 3 3 3 3 3 3 3 3 3 3 3 3 3 3 3 3 3 3 3 3 3 3 3 3 3 3 3 3 3 3 3 3 3 3 3 3 3 3 3 3 3 3 3 3 3 3 3 3 3 3 3 3 3 3 3 3 3 3 3 3 3 3 3 3 3 3 3 3 3 3 3 3 3 3 3 3 3 3 3 3 3 3 3 3 3 3 3 3 3 3 3 3 3 3 3 3 3 3 3 3 3 3 3 3 3 3 3 3 3 3 3 3 3 3 3 3 3 3 3 3 3 3 3 3 3 3 3 3 3 3 3 3 3 3 3 3 3 3 3 3 3 3 3 3 3 3 3 3 3 3 3 3 3 3 3 3 3 3 3 3 3 </vcount>
          <p>3 0 2 0 1 0 2 1 3 1 4 1 1 2 2 2 5 2 5 3 2 3 6 3 8 4 2 4 7 4 2 5 8 5 9 5 2 6 4 6 7 6 6 7 2 7 9 7 11 8 3 8 10 8 3 9 11 9 12 9 10 10 3 10 1 10 4 11 3 11 12 11 14 12 11 12 13 12 11 13 14 13 15 13 13 14 11 14 10 14 12 15 11 15 15 15 17 16 14 16 16 16 14 17 17 17 18 17 16 18 14 18 19 18 19 19 14 19 13 19 15 20 14 20 18 20 17 21 16 21 20 21 18 22 17 22 21 22 21 23 17 23 22 23 22 24 17 24 23 24 23 25 17 25 20 25 16 26 19 26 24 26 16 27 24 27 25 27 20 28 16 28 26 28 26 29 16 29 25 29 19 30 13 30 27 30 24 31 19 31 28 31 28 32 19 32 27 32 13 33 10 33 29 33 27 34 13 34 30 34 30 35 13 35 29 35 10 36 1 36 31 36 29 37 10 37 32 37 32 38 10 38 33 38 33 39 10 39 31 39 34 40 1 40 5 40 1 41 34 41 35 41 31 42 1 42 35 42 34 43 5 43 6 43 34 44 36 44 35 44 36 45 34 45 6 45 35 46 36 46 37 46 37 47 36 47 38 47 38 48 36 48 6 48 24 49 28 49 39 49 25 50 24 50 39 50 28 51 27 51 40 51 28 52 40 52 41 52 39 53 28 53 41 53 27 54 30 54 42 54 27 55 42 55 43 55 40 56 27 56 44 56 44 57 27 57 43 57 30 58 29 58 45 58 42 59 30 59 45 59 29 60 32 60 46 60 45 61 29 61 46 61 32 62 33 62 47 62 46 63 32 63 47 63 33 64 31 64 48 64 47 65 33 65 48 65 31 66 35 66 49 66 31 67 49 67 50 67 31 68 50 68 48 68 35 69 37 69 51 69 49 70 35 70 52 70 52 71 35 71 51 71 37 72 53 72 51 72 53 73 37 73 38 73 51 74 53 74 54 74 54 75 53 75 55 75 55 76 53 76 38 76 56 77 49 77 52 77 49 78 56 78 57 78 49 79 57 79 50 79 59 80 56 80 58 80 56 81 59 81 57 81 58 82 56 82 52 82 60 83 59 83 58 83 59 84 60 84 61 84 59 85 61 85 57 85 42 86 60 86 43 86 60 87 42 87 62 87 43 88 60 88 58 88 61 89 60 89 62 89 62 90 42 90 45 90 40 91 44 91 63 91 40 92 63 92 41 92 44 93 43 93 63 93 43 94 58 94 64 94 43 95 64 95 65 95 63 96 43 96 65 96 58 97 52 97 66 97 64 98 58 98 67 98 67 99 58 99 66 99 52 100 51 100 68 100 66 101 52 101 68 101 51 102 54 102 69 102 68 103 51 103 69 103 54 104 71 104 70 104 71 105 54 105 55 105 69 106 54 106 70 106 70 107 71 107 72 107 72 108 71 108 73 108 73 109 71 109 74 109 74 110 71 110 55 110 64 111 67 111 75 111 65 112 64 112 75 112 67 113 66 113 76 113 67 114 77 114 75 114 77 115 67 115 76 115 66 116 68 116 78 116 66 117 78 117 79 117 76 118 66 118 79 118 68 119 69 119 78 119 69 120 70 120 80 120 78 121 69 121 81 121 81 122 69 122 80 122 70 123 72 123 80 123 82 124 72 124 73 124 72 125 82 125 83 125 80 126 72 126 83 126 85 127 82 127 84 127 82 128 85 128 86 128 84 129 82 129 73 129 82 130 86 130 83 130 85 131 84 131 87 131 86 132 85 132 88 132 85 133 87 133 88 133 84 134 73 134 74 134 87 135 84 135 89 135 89 136 84 136 90 136 90 137 84 137 91 137 91 138 84 138 74 138 94 139 93 139 92 139 95 140 8 140 7 140 8 141 95 141 96 141 8 142 96 142 97 142 9 143 8 143 97 143 4 144 95 144 7 144 95 145 4 145 98 145 95 146 98 146 99 146 95 147 99 147 96 147 4 148 12 148 100 148 4 149 100 149 101 149 4 150 101 150 98 150 12 151 15 151 102 151 100 152 12 152 103 152 103 153 12 153 102 153 15 154 18 154 104 154 15 155 104 155 105 155 102 156 15 156 106 156 106 157 15 157 107 157 107 158 15 158 108 158 108 159 15 159 105 159 18 160 21 160 109 160 18 161 109 161 104 161 109 162 21 162 110 162 110 163 21 163 111 163 111 164 21 164 112 164 112 165 21 165 22 165 115 166 114 166 113 166 114 167 115 167 116 167 113 168 114 168 117 168 117 169 114 169 118 169 114 170 116 170 118 170 119 171 115 171 113 171 115 172 119 172 116 172 120 173 119 173 113 173 119 174 120 174 116 174 121 175 120 175 113 175 120 176 121 176 122 176 116 177 120 177 123 177 123 178 120 178 122 178 124 179 121 179 113 179 121 180 124 180 122 180 126 181 124 181 125 181 124 182 126 182 127 182 125 183 124 183 128 183 128 184 124 184 113 184 124 185 127 185 122 185 130 186 126 186 129 186 126 187 130 187 131 187 129 188 126 188 125 188 127 189 126 189 131 189 133 190 130 190 132 190 130 191 133 191 134 191 132 192 130 192 129 192 130 193 134 193 131 193 136 194 133 194 135 194 133 195 136 195 137 195 135 196 133 196 132 196 134 197 133 197 137 197 138 198 136 198 135 198 136 199 138 199 139 199 136 200 139 200 137 200 141 201 138 201 140 201 138 202 141 202 142 202 140 203 138 203 135 203 139 204 138 204 142 204 141 205 140 205 143 205 141 206 143 206 142 206 140 207 135 207 104 207 144 208 140 208 109 208 140 209 144 209 143 209 109 210 140 210 104 210 135 211 132 211 145 211 104 212 135 212 145 212 132 213 129 213 100 213 145 214 132 214 146 214 146 215 132 215 147 215 147 216 132 216 100 216 129 217 125 217 148 217 129 218 148 218 149 218 100 219 129 219 101 219 101 220 129 220 149 220 125 221 128 221 150 221 148 222 125 222 150 222 128 223 113 223 151 223 128 224 151 224 150 224 113 225 117 225 151 225 149 226 148 226 152 226 148 227 150 227 152 227 144 228 109 228 153 228 143 229 144 229 154 229 154 230 144 230 153 230 109 231 110 231 155 231 153 232 109 232 156 232 156 233 109 233 155 233 104 234 145 234 105 234 145 235 146 235 157 235 105 236 145 236 157 236 146 237 147 237 158 237 146 238 158 238 157 238 147 239 100 239 159 239 147 240 159 240 158 240 159 241 100 241 103 241 101 242 149 242 160 242 98 243 101 243 160 243 149 244 152 244 160 244 98 245 160 245 99 245 159 246 103 246 161 246 159 247 161 247 158 247 103 248 102 248 162 248 103 249 162 249 163 249 103 250 163 250 161 250 102 251 106 251 162 251 106 252 107 252 164 252 106 253 164 253 162 253 107 254 108 254 165 254 164 255 107 255 166 255 107 256 165 256 166 256 108 257 105 257 157 257 108 258 157 258 165 258 110 259 111 259 112 259 155 260 110 260 112 260 169 261 168 261 167 261 168 262 169 262 170 262 167 263 168 263 171 263 172 264 168 264 170 264 168 265 172 265 173 265 168 266 173 266 171 266 117 267 169 267 167 267 169 268 117 268 118 268 169 269 116 269 170 269 116 270 169 270 118 270 151 271 117 271 167 271 150 272 151 272 167 272 152 273 150 273 174 273 174 274 150 274 167 274 160 275 152 275 99 275 99 276 152 276 174 276 99 277 174 277 175 277 96 278 99 278 97 278 99 279 176 279 97 279 176 280 99 280 175 280 174 281 167 281 177 281 175 282 174 282 177 282 167 283 171 283 177 283 75 284 77 284 178 284 77 285 76 285 178 285 63 286 65 286 179 286 63 287 39 287 41 287 39 288 63 288 179 288 65 289 75 289 178 289 179 290 65 290 180 290 180 291 65 291 181 291 181 292 65 292 178 292 142 293 143 293 182 293 143 294 154 294 182 294 139 295 142 295 182 295 137 296 139 296 182 296 79 297 78 297 183 297 78 298 81 298 184 298 78 299 184 299 183 299 76 300 79 300 183 300 76 301 183 301 178 301 134 302 137 302 185 302 131 303 134 303 186 303 134 304 185 304 186 304 137 305 182 305 185 305 83 306 86 306 187 306 86 307 88 307 188 307 187 308 86 308 189 308 189 309 86 309 190 309 190 310 86 310 191 310 191 311 86 311 192 311 192 312 86 312 193 312 193 313 86 313 194 313 194 314 86 314 195 314 195 315 86 315 196 315 196 316 86 316 197 316 197 317 86 317 188 317 81 318 80 318 198 318 81 319 198 319 184 319 80 320 83 320 199 320 198 321 80 321 199 321 199 322 83 322 200 322 200 323 83 323 201 323 201 324 83 324 187 324 127 325 131 325 202 325 122 326 127 326 203 326 203 327 127 327 202 327 131 328 186 328 204 328 131 329 204 329 202 329 116 330 123 330 205 330 170 331 116 331 206 331 116 332 205 332 206 332 123 333 122 333 205 333 205 334 122 334 206 334 206 335 122 335 203 335 87 336 89 336 207 336 88 337 87 337 188 337 188 338 87 338 207 338 89 339 90 339 207 339 90 340 91 340 208 340 207 341 90 341 208 341 209 342 91 342 74 342 91 343 209 343 55 343 212 344 211 344 210 344 208 345 91 345 55 345 209 346 74 346 55 346 154 347 153 347 213 347 154 348 213 348 214 348 154 349 214 349 215 349 182 350 154 350 216 350 216 351 154 351 215 351 153 352 156 352 213 352 156 353 155 353 213 353 155 354 112 354 217 354 155 355 217 355 213 355 112 356 22 356 217 356 22 357 23 357 20 357 22 358 20 358 218 358 22 359 218 359 217 359 20 360 26 360 218 360 26 361 25 361 39 361 26 362 39 362 219 362 26 363 219 363 218 363 39 364 179 364 219 364 172 365 170 365 220 365 173 366 172 366 221 366 221 367 172 367 222 367 222 368 172 368 223 368 172 369 220 369 223 369 170 370 206 370 224 370 170 371 224 371 225 371 170 372 225 372 226 372 220 373 170 373 226 373 228 374 173 374 227 374 173 375 228 375 229 375 227 376 173 376 230 376 230 377 173 377 221 377 173 378 229 378 171 378 228 379 227 379 231 379 229 380 228 380 231 380 227 381 230 381 231 381 230 382 221 382 231 382 221 383 222 383 231 383 234 384 233 384 232 384 233 385 234 385 212 385 232 386 233 386 235 386 235 387 233 387 236 387 233 388 212 388 236 388 237 389 234 389 219 389 234 390 237 390 211 390 219 391 234 391 232 391 239 392 161 392 238 392 212 393 234 393 211 393 179 394 237 394 219 394 237 395 179 395 180 395 237 396 180 396 240 396 211 397 237 397 240 397 219 398 232 398 241 398 218 399 219 399 241 399 242 400 232 400 235 400 232 401 242 401 243 401 241 402 232 402 243 402 245 403 242 403 244 403 242 404 245 404 246 404 244 405 242 405 247 405 247 406 242 406 248 406 248 407 242 407 235 407 243 408 242 408 246 408 249 409 245 409 244 409 245 410 249 410 250 410 246 411 245 411 250 411 251 412 249 412 244 412 249 413 251 413 250 413 251 414 244 414 184 414 252 415 251 415 184 415 251 416 252 416 253 416 251 417 253 417 250 417 244 418 247 418 183 418 184 419 244 419 183 419 247 420 248 420 254 420 247 421 255 421 183 421 255 422 247 422 254 422 248 423 235 423 256 423 254 424 248 424 256 424 256 425 235 425 236 425 180 426 181 426 257 426 240 427 180 427 257 427 258 428 181 428 178 428 181 429 258 429 259 429 257 430 181 430 259 430 260 431 258 431 178 431 258 432 260 432 259 432 261 433 260 433 183 433 260 434 261 434 262 434 183 435 260 435 178 435 259 436 260 436 262 436 255 437 261 437 183 437 261 438 255 438 263 438 262 439 261 439 263 439 263 440 255 440 254 440 198 441 252 441 184 441 252 442 198 442 253 442 198 443 199 443 253 443 199 444 200 444 264 444 199 445 264 445 253 445 200 446 201 446 264 446 201 447 187 447 265 447 264 448 201 448 265 448 187 449 189 449 265 449 189 450 190 450 265 450 190 451 191 451 265 451 191 452 192 452 265 452 192 453 193 453 265 453 193 454 194 454 265 454 194 455 195 455 266 455 194 456 266 456 267 456 194 457 267 457 268 457 194 458 268 458 269 458 194 459 269 459 265 459 195 460 196 460 270 460 195 461 270 461 266 461 196 462 197 462 270 462 270 463 197 463 188 463 266 464 270 464 188 464 267 465 266 465 188 465 268 466 267 466 188 466 268 467 188 467 207 467 271 468 268 468 207 468 268 469 271 469 269 469 218 470 241 470 217 470 241 471 243 471 272 471 241 472 272 472 217 472 243 473 246 473 273 473 243 474 273 474 272 474 273 475 246 475 274 475 274 476 246 476 275 476 246 477 250 477 275 477 278 478 277 478 276 478 277 479 278 479 279 479 276 480 277 480 280 480 280 481 277 481 281 481 281 482 277 482 282 482 277 483 279 483 282 483 273 484 278 484 276 484 278 485 273 485 274 485 278 486 274 486 279 486 272 487 273 487 283 487 283 488 273 488 284 488 284 489 273 489 285 489 285 490 273 490 286 490 286 491 273 491 276 491 217 492 272 492 287 492 287 493 272 493 288 493 288 494 272 494 283 494 213 495 217 495 287 495 214 496 213 496 287 496 214 497 287 497 289 497 215 498 214 498 93 498 93 499 214 499 289 499 287 500 288 500 290 500 289 501 287 501 290 501 288 502 283 502 291 502 290 503 288 503 291 503 283 504 284 504 292 504 291 505 283 505 292 505 284 506 285 506 293 506 292 507 284 507 293 507 285 508 286 508 294 508 293 509 285 509 294 509 295 510 286 510 276 510 286 511 295 511 296 511 294 512 286 512 296 512 295 513 276 513 185 513 295 514 185 514 297 514 295 515 297 515 298 515 296 516 295 516 298 516 299 517 276 517 280 517 276 518 299 518 186 518 185 519 276 519 186 519 299 520 280 520 281 520 186 521 299 521 300 521 300 522 299 522 281 522 274 523 275 523 279 523 185 524 182 524 297 524 297 525 182 525 301 525 301 526 182 526 216 526 204 527 186 527 300 527 204 528 300 528 302 528 202 529 204 529 302 529 302 530 300 530 281 530 297 531 301 531 298 531 301 532 216 532 94 532 301 533 94 533 298 533 216 534 215 534 93 534 163 535 162 535 161 535 94 536 216 536 93 536 206 537 203 537 303 537 206 538 303 538 224 538 203 539 202 539 304 539 203 540 304 540 305 540 303 541 203 541 305 541 304 542 202 542 302 542 304 543 302 543 306 543 304 544 306 544 305 544 303 545 305 545 306 545 302 546 281 546 282 546 302 547 282 547 307 547 302 548 307 548 308 548 306 549 302 549 309 549 309 550 302 550 308 550 224 551 303 551 225 551 225 552 303 552 306 552 311 553 229 553 310 553 229 554 311 554 171 554 310 555 229 555 312 555 312 556 229 556 222 556 222 557 229 557 231 557 314 558 311 558 313 558 311 559 314 559 177 559 313 560 311 560 310 560 171 561 311 561 177 561 316 562 314 562 315 562 314 563 316 563 177 563 315 564 314 564 313 564 316 565 318 565 317 565 318 566 316 566 319 566 316 567 317 567 320 567 319 568 316 568 315 568 316 569 320 569 175 569 316 570 175 570 177 570 317 571 318 571 319 571 321 572 317 572 319 572 317 573 321 573 322 573 317 574 322 574 320 574 323 575 321 575 319 575 321 576 323 576 322 576 325 577 323 577 324 577 323 578 325 578 322 578 324 579 323 579 319 579 326 580 325 580 324 580 325 581 326 581 327 581 322 582 325 582 328 582 328 583 325 583 327 583 330 584 326 584 329 584 326 585 330 585 331 585 329 586 326 586 324 586 327 587 326 587 331 587 271 588 330 588 269 588 330 589 271 589 208 589 269 590 330 590 329 590 331 591 330 591 208 591 271 592 207 592 208 592 269 593 329 593 265 593 329 594 324 594 332 594 329 595 332 595 265 595 324 596 319 596 333 596 324 597 333 597 332 597 319 598 315 598 334 598 319 599 334 599 333 599 315 600 313 600 335 600 315 601 335 601 334 601 313 602 310 602 335 602 310 603 312 603 222 603 310 604 222 604 223 604 310 605 223 605 336 605 310 606 336 606 335 606 338 607 337 607 282 607 337 608 338 608 336 608 282 609 337 609 307 609 307 610 337 610 339 610 339 611 337 611 336 611 340 612 338 612 279 612 338 613 340 613 335 613 279 614 338 614 282 614 336 615 338 615 335 615 341 616 340 616 275 616 340 617 341 617 334 617 275 618 340 618 279 618 335 619 340 619 334 619 342 620 341 620 250 620 341 621 342 621 333 621 250 622 341 622 275 622 334 623 341 623 333 623 264 624 342 624 253 624 342 625 264 625 332 625 253 626 342 626 250 626 333 627 342 627 332 627 332 628 264 628 265 628 308 629 307 629 339 629 225 630 306 630 226 630 306 631 309 631 343 631 226 632 306 632 343 632 309 633 308 633 344 633 343 634 309 634 344 634 344 635 308 635 339 635 220 636 226 636 343 636 220 637 343 637 344 637 220 638 344 638 223 638 344 639 339 639 336 639 223 640 344 640 336 640 322 641 328 641 320 641 328 642 327 642 345 642 328 643 345 643 176 643 320 644 328 644 176 644 327 645 331 645 6 645 327 646 6 646 9 646 327 647 9 647 345 647 331 648 208 648 38 648 331 649 38 649 6 649 208 650 55 650 38 650 345 651 9 651 97 651 176 652 345 652 97 652 320 653 176 653 175 653 348 654 347 654 346 654 347 655 348 655 349 655 347 656 351 656 350 656 351 657 347 657 352 657 347 658 350 658 346 658 347 659 349 659 352 659 354 660 348 660 353 660 348 661 354 661 355 661 353 662 348 662 346 662 348 663 355 663 349 663 354 664 353 664 356 664 354 665 356 665 355 665 358 666 353 666 357 666 353 667 358 667 359 667 357 668 353 668 360 668 360 669 353 669 346 669 353 670 359 670 356 670 362 671 358 671 361 671 358 672 362 672 363 672 361 673 358 673 357 673 358 674 363 674 359 674 364 675 362 675 351 675 362 676 364 676 365 676 351 677 362 677 361 677 363 678 362 678 365 678 364 679 351 679 366 679 364 680 366 680 365 680 350 681 351 681 367 681 367 682 351 682 361 682 351 683 352 683 366 683 350 684 367 684 368 684 346 685 350 685 369 685 350 686 368 686 369 686 367 687 361 687 370 687 368 688 367 688 370 688 361 689 357 689 371 689 361 690 371 690 370 690 357 691 360 691 372 691 357 692 372 692 371 692 360 693 346 693 373 693 360 694 373 694 372 694 346 695 369 695 373 695 376 696 375 696 374 696 375 697 376 697 377 697 374 698 375 698 263 698 375 699 377 699 378 699 375 700 378 700 262 700 375 701 262 701 263 701 379 702 376 702 374 702 376 703 379 703 363 703 377 704 376 704 365 704 376 705 363 705 365 705 379 706 381 706 380 706 381 707 379 707 382 707 379 708 380 708 356 708 382 709 379 709 374 709 363 710 379 710 359 710 359 711 379 711 356 711 380 712 381 712 383 712 383 713 381 713 382 713 385 714 380 714 384 714 380 715 385 715 355 715 384 716 380 716 386 716 386 717 380 717 383 717 356 718 380 718 355 718 385 719 384 719 387 719 388 720 385 720 387 720 385 721 388 721 349 721 355 722 385 722 349 722 384 723 386 723 210 723 387 724 384 724 211 724 211 725 384 725 210 725 386 726 383 726 256 726 165 727 157 727 166 727 212 728 386 728 236 728 386 729 212 729 210 729 386 730 256 730 236 730 383 731 382 731 254 731 383 732 254 732 256 732 382 733 374 733 263 733 382 734 263 734 254 734 388 735 389 735 377 735 389 736 388 736 390 736 388 737 377 737 366 737 390 738 388 738 387 738 349 739 388 739 352 739 352 740 388 740 366 740 377 741 389 741 391 741 391 742 389 742 390 742 378 743 377 743 391 743 366 744 377 744 365 744 378 745 391 745 259 745 378 746 259 746 262 746 391 747 390 747 257 747 391 748 257 748 259 748 390 749 387 749 240 749 390 750 240 750 257 750 387 751 211 751 240 751 61 752 62 752 372 752 373 753 61 753 372 753 61 754 373 754 57 754 62 755 45 755 46 755 62 756 46 756 370 756 372 757 62 757 371 757 371 758 62 758 370 758 46 759 47 759 370 759 47 760 368 760 370 760 368 761 47 761 48 761 369 762 368 762 48 762 373 763 369 763 48 763 57 764 373 764 48 764 50 765 57 765 48 765 394 766 393 766 392 766 393 767 394 767 395 767 393 768 397 768 396 768 397 769 393 769 398 769 392 770 393 770 396 770 393 771 395 771 398 771 400 772 394 772 399 772 394 773 400 773 401 773 399 774 394 774 392 774 394 775 401 775 395 775 400 776 399 776 402 776 400 777 402 777 401 777 404 778 399 778 403 778 399 779 404 779 405 779 403 780 399 780 406 780 406 781 399 781 392 781 399 782 405 782 402 782 408 783 404 783 407 783 404 784 408 784 409 784 404 785 403 785 407 785 404 786 409 786 405 786 410 787 408 787 397 787 408 788 410 788 411 788 397 789 408 789 407 789 409 790 408 790 411 790 410 791 397 791 412 791 410 792 412 792 411 792 396 793 397 793 413 793 413 794 397 794 407 794 397 795 398 795 412 795 403 796 406 796 414 796 407 797 403 797 415 797 415 798 403 798 414 798 406 799 392 799 238 799 414 800 406 800 238 800 392 801 396 801 239 801 392 802 239 802 238 802 396 803 413 803 416 803 396 804 416 804 239 804 413 805 407 805 417 805 416 806 413 806 417 806 417 807 407 807 415 807 420 808 419 808 418 808 419 809 420 809 421 809 418 810 419 810 293 810 419 811 421 811 422 811 419 812 422 812 292 812 419 813 292 813 293 813 423 814 420 814 418 814 420 815 423 815 409 815 421 816 420 816 411 816 420 817 409 817 411 817 423 818 425 818 424 818 425 819 423 819 426 819 423 820 424 820 402 820 426 821 423 821 418 821 409 822 423 822 405 822 405 823 423 823 402 823 424 824 425 824 427 824 427 825 425 825 426 825 429 826 424 826 428 826 424 827 429 827 401 827 428 828 424 828 430 828 430 829 424 829 427 829 402 830 424 830 401 830 429 831 428 831 431 831 432 832 429 832 431 832 429 833 432 833 395 833 401 834 429 834 395 834 428 835 430 835 92 835 431 836 428 836 93 836 93 837 428 837 92 837 430 838 427 838 298 838 161 839 162 839 238 839 94 840 430 840 298 840 430 841 94 841 92 841 427 842 426 842 296 842 427 843 296 843 298 843 426 844 418 844 293 844 426 845 293 845 294 845 426 846 294 846 296 846 432 847 433 847 421 847 433 848 432 848 434 848 432 849 421 849 412 849 434 850 432 850 431 850 395 851 432 851 398 851 398 852 432 852 412 852 421 853 433 853 435 853 435 854 433 854 434 854 422 855 421 855 435 855 412 856 421 856 411 856 422 857 435 857 290 857 422 858 290 858 291 858 422 859 291 859 292 859 435 860 434 860 289 860 435 861 289 861 290 861 434 862 431 862 93 862 434 863 93 863 289 863 416 864 417 864 158 864 161 865 416 865 158 865 416 866 161 866 239 866 417 867 415 867 166 867 158 868 417 868 157 868 157 869 417 869 166 869 415 870 414 870 166 870 414 871 164 871 166 871 164 872 414 872 238 872 162 873 164 873 238 873</p>
        </polylist>
      </mesh>
      <extra><technique profile="MAYA"><double_sided>1</double_sided></technique></extra>
    </geometry>
  </library_geometries>
  <library_controllers/>
  <library_visual_scenes>
    <visual_scene id="Scene" name="Scene">
      <node id="Camera" name="Camera" type="NODE">
        <matrix sid="transform">0.6858805 -0.3173701 0.6548619 7.481132 0.7276338 0.3124686 -0.6106656 -6.50764 -0.01081678 0.8953432 0.4452454 5.343665 0 0 0 1</matrix>
        <instance_camera url="#Camera-camera"/>
      </node>
      <node id="Lamp" name="Lamp" type="NODE">
        <matrix sid="transform">-0.2908646 -0.7711008 0.5663932 4.076245 0.9551712 -0.1998834 0.2183912 1.005454 -0.05518906 0.6045247 0.7946723 5.903862 0 0 0 1</matrix>
        <instance_light url="#Lamp-light"/>
      </node>
      <node id="Default" name="Default" type="NODE">
        <matrix sid="transform">-0.9210608 5.91994e-8 -0.3894188 -1.54931 -0.2420665 -0.7833272 0.5725402 0.720486 -0.3050423 0.6216096 0.721492 17.3011 0 0 0 1</matrix>
        <instance_camera url="#Default-camera"/>
      </node>
      <node id="ShapeIndexedFaceSet" name="ShapeIndexedFaceSet" type="NODE">
        <matrix sid="transform">-1 6.60024e-15 -8.74228e-8 0 -8.74228e-8 -7.54979e-8 1 0 0 1 7.54979e-8 0 0 0 0 1</matrix>
        <instance_geometry url="#ShapeIndexedFaceSet-mesh">
          <bind_material>
            <technique_common>
              <instance_material symbol="Shape-material" target="#Shape-material"/>
            </technique_common>
          </bind_material>
        </instance_geometry>
      </node>
    </visual_scene>
  </library_visual_scenes>
  <scene>
    <instance_visual_scene url="#Scene"/>
  </scene>
</COLLADA>