#VRML V2.0 utf8

DEF simple_asm0001_vrml_18_prt
Transform {
	children [
		 Shape {
			geometry IndexedFaceSet {
				coord Coordinate {
					point [
					-1.295400 10.652760 1.869541,
					-1.397000 10.652760 1.869541,
					-1.379859 10.652760 1.651438,
					-1.328729 10.652760 1.438190,
					-1.244878 10.652760 1.235649,
					-1.196776 10.652760 1.373820,
					-1.130276 10.652760 1.048515,
					-1.219200 10.492740 1.192884,
					-1.281610 10.452589 1.338488,
					-1.269111 10.471193 1.302400,
					-1.249481 10.485693 1.255102,
					-0.915986 10.652760 0.953556,
					-0.987904 10.652760 0.881842,
					-1.065325 10.209135 0.934864,
					-1.198203 10.489446 1.154430,
					-1.174650 10.476300 1.114405,
					-0.821228 10.652760 0.739409,
					-0.495721 10.652760 0.672765,
					-0.634013 10.652760 0.624726,
					-0.694488 10.212655 0.605557,
					-0.903239 10.210802 0.744611,
					-0.431366 10.652760 0.540817,
					-0.465895 10.212660 0.522491,
					0.000000 10.652760 0.574142,
					-0.218051 10.652760 0.489673,
					-0.232666 10.212036 0.478139,
					0.000000 10.652760 0.472542,
					0.495721 10.652760 0.672765,
					0.218700 10.652760 0.489764,
					-0.000014 10.212374 0.465925,
					0.432030 10.652760 0.541030,
					0.252472 9.880562 0.492867,
					-0.000009 9.954939 0.468205,
					-0.000002 9.879984 0.471599,
					0.634371 10.652760 0.624902,
					0.499699 9.882932 0.528316,
					0.915986 10.652760 0.953556,
					0.821250 10.652760 0.739424,
					0.737580 9.884858 0.625083,
					0.987751 10.652760 0.881684,
					0.936269 9.885441 0.777880,
					1.196776 10.652760 1.373820,
					1.130036 10.652760 1.048178,
					1.244591 10.652760 1.235076,
					1.100631 9.885354 0.960829,
					1.295400 10.652760 1.869541,
					1.328492 10.652760 1.437450,
					1.397000 10.652760 1.869541,
					1.379776 10.652760 1.650827,
					1.378676 9.883545 1.595014,
					1.337531 9.929613 1.424166,
					-1.006539 10.271761 0.863542,
					-1.171188 10.375189 1.111946,
					-1.038527 9.764136 0.921720,
					-0.566115 9.321156 0.588010,
					-0.374275 9.320282 0.560660,
					-0.300344 8.515550 0.668593,
					-0.482600 8.441228 0.702527,
					-0.167792 8.546194 0.648367,
					0.000249 8.559800 0.635278,
					0.000014 9.765475 0.479926,
					-0.228969 9.766069 0.484311,
					-0.460186 9.767684 0.507784,
					-0.696027 9.769828 0.565632,
					-0.906223 9.768463 0.708423,
					0.216595 8.537027 0.634565,
					1.282700 7.764780 1.094272,
					1.308114 7.759897 1.166478,
					1.267603 7.763097 1.058809,
					1.349763 8.339263 1.363524,
					1.323722 7.751158 1.221769,
					1.333994 7.741720 1.264311,
					1.341451 7.731577 1.298904,
					1.347088 7.719809 1.327525,
					1.350746 7.704740 1.347329,
					1.365100 7.569200 1.438076,
					1.350495 7.685852 1.345542,
					1.337432 7.569200 1.274688,
					1.347050 7.672487 1.326234,
					1.341818 7.661440 1.298756,
					1.334572 7.651340 1.263692,
					1.283201 7.569200 1.082286,
					1.324305 7.641682 1.219032,
					1.308806 7.632783 1.161274,
					1.282700 7.627619 1.084582,
					1.267167 7.629402 1.048027,
					1.214302 7.569200 0.950340,
					1.247181 7.637534 1.008330,
					1.223969 7.660790 0.970581,
					1.214196 7.699441 0.958665,
					1.226661 7.735733 0.980288,
					1.249297 7.756095 1.021097,
					0.423085 8.469984 0.647410,
					1.327397 9.112077 1.326261,
					1.380970 9.110776 1.597503,
					1.397113 8.445133 1.869541,
					1.040160 7.569200 0.794920,
					1.385222 7.569200 1.634665,
					1.397025 7.569200 1.869541,
					-1.244837 10.652760 2.503515,
					-1.196776 10.652760 2.365262,
					-1.328707 10.652760 2.300964,
					-0.987833 10.652760 2.857312,
					-0.915986 10.652760 2.785527,
					-1.130218 10.652760 2.690650,
					-0.633960 10.652760 3.114384,
					-0.495721 10.652760 3.066318,
					-0.821157 10.652760 2.999726,
					0.000000 10.652760 3.266542,
					0.000000 10.652760 3.164941,
					-0.218045 10.652760 3.249411,
					-0.431338 10.652760 3.198275,
					0.431972 10.652760 3.198072,
					0.495721 10.652760 3.066318,
					0.218645 10.652760 3.249327,
					0.821241 10.652760 2.999665,
					0.915986 10.652760 2.785527,
					0.634335 10.652760 3.114199,
					1.130058 10.652760 2.690875,
					1.196776 10.652760 2.365262,
					0.987760 10.652760 2.857390,
					1.244621 10.652760 2.503947,
					1.379785 10.652760 2.088187,
					1.328518 10.652760 2.301551,
					0.726110 9.886403 3.112544,
					1.014838 9.886468 2.879691,
					0.374832 9.885106 3.249685,
					0.000000 10.202675 3.267612,
					-0.301083 10.214124 3.245502,
					-0.595859 10.215135 3.158696,
					-0.869244 10.214380 3.000723,
					-1.087200 10.211357 2.768751,
					-1.379852 10.652760 2.087691,
					1.383739 7.569200 2.129722,
					1.357883 7.569200 2.326802,
					1.218351 7.569200 2.657331,
					1.040160 7.569200 2.869510,
					1.159876 8.338679 2.778495,
					0.950527 7.943855 2.952887,
					0.915694 8.338387 2.990644,
					1.331114 8.339051 2.499066,
					1.388659 8.339626 2.180093,
					-0.693710 8.538314 3.008283,
					-0.562669 8.468639 3.085054,
					-0.633165 8.506122 3.049086,
					-0.532543 8.455055 3.097706,
					-0.501117 8.445547 3.109713,
					-0.482600 8.441228 3.116232,
					-0.491919 8.443402 3.113008,
					-0.251241 8.529039 3.181029,
					0.000000 8.559800 3.204060,
					0.389666 8.484150 3.179597,
					0.627670 8.349389 3.121225,
					0.715040 8.275520 3.086527,
					-1.047035 10.301627 2.814822,
					-1.001290 10.271762 2.869828,
					-0.949098 10.301218 2.919813,
					-0.835377 9.323215 3.005079,
					-0.284291 8.882217 3.208420,
					-0.576975 9.325024 3.167537,
					0.000000 8.874158 3.229265,
					-0.292362 9.325765 3.241251,
					0.000000 9.098919 3.243040,
					-1.062082 9.765356 2.781550,
					-0.868328 9.769909 3.031044,
					-0.592954 9.770942 3.184439,
					0.000000 9.319160 3.253320,
					-0.298858 9.770344 3.255934,
					0.365861 9.108704 3.234696,
					0.000000 9.566194 3.261344,
					0.000000 9.763554 3.265298,
					0.000000 9.874441 3.266630,
					0.959540 8.991600 2.972765,
					0.982898 8.919839 2.954154,
					0.729356 9.110817 3.124739,
					0.982336 9.063420 2.953507,
					1.037802 8.890000 2.907333,
					1.089702 8.919702 2.857722,
					1.109479 8.991600 2.835336,
					1.270130 9.114460 2.604762,
					1.087675 9.063433 2.855603,
					1.035918 9.112896 2.904830,
					1.036062 9.093200 2.905246,
					1.379834 9.112872 2.240013,
					-0.985010 7.269455 1.031342,
					-0.797379 6.888768 1.031342,
					-0.985010 7.269455 2.529941,
					-0.470357 6.617833 1.031342,
					-0.797380 6.888768 2.529941,
					-0.061244 6.504246 1.031342,
					-0.470357 6.617834 2.529941,
					0.358374 6.567723 1.031342,
					-0.061244 6.504246 2.529941,
					0.715822 6.797413 1.031342,
					0.375126 6.574188 1.451276,
					0.351712 6.565219 1.508753,
					0.715822 6.797413 2.529941,
					0.516633 6.643559 2.301375,
					0.467043 6.616110 1.433167,
					0.434180 6.599844 1.426311,
					0.494113 6.630646 1.452216,
					0.516633 6.643559 1.508895,
					0.358374 6.567723 2.529941,
					0.494105 6.630641 2.357999,
					0.351712 6.565219 2.301234,
					0.467006 6.616091 2.377046,
					0.434180 6.599844 2.383891,
					0.374993 6.574135 2.358790,
					0.494105 6.630641 1.565519,
					0.467043 6.616110 2.225647,
					0.467006 6.616091 1.584566,
					0.434180 6.599844 2.218791,
					0.434180 6.599844 1.591411,
					0.375126 6.574188 2.243756,
					0.374993 6.574135 1.566310,
				]
			}
			coordIndex [
					0, 1, 132,-1,
					0, 2, 1,-1,
					0, 5, 2,-1,
					0, 100, 5,-1,
					0, 132, 100,-1,
					1, 2, 184,-1,
					1, 184, 186,-1,
					1, 186, 132,-1,
					2, 3, 184,-1,
					2, 5, 3,-1,
					3, 4, 9,-1,
					3, 5, 4,-1,
					3, 8, 184,-1,
					3, 9, 8,-1,
					4, 5, 6,-1,
					4, 6, 15,-1,
					4, 7, 10,-1,
					4, 10, 9,-1,
					4, 14, 7,-1,
					4, 15, 14,-1,
					5, 11, 6,-1,
					5, 17, 11,-1,
					5, 27, 17,-1,
					5, 41, 27,-1,
					5, 100, 41,-1,
					6, 11, 12,-1,
					6, 12, 51,-1,
					6, 13, 15,-1,
					6, 51, 13,-1,
					7, 14, 52,-1,
					7, 52, 184,-1,
					7, 184, 10,-1,
					8, 9, 184,-1,
					9, 10, 184,-1,
					11, 16, 12,-1,
					11, 17, 16,-1,
					12, 16, 20,-1,
					12, 20, 51,-1,
					13, 14, 15,-1,
					13, 51, 64,-1,
					13, 52, 14,-1,
					13, 53, 52,-1,
					13, 64, 53,-1,
					16, 17, 18,-1,
					16, 18, 19,-1,
					16, 19, 20,-1,
					17, 21, 18,-1,
					17, 23, 24,-1,
					17, 24, 21,-1,
					17, 27, 23,-1,
					18, 21, 19,-1,
					19, 21, 63,-1,
					19, 63, 20,-1,
					20, 63, 64,-1,
					20, 64, 51,-1,
					21, 22, 63,-1,
					21, 24, 22,-1,
					22, 24, 25,-1,
					22, 25, 62,-1,
					22, 62, 63,-1,
					23, 26, 24,-1,
					23, 27, 28,-1,
					23, 28, 26,-1,
					24, 26, 25,-1,
					25, 26, 29,-1,
					25, 29, 32,-1,
					25, 32, 61,-1,
					25, 61, 62,-1,
					26, 28, 29,-1,
					27, 30, 28,-1,
					27, 34, 30,-1,
					27, 36, 37,-1,
					27, 37, 34,-1,
					27, 41, 36,-1,
					28, 30, 35,-1,
					28, 31, 29,-1,
					28, 35, 31,-1,
					29, 31, 32,-1,
					30, 34, 38,-1,
					30, 38, 35,-1,
					31, 33, 32,-1,
					31, 35, 96,-1,
					31, 60, 33,-1,
					31, 92, 60,-1,
					31, 96, 92,-1,
					32, 33, 61,-1,
					33, 60, 61,-1,
					34, 37, 38,-1,
					35, 38, 96,-1,
					36, 39, 37,-1,
					36, 41, 42,-1,
					36, 42, 39,-1,
					37, 39, 40,-1,
					37, 40, 38,-1,
					38, 40, 96,-1,
					39, 42, 44,-1,
					39, 44, 40,-1,
					40, 44, 86,-1,
					40, 86, 96,-1,
					41, 43, 42,-1,
					41, 45, 48,-1,
					41, 46, 43,-1,
					41, 48, 46,-1,
					41, 100, 119,-1,
					41, 119, 45,-1,
					42, 43, 90,-1,
					42, 88, 89,-1,
					42, 89, 44,-1,
					42, 90, 88,-1,
					43, 46, 66,-1,
					43, 66, 68,-1,
					43, 68, 91,-1,
					43, 87, 90,-1,
					43, 91, 87,-1,
					44, 89, 86,-1,
					45, 47, 48,-1,
					45, 119, 122,-1,
					45, 122, 47,-1,
					46, 48, 50,-1,
					46, 50, 69,-1,
					46, 67, 66,-1,
					46, 69, 93,-1,
					46, 93, 67,-1,
					47, 49, 48,-1,
					47, 94, 49,-1,
					47, 95, 97,-1,
					47, 97, 94,-1,
					47, 122, 183,-1,
					47, 141, 95,-1,
					47, 183, 141,-1,
					48, 49, 69,-1,
					48, 69, 50,-1,
					49, 74, 69,-1,
					49, 75, 74,-1,
					49, 94, 75,-1,
					52, 53, 184,-1,
					53, 64, 184,-1,
					54, 57, 185,-1,
					54, 62, 57,-1,
					54, 63, 62,-1,
					54, 184, 63,-1,
					54, 185, 184,-1,
					55, 56, 57,-1,
					55, 57, 62,-1,
					55, 58, 56,-1,
					55, 61, 58,-1,
					55, 62, 61,-1,
					56, 58, 187,-1,
					56, 187, 57,-1,
					57, 187, 185,-1,
					58, 59, 187,-1,
					58, 61, 59,-1,
					59, 60, 65,-1,
					59, 61, 60,-1,
					59, 65, 96,-1,
					59, 96, 189,-1,
					59, 189, 187,-1,
					60, 92, 65,-1,
					63, 184, 64,-1,
					65, 92, 96,-1,
					66, 67, 84,-1,
					66, 84, 85,-1,
					66, 85, 68,-1,
					67, 70, 83,-1,
					67, 81, 84,-1,
					67, 83, 81,-1,
					67, 93, 70,-1,
					68, 85, 91,-1,
					69, 70, 93,-1,
					69, 71, 70,-1,
					69, 72, 71,-1,
					69, 73, 72,-1,
					69, 74, 73,-1,
					70, 71, 82,-1,
					70, 82, 83,-1,
					71, 72, 80,-1,
					71, 80, 82,-1,
					72, 73, 79,-1,
					72, 77, 80,-1,
					72, 79, 77,-1,
					73, 74, 78,-1,
					73, 78, 79,-1,
					74, 75, 76,-1,
					74, 76, 78,-1,
					75, 77, 76,-1,
					75, 94, 97,-1,
					75, 97, 193,-1,
					75, 193, 77,-1,
					76, 77, 78,-1,
					77, 79, 78,-1,
					77, 81, 83,-1,
					77, 82, 80,-1,
					77, 83, 82,-1,
					77, 193, 81,-1,
					81, 85, 84,-1,
					81, 86, 87,-1,
					81, 87, 85,-1,
					81, 193, 86,-1,
					85, 87, 91,-1,
					86, 88, 87,-1,
					86, 89, 88,-1,
					86, 193, 96,-1,
					87, 88, 90,-1,
					95, 98, 97,-1,
					95, 141, 98,-1,
					96, 191, 189,-1,
					96, 193, 191,-1,
					97, 98, 193,-1,
					98, 133, 196,-1,
					98, 141, 133,-1,
					98, 196, 193,-1,
					99, 100, 101,-1,
					99, 101, 186,-1,
					99, 104, 100,-1,
					99, 131, 104,-1,
					99, 163, 131,-1,
					99, 186, 163,-1,
					100, 103, 106,-1,
					100, 104, 103,-1,
					100, 106, 113,-1,
					100, 113, 119,-1,
					100, 132, 101,-1,
					101, 132, 186,-1,
					102, 103, 104,-1,
					102, 104, 154,-1,
					102, 107, 103,-1,
					102, 130, 107,-1,
					102, 154, 155,-1,
					102, 155, 156,-1,
					102, 156, 130,-1,
					103, 107, 106,-1,
					104, 131, 154,-1,
					105, 106, 107,-1,
					105, 107, 130,-1,
					105, 111, 106,-1,
					105, 129, 111,-1,
					105, 130, 164,-1,
					105, 164, 165,-1,
					105, 165, 129,-1,
					106, 109, 113,-1,
					106, 110, 109,-1,
					106, 111, 110,-1,
					108, 109, 110,-1,
					108, 110, 167,-1,
					108, 114, 109,-1,
					108, 126, 114,-1,
					108, 127, 126,-1,
					108, 167, 127,-1,
					109, 114, 113,-1,
					110, 111, 128,-1,
					110, 128, 167,-1,
					111, 129, 165,-1,
					111, 165, 128,-1,
					112, 113, 114,-1,
					112, 114, 126,-1,
					112, 117, 113,-1,
					112, 124, 117,-1,
					112, 126, 124,-1,
					113, 115, 116,-1,
					113, 116, 119,-1,
					113, 117, 115,-1,
					115, 117, 124,-1,
					115, 120, 116,-1,
					115, 124, 175,-1,
					115, 125, 120,-1,
					115, 175, 125,-1,
					116, 118, 119,-1,
					116, 120, 118,-1,
					118, 120, 178,-1,
					118, 121, 119,-1,
					118, 178, 179,-1,
					118, 179, 121,-1,
					119, 121, 123,-1,
					119, 123, 122,-1,
					120, 125, 180,-1,
					120, 180, 178,-1,
					121, 179, 123,-1,
					122, 123, 183,-1,
					123, 140, 183,-1,
					123, 179, 140,-1,
					124, 126, 174,-1,
					124, 172, 175,-1,
					124, 174, 172,-1,
					125, 175, 181,-1,
					125, 181, 180,-1,
					126, 127, 171,-1,
					126, 168, 174,-1,
					126, 170, 168,-1,
					126, 171, 170,-1,
					127, 167, 171,-1,
					128, 165, 167,-1,
					130, 156, 164,-1,
					131, 155, 154,-1,
					131, 163, 164,-1,
					131, 164, 155,-1,
					133, 134, 196,-1,
					133, 141, 134,-1,
					134, 135, 196,-1,
					134, 140, 135,-1,
					134, 141, 140,-1,
					135, 136, 196,-1,
					135, 137, 136,-1,
					135, 140, 137,-1,
					136, 137, 176,-1,
					136, 138, 153,-1,
					136, 151, 192,-1,
					136, 152, 151,-1,
					136, 153, 152,-1,
					136, 173, 138,-1,
					136, 176, 173,-1,
					136, 192, 202,-1,
					136, 202, 196,-1,
					137, 140, 179,-1,
					137, 177, 176,-1,
					137, 178, 177,-1,
					137, 179, 178,-1,
					138, 139, 174,-1,
					138, 173, 139,-1,
					138, 174, 153,-1,
					139, 172, 174,-1,
					139, 173, 172,-1,
					140, 141, 183,-1,
					142, 144, 157,-1,
					142, 157, 186,-1,
					142, 186, 144,-1,
					143, 144, 186,-1,
					143, 145, 159,-1,
					143, 159, 144,-1,
					143, 186, 188,-1,
					143, 188, 145,-1,
					144, 159, 164,-1,
					144, 164, 157,-1,
					145, 146, 159,-1,
					145, 188, 146,-1,
					146, 148, 159,-1,
					146, 188, 148,-1,
					147, 148, 188,-1,
					147, 149, 158,-1,
					147, 158, 159,-1,
					147, 159, 148,-1,
					147, 188, 190,-1,
					147, 190, 149,-1,
					149, 150, 158,-1,
					149, 190, 192,-1,
					149, 192, 150,-1,
					150, 151, 168,-1,
					150, 160, 158,-1,
					150, 168, 160,-1,
					150, 192, 151,-1,
					151, 152, 168,-1,
					152, 153, 174,-1,
					152, 174, 168,-1,
					155, 164, 156,-1,
					157, 164, 186,-1,
					158, 160, 161,-1,
					158, 161, 159,-1,
					159, 161, 165,-1,
					159, 165, 164,-1,
					160, 162, 161,-1,
					160, 168, 162,-1,
					161, 162, 166,-1,
					161, 166, 167,-1,
					161, 167, 165,-1,
					162, 168, 166,-1,
					163, 186, 164,-1,
					166, 168, 169,-1,
					166, 169, 167,-1,
					167, 169, 170,-1,
					167, 170, 171,-1,
					168, 170, 169,-1,
					172, 173, 175,-1,
					173, 176, 175,-1,
					175, 176, 182,-1,
					175, 182, 181,-1,
					176, 177, 182,-1,
					177, 178, 180,-1,
					177, 180, 181,-1,
					177, 181, 182,-1,
					184, 185, 188,-1,
					184, 188, 186,-1,
					185, 187, 188,-1,
					187, 189, 192,-1,
					187, 190, 188,-1,
					187, 192, 190,-1,
					189, 191, 195,-1,
					189, 195, 192,-1,
					191, 193, 200,-1,
					191, 194, 214,-1,
					191, 198, 199,-1,
					191, 199, 194,-1,
					191, 200, 198,-1,
					191, 202, 195,-1,
					191, 214, 202,-1,
					192, 195, 204,-1,
					192, 204, 202,-1,
					193, 196, 201,-1,
					193, 201, 200,-1,
					194, 199, 212,-1,
					194, 212, 213,-1,
					194, 213, 214,-1,
					195, 202, 204,-1,
					196, 197, 201,-1,
					196, 202, 203,-1,
					196, 203, 197,-1,
					197, 203, 208,-1,
					197, 208, 201,-1,
					198, 200, 208,-1,
					198, 208, 209,-1,
					198, 209, 210,-1,
					198, 210, 199,-1,
					199, 210, 212,-1,
					200, 201, 208,-1,
					202, 205, 203,-1,
					202, 206, 205,-1,
					202, 207, 206,-1,
					202, 214, 207,-1,
					203, 205, 209,-1,
					203, 209, 208,-1,
					205, 206, 211,-1,
					205, 210, 209,-1,
					205, 211, 210,-1,
					206, 207, 213,-1,
					206, 213, 211,-1,
					207, 214, 213,-1,
					210, 211, 212,-1,
					211, 213, 212,-1,
				]
			}
		}
	]
}
