#VRML V2.0 utf8

DEF simple_asm0001_vrml_14_prt
Transform {
	children [
		 Shape {
			geometry IndexedFaceSet {
				coord Coordinate {
					point [
					0.134747 23.132517 -2.230120,
					0.644922 23.051678 -2.230120,
					0.134747 23.183113 -2.234647,
					1.105180 22.817204 -2.230120,
					1.133363 22.858174 -2.240581,
					0.659764 23.099804 -2.236779,
					1.470434 22.451952 -2.230120,
					1.704940 21.991706 -2.230120,
					1.510377 22.480724 -2.242667,
					1.785747 21.481518 -2.230120,
					1.752736 22.004730 -2.241613,
					1.704940 20.971332 -2.230120,
					1.835770 21.481518 -2.238970,
					0.134747 19.796702 -2.398043,
					0.380251 19.822846 -2.444348,
					0.589360 19.892654 -2.566022,
					0.771951 20.008070 -2.761331,
					1.105180 20.145832 -2.230120,
					1.470434 20.511084 -2.230120,
					1.510377 20.482312 -2.242667,
					1.752736 20.958307 -2.241613,
					0.644922 19.911358 -2.230120,
					1.133363 20.104863 -2.240581,
					0.134747 19.830520 -2.230120,
					0.659764 19.863232 -2.236779,
					0.134747 19.779923 -2.234647,
					0.134747 19.787761 -2.316222,
					0.134747 23.168904 -2.375523,
					0.134747 23.151399 -2.517128,
					0.134747 23.146627 -2.540512,
					0.698245 23.005189 -2.689147,
					0.382303 23.120945 -2.573215,
					0.529983 23.077505 -2.628003,
					0.579648 23.058634 -2.646803,
					1.066777 20.360428 -3.957320,
					1.138007 20.390013 -3.957320,
					1.186472 20.422191 -3.957320,
					1.235598 20.463247 -3.957320,
					1.284792 20.513630 -3.957320,
					1.321185 20.558616 -3.957320,
					1.355969 20.609869 -3.957320,
					1.527418 21.107274 -4.137546,
					1.514575 21.054611 -4.162907,
					1.499207 21.002061 -4.188214,
					1.481489 20.949941 -4.213314,
					1.461540 20.898424 -4.238124,
					1.439413 20.847513 -4.262641,
					1.415151 20.797210 -4.286865,
					1.388390 20.747695 -4.310711,
					1.323509 20.652846 -4.356388,
					1.358174 20.699416 -4.333961,
					1.284026 20.608697 -4.377648,
					1.191707 20.530703 -4.415208,
					1.240220 20.567960 -4.397267,
					1.136971 20.497581 -4.431159,
					1.072776 20.472975 -4.443009,
					0.998347 20.437258 -4.389867,
					1.355969 22.353167 -3.957320,
					1.321185 22.404420 -3.957320,
					1.284792 22.449406 -3.957320,
					1.235598 22.499791 -3.957320,
					1.186472 22.540846 -3.957320,
					1.138007 22.573024 -3.957320,
					1.066777 22.602608 -3.957320,
					0.998347 22.525780 -4.389867,
					1.072776 22.491150 -4.440745,
					0.998347 22.500981 -4.445452,
					1.136971 22.466517 -4.428950,
					1.191707 22.433358 -4.413073,
					1.240220 22.396062 -4.395216,
					1.284026 22.355280 -4.375688,
					1.323509 22.311085 -4.354527,
					1.358174 22.264464 -4.332205,
					1.415151 22.166565 -4.285329,
					1.388390 22.216134 -4.309063,
					1.439413 22.116206 -4.261217,
					1.461540 22.065242 -4.236815,
					1.481489 22.013669 -4.212121,
					1.499207 21.961492 -4.187138,
					1.514575 21.908886 -4.161949,
					1.527418 21.856165 -4.136705,
					1.537573 21.258969 -4.236645,
					1.527418 21.222680 -4.282192,
					1.514575 21.186256 -4.327908,
					1.499207 21.149910 -4.373526,
					1.481489 21.113862 -4.418771,
					1.461540 21.078231 -4.463492,
					1.439413 21.043019 -4.507686,
					1.415151 21.008229 -4.551353,
					1.388390 20.973983 -4.594336,
					1.358174 20.940591 -4.636246,
					1.323509 20.908381 -4.676673,
					1.284026 20.877848 -4.714996,
					1.240220 20.849672 -4.750360,
					1.191707 20.823904 -4.782701,
					1.136971 20.800995 -4.811455,
					0.998347 20.463154 -4.447738,
					1.072776 20.783978 -4.832815,
					0.972947 20.440758 -4.398224,
					0.998347 20.682275 -4.756563,
					0.972947 20.685633 -4.759884,
					1.537573 21.402359 -4.305579,
					1.527418 21.389451 -4.362367,
					1.514575 21.376495 -4.419365,
					1.499207 21.363567 -4.476241,
					1.481489 21.350746 -4.532652,
					1.461540 21.338073 -4.588410,
					1.439413 21.325548 -4.643510,
					1.415151 21.313173 -4.697953,
					1.388390 21.300991 -4.751544,
					1.358174 21.289114 -4.803797,
					1.323509 21.277658 -4.854200,
					1.284026 21.266798 -4.901982,
					1.240220 21.256775 -4.946074,
					1.191707 21.247610 -4.986395,
					1.136971 21.239461 -5.022245,
					0.998347 20.777184 -4.841340,
					1.072776 21.233408 -5.048877,
					0.998347 21.048971 -5.001581,
					0.972947 21.049327 -5.001728,
					1.537573 21.561459 -4.305401,
					1.527418 21.574494 -4.362159,
					1.514575 21.587577 -4.419129,
					1.499207 21.600633 -4.475975,
					1.481489 21.613581 -4.532356,
					1.461540 21.626381 -4.588087,
					1.439413 21.639028 -4.643158,
					1.415151 21.651525 -4.697573,
					1.388390 21.663826 -4.751137,
					1.358174 21.675821 -4.803363,
					1.323509 21.687391 -4.853740,
					1.284026 21.698359 -4.901498,
					1.240220 21.708480 -4.945567,
					1.191707 21.717735 -4.985868,
					1.136971 21.725964 -5.021699,
					0.998347 21.230992 -5.059506,
					1.072776 21.732076 -5.048317,
					0.998347 21.481518 -5.087620,
					0.972947 21.477566 -5.087597,
					1.537573 21.704694 -4.236145,
					1.527418 21.741085 -4.281611,
					1.514575 21.777612 -4.327245,
					1.499207 21.814059 -4.372781,
					1.481489 21.850209 -4.417944,
					1.461540 21.885940 -4.462586,
					1.439413 21.921251 -4.506700,
					1.415151 21.956140 -4.550289,
					1.388390 21.990482 -4.593196,
					1.358174 22.023967 -4.635031,
					1.323509 22.056268 -4.675384,
					1.284026 22.086887 -4.713640,
					1.240220 22.115143 -4.748941,
					1.191707 22.140983 -4.781224,
					1.136971 22.163955 -4.809925,
					0.998347 21.734517 -5.058941,
					1.072776 22.181023 -4.831247,
					0.972947 21.906396 -5.004725,
					0.998347 21.914065 -5.001581,
					0.998347 22.187835 -4.839758,
					0.972947 22.271774 -4.765428,
					0.998347 22.280761 -4.756563,
					0.972947 22.519173 -4.405486,
					0.294596 23.116003 -2.610315,
					-1.516253 21.481518 -2.230120,
					-1.566996 21.481518 -2.232517,
					-1.546078 21.215254 -2.231213,
					-1.546078 21.747784 -2.231213,
					-1.381773 22.253704 -2.229363,
					-1.483826 22.007196 -2.229733,
					-1.242209 22.481496 -2.227938,
					-1.068434 22.684789 -2.225833,
					-0.865103 22.858350 -2.225363,
					-0.637492 22.997942 -2.227642,
					-0.123525 23.112187 -2.230120,
					-0.391036 23.100043 -2.231169,
					-0.131552 23.162230 -2.233637,
					-0.214576 19.838071 -2.489196,
					-0.512576 19.940099 -2.747844,
					-0.123525 19.850849 -2.230120,
					-0.131552 19.800807 -2.233637,
					-0.637492 19.965094 -2.227642,
					-0.391036 19.862995 -2.231169,
					-0.865103 20.104686 -2.225363,
					-1.068434 20.278247 -2.225833,
					-1.242209 20.481540 -2.227938,
					-1.381773 20.709333 -2.229363,
					-1.483826 20.955840 -2.229733,
					-1.081194 22.699219 -2.727672,
					-1.224399 22.530662 -2.773136,
					-1.164548 22.607389 -2.738911,
					-1.158583 22.614527 -2.736974,
					-0.868276 22.870379 -2.722021,
					-1.049829 22.729589 -2.728589,
					-1.017902 22.758419 -2.729560,
					-0.611195 23.012893 -2.276638,
					-0.655739 22.991908 -2.298906,
					-0.677301 22.982151 -2.334514,
					-0.376043 23.103001 -2.286786,
					-0.553418 23.038727 -2.265937,
					-0.488504 23.065110 -2.265905,
					-0.425702 23.087569 -2.274398,
					-0.078033 23.137698 -2.543552,
					-0.340265 23.112707 -2.299963,
					-0.313325 23.119030 -2.314867,
					-0.296920 23.121851 -2.334514,
					-0.339216 23.084825 -2.615255,
					-0.296920 19.841186 -2.334514,
					-0.404579 19.868641 -2.279001,
					-0.319286 19.845310 -2.310870,
					-0.354812 19.854120 -2.294022,
					-0.657684 19.972041 -2.300492,
					-0.473025 19.892100 -2.267279,
					-0.548374 19.922154 -2.265554,
					-0.613174 19.951061 -2.277269,
					-1.081194 20.263817 -2.727672,
					-0.677301 19.980886 -2.334514,
					-0.825615 20.068076 -2.736568,
					-0.850292 20.082428 -2.735564,
					-1.158583 20.348511 -2.736975,
					-1.164550 20.355649 -2.738911,
					-1.224398 20.432376 -2.773136,
					-1.093214 22.563155 -3.957320,
					-0.881253 22.525780 -4.389867,
					-1.101851 22.559459 -3.957320,
					-1.094405 22.480355 -4.371052,
					-1.280711 22.454259 -3.957320,
					-1.338490 22.402139 -3.957320,
					-1.281273 22.379800 -4.329400,
					-1.481073 22.173874 -3.957320,
					-1.427242 22.288129 -3.957320,
					-1.501559 22.099797 -3.957320,
					-1.425592 22.246087 -4.222665,
					-1.526416 21.884004 -3.957320,
					-1.503653 22.043588 -4.190137,
					-1.526493 21.852068 -4.110806,
					-1.526416 21.079033 -3.957320,
					-1.536752 21.297785 -4.033424,
					-1.501559 20.863241 -3.957320,
					-1.526493 21.110970 -4.110806,
					-1.541653 21.481518 -3.957320,
					-1.536752 21.665251 -4.033424,
					-1.481073 20.789162 -3.957320,
					-1.503653 20.919449 -4.190137,
					-1.427242 20.674908 -3.957320,
					-1.338490 20.560897 -3.957320,
					-1.425592 20.716988 -4.222777,
					-1.280711 20.508777 -3.957320,
					-1.101851 20.403578 -3.957320,
					-1.281273 20.583236 -4.329400,
					-1.093214 20.399882 -3.957320,
					-1.094405 20.482681 -4.371052,
					-0.881253 20.437258 -4.389867,
					-1.536752 21.340896 -4.097943,
					-1.536752 21.405414 -4.141052,
					-1.536752 21.481518 -4.156190,
					-1.536752 21.557622 -4.141052,
					-1.536752 21.622141 -4.097943,
					-1.526493 21.197912 -4.240926,
					-1.526493 21.328031 -4.327869,
					-1.526493 21.481518 -4.358399,
					-1.526493 21.635005 -4.327869,
					-1.526493 21.765124 -4.240926,
					-1.503653 21.051329 -4.387509,
					-1.503653 21.248701 -4.519389,
					-1.503653 21.481518 -4.565700,
					-1.503653 21.714335 -4.519389,
					-1.503653 21.911707 -4.387509,
					-1.474414 20.915145 -4.386779,
					-1.452784 20.865904 -4.403475,
					-1.456295 20.957711 -4.498299,
					-1.481781 20.958330 -4.407594,
					-1.475587 20.976058 -4.452620,
					-1.425592 21.481385 -4.766624,
					-1.425592 21.160411 -4.700195,
					-1.425592 21.802382 -4.700300,
					-1.481780 22.004751 -4.407546,
					-1.455944 22.005833 -4.498825,
					-1.475587 21.986979 -4.452620,
					-1.474256 22.048443 -4.386739,
					-1.452623 22.097375 -4.403694,
					-1.438683 22.113571 -4.426262,
					-1.426804 22.119058 -4.452620,
					-1.426804 20.843979 -4.452620,
					-1.424347 20.844329 -4.459422,
					-1.438859 20.849614 -4.425927,
					-1.417479 20.863432 -4.499428,
					-1.442954 20.935646 -4.513484,
					-1.430271 20.909272 -4.518656,
					-1.423186 20.890319 -4.515653,
					-1.281273 20.794004 -4.644835,
					-1.281273 21.109439 -4.855602,
					-1.281273 21.481518 -4.929613,
					-1.429712 22.055110 -4.518627,
					-1.423158 22.072829 -4.515618,
					-1.281273 22.169033 -4.644835,
					-1.442479 22.028272 -4.513848,
					-1.281273 21.853599 -4.855602,
					-1.417413 22.100663 -4.498350,
					-1.424370 22.118709 -4.459412,
					-1.094405 20.717041 -4.721796,
					-1.094405 21.067787 -4.956157,
					-1.094405 21.481518 -5.038453,
					-1.094405 21.895250 -4.956157,
					-1.094405 22.245995 -4.721796,
					-0.881253 20.682275 -4.756563,
					-0.881253 21.048971 -5.001581,
					-0.881253 21.481518 -5.087620,
					-0.881253 21.914065 -5.001581,
					-0.881253 22.280761 -4.756563,
					-0.703453 20.438200 -4.392137,
					-0.703453 21.044748 -4.999822,
					-0.703453 20.681539 -4.755803,
					-0.703453 21.473427 -5.087575,
					-0.703453 21.903320 -5.005968,
					-0.703453 22.269986 -4.767173,
					-0.703453 22.518506 -4.407026,
					-0.664064 22.989424 -2.365551,
					-0.303508 23.118823 -2.354854,
					-0.325949 23.112160 -2.370007,
					-0.451551 23.053278 -2.644218,
					-0.355673 23.103593 -2.381601,
					-0.395882 23.091674 -2.392003,
					-0.449928 23.074635 -2.400595,
					-0.683919 22.967956 -2.694339,
					-0.513106 23.052845 -2.404359,
					-0.576358 23.028591 -2.400325,
					-0.629023 23.006061 -2.387132,
					-0.644104 22.976190 -2.727837,
					-0.015926 23.128050 -2.586728,
					-0.305078 19.844708 -2.356412,
					-0.663317 19.973237 -2.366296,
					-0.625435 19.955359 -2.388501,
					-0.575172 19.933964 -2.400493,
					-0.516673 19.911485 -2.404362,
					-0.456687 19.890629 -2.401317,
					-0.402108 19.873261 -2.393268,
					-0.359340 19.860510 -2.382744,
					-0.328117 19.851500 -2.371043,
				]
			}
			coordIndex [
					0, 1, 2,-1,
					0, 2, 175,-1,
					0, 171, 1,-1,
					0, 172, 171,-1,
					0, 173, 172,-1,
					0, 175, 173,-1,
					1, 3, 5,-1,
					1, 5, 2,-1,
					1, 171, 3,-1,
					2, 5, 31,-1,
					2, 27, 201,-1,
					2, 31, 27,-1,
					2, 201, 175,-1,
					3, 4, 5,-1,
					3, 6, 4,-1,
					3, 171, 6,-1,
					4, 6, 8,-1,
					4, 8, 60,-1,
					4, 60, 61,-1,
					4, 61, 62,-1,
					4, 62, 5,-1,
					5, 30, 33,-1,
					5, 32, 31,-1,
					5, 33, 32,-1,
					5, 62, 30,-1,
					6, 7, 10,-1,
					6, 10, 8,-1,
					6, 171, 7,-1,
					7, 9, 12,-1,
					7, 12, 10,-1,
					7, 171, 9,-1,
					8, 10, 74,-1,
					8, 57, 58,-1,
					8, 58, 59,-1,
					8, 59, 60,-1,
					8, 72, 57,-1,
					8, 74, 72,-1,
					9, 11, 12,-1,
					9, 171, 182,-1,
					9, 182, 11,-1,
					10, 12, 140,-1,
					10, 73, 74,-1,
					10, 75, 73,-1,
					10, 76, 75,-1,
					10, 77, 76,-1,
					10, 78, 77,-1,
					10, 79, 78,-1,
					10, 80, 79,-1,
					10, 140, 80,-1,
					11, 18, 20,-1,
					11, 20, 12,-1,
					11, 182, 18,-1,
					12, 20, 82,-1,
					12, 81, 101,-1,
					12, 82, 81,-1,
					12, 101, 120,-1,
					12, 120, 139,-1,
					12, 139, 140,-1,
					13, 14, 26,-1,
					13, 26, 179,-1,
					13, 56, 14,-1,
					13, 176, 251,-1,
					13, 179, 176,-1,
					13, 251, 56,-1,
					14, 15, 24,-1,
					14, 24, 25,-1,
					14, 25, 26,-1,
					14, 56, 15,-1,
					15, 16, 24,-1,
					15, 34, 35,-1,
					15, 35, 16,-1,
					15, 56, 34,-1,
					16, 35, 24,-1,
					17, 18, 182,-1,
					17, 21, 24,-1,
					17, 22, 18,-1,
					17, 24, 22,-1,
					17, 182, 21,-1,
					18, 19, 20,-1,
					18, 22, 19,-1,
					19, 22, 37,-1,
					19, 37, 38,-1,
					19, 38, 39,-1,
					19, 39, 40,-1,
					19, 40, 50,-1,
					19, 48, 20,-1,
					19, 50, 48,-1,
					20, 41, 82,-1,
					20, 42, 41,-1,
					20, 43, 42,-1,
					20, 44, 43,-1,
					20, 45, 44,-1,
					20, 46, 45,-1,
					20, 47, 46,-1,
					20, 48, 47,-1,
					21, 23, 25,-1,
					21, 25, 24,-1,
					21, 182, 23,-1,
					22, 24, 35,-1,
					22, 35, 36,-1,
					22, 36, 37,-1,
					23, 178, 179,-1,
					23, 179, 25,-1,
					23, 180, 178,-1,
					23, 182, 180,-1,
					25, 179, 26,-1,
					27, 28, 201,-1,
					27, 31, 28,-1,
					28, 29, 201,-1,
					28, 31, 29,-1,
					29, 31, 162,-1,
					29, 64, 222,-1,
					29, 162, 64,-1,
					29, 222, 328,-1,
					29, 328, 201,-1,
					30, 62, 63,-1,
					30, 63, 33,-1,
					31, 32, 64,-1,
					31, 64, 162,-1,
					32, 33, 64,-1,
					33, 63, 65,-1,
					33, 65, 64,-1,
					34, 55, 35,-1,
					34, 56, 55,-1,
					35, 54, 36,-1,
					35, 55, 54,-1,
					36, 52, 37,-1,
					36, 54, 52,-1,
					37, 52, 53,-1,
					37, 53, 38,-1,
					38, 51, 39,-1,
					38, 53, 51,-1,
					39, 49, 40,-1,
					39, 51, 49,-1,
					40, 49, 50,-1,
					41, 42, 83,-1,
					41, 83, 82,-1,
					42, 43, 84,-1,
					42, 84, 83,-1,
					43, 44, 85,-1,
					43, 85, 84,-1,
					44, 45, 86,-1,
					44, 86, 85,-1,
					45, 46, 86,-1,
					46, 47, 87,-1,
					46, 87, 86,-1,
					47, 48, 88,-1,
					47, 88, 87,-1,
					48, 50, 90,-1,
					48, 89, 88,-1,
					48, 90, 89,-1,
					49, 51, 91,-1,
					49, 91, 50,-1,
					50, 91, 90,-1,
					51, 53, 93,-1,
					51, 92, 91,-1,
					51, 93, 92,-1,
					52, 54, 95,-1,
					52, 93, 53,-1,
					52, 94, 93,-1,
					52, 95, 94,-1,
					54, 55, 99,-1,
					54, 99, 95,-1,
					55, 56, 96,-1,
					55, 96, 99,-1,
					56, 98, 96,-1,
					56, 251, 309,-1,
					56, 309, 98,-1,
					57, 71, 58,-1,
					57, 72, 71,-1,
					58, 70, 59,-1,
					58, 71, 70,-1,
					59, 69, 60,-1,
					59, 70, 69,-1,
					60, 68, 61,-1,
					60, 69, 68,-1,
					61, 67, 62,-1,
					61, 68, 67,-1,
					62, 65, 63,-1,
					62, 67, 65,-1,
					64, 65, 66,-1,
					64, 66, 161,-1,
					64, 161, 222,-1,
					65, 67, 160,-1,
					65, 160, 66,-1,
					66, 160, 308,-1,
					66, 308, 315,-1,
					66, 315, 161,-1,
					67, 68, 152,-1,
					67, 152, 153,-1,
					67, 153, 160,-1,
					68, 69, 152,-1,
					69, 70, 151,-1,
					69, 151, 152,-1,
					70, 71, 149,-1,
					70, 149, 150,-1,
					70, 150, 151,-1,
					71, 72, 149,-1,
					72, 74, 148,-1,
					72, 148, 149,-1,
					73, 75, 145,-1,
					73, 145, 146,-1,
					73, 146, 74,-1,
					74, 146, 147,-1,
					74, 147, 148,-1,
					75, 76, 145,-1,
					76, 77, 143,-1,
					76, 143, 144,-1,
					76, 144, 145,-1,
					77, 78, 143,-1,
					78, 79, 142,-1,
					78, 142, 143,-1,
					79, 80, 140,-1,
					79, 140, 141,-1,
					79, 141, 142,-1,
					81, 82, 101,-1,
					82, 83, 103,-1,
					82, 102, 101,-1,
					82, 103, 102,-1,
					83, 84, 103,-1,
					84, 85, 104,-1,
					84, 104, 103,-1,
					85, 86, 105,-1,
					85, 105, 104,-1,
					86, 87, 106,-1,
					86, 106, 105,-1,
					87, 88, 108,-1,
					87, 107, 106,-1,
					87, 108, 107,-1,
					88, 89, 109,-1,
					88, 109, 108,-1,
					89, 90, 109,-1,
					90, 91, 110,-1,
					90, 110, 109,-1,
					91, 92, 112,-1,
					91, 111, 110,-1,
					91, 112, 111,-1,
					92, 93, 113,-1,
					92, 113, 112,-1,
					93, 94, 113,-1,
					94, 95, 115,-1,
					94, 114, 113,-1,
					94, 115, 114,-1,
					95, 97, 118,-1,
					95, 99, 97,-1,
					95, 118, 115,-1,
					96, 98, 309,-1,
					96, 251, 304,-1,
					96, 304, 311,-1,
					96, 309, 251,-1,
					96, 311, 99,-1,
					97, 99, 116,-1,
					97, 116, 118,-1,
					99, 100, 116,-1,
					99, 304, 100,-1,
					99, 311, 304,-1,
					100, 304, 116,-1,
					101, 102, 120,-1,
					102, 103, 122,-1,
					102, 121, 120,-1,
					102, 122, 121,-1,
					103, 104, 123,-1,
					103, 123, 122,-1,
					104, 105, 123,-1,
					105, 106, 125,-1,
					105, 124, 123,-1,
					105, 125, 124,-1,
					106, 107, 125,-1,
					107, 108, 126,-1,
					107, 126, 125,-1,
					108, 109, 128,-1,
					108, 127, 126,-1,
					108, 128, 127,-1,
					109, 110, 128,-1,
					110, 111, 130,-1,
					110, 129, 128,-1,
					110, 130, 129,-1,
					111, 112, 130,-1,
					112, 113, 131,-1,
					112, 131, 130,-1,
					113, 114, 133,-1,
					113, 132, 131,-1,
					113, 133, 132,-1,
					114, 115, 133,-1,
					115, 117, 137,-1,
					115, 118, 117,-1,
					115, 134, 133,-1,
					115, 137, 134,-1,
					116, 304, 305,-1,
					116, 305, 310,-1,
					116, 310, 118,-1,
					117, 118, 135,-1,
					117, 135, 137,-1,
					118, 119, 135,-1,
					118, 305, 119,-1,
					118, 310, 305,-1,
					119, 305, 135,-1,
					120, 121, 140,-1,
					120, 140, 139,-1,
					121, 122, 140,-1,
					122, 123, 141,-1,
					122, 141, 140,-1,
					123, 124, 143,-1,
					123, 142, 141,-1,
					123, 143, 142,-1,
					124, 125, 143,-1,
					125, 126, 145,-1,
					125, 144, 143,-1,
					125, 145, 144,-1,
					126, 127, 146,-1,
					126, 146, 145,-1,
					127, 128, 146,-1,
					128, 129, 147,-1,
					128, 147, 146,-1,
					129, 130, 149,-1,
					129, 148, 147,-1,
					129, 149, 148,-1,
					130, 131, 149,-1,
					131, 132, 151,-1,
					131, 150, 149,-1,
					131, 151, 150,-1,
					132, 133, 152,-1,
					132, 152, 151,-1,
					133, 134, 152,-1,
					134, 136, 157,-1,
					134, 137, 136,-1,
					134, 153, 152,-1,
					134, 157, 153,-1,
					135, 138, 137,-1,
					135, 305, 306,-1,
					135, 306, 312,-1,
					135, 312, 138,-1,
					136, 137, 154,-1,
					136, 154, 157,-1,
					137, 138, 312,-1,
					137, 306, 154,-1,
					137, 312, 306,-1,
					153, 155, 160,-1,
					153, 157, 155,-1,
					154, 156, 157,-1,
					154, 306, 313,-1,
					154, 313, 156,-1,
					155, 157, 158,-1,
					155, 158, 160,-1,
					156, 307, 157,-1,
					156, 313, 307,-1,
					157, 307, 158,-1,
					158, 159, 160,-1,
					158, 307, 314,-1,
					158, 314, 159,-1,
					159, 308, 160,-1,
					159, 314, 308,-1,
					161, 315, 222,-1,
					163, 165, 186,-1,
					163, 166, 165,-1,
					163, 168, 166,-1,
					163, 186, 168,-1,
					164, 165, 166,-1,
					164, 166, 232,-1,
					164, 232, 234,-1,
					164, 234, 240,-1,
					164, 235, 165,-1,
					164, 236, 238,-1,
					164, 238, 235,-1,
					164, 239, 252,-1,
					164, 240, 256,-1,
					164, 252, 236,-1,
					164, 256, 239,-1,
					165, 235, 237,-1,
					165, 237, 186,-1,
					166, 168, 230,-1,
					166, 230, 232,-1,
					167, 168, 169,-1,
					167, 169, 229,-1,
					167, 228, 168,-1,
					167, 229, 228,-1,
					168, 170, 169,-1,
					168, 183, 170,-1,
					168, 186, 183,-1,
					168, 228, 230,-1,
					169, 170, 190,-1,
					169, 188, 229,-1,
					169, 189, 188,-1,
					169, 190, 189,-1,
					170, 171, 193,-1,
					170, 182, 171,-1,
					170, 183, 182,-1,
					170, 187, 190,-1,
					170, 192, 187,-1,
					170, 193, 192,-1,
					171, 172, 196,-1,
					171, 191, 193,-1,
					171, 196, 191,-1,
					172, 173, 174,-1,
					172, 174, 198,-1,
					172, 194, 195,-1,
					172, 195, 196,-1,
					172, 198, 194,-1,
					173, 175, 174,-1,
					174, 175, 202,-1,
					174, 197, 200,-1,
					174, 199, 198,-1,
					174, 200, 199,-1,
					174, 202, 197,-1,
					175, 201, 205,-1,
					175, 203, 202,-1,
					175, 204, 203,-1,
					175, 205, 317,-1,
					175, 317, 204,-1,
					176, 177, 251,-1,
					176, 179, 206,-1,
					176, 206, 329,-1,
					176, 329, 337,-1,
					176, 337, 177,-1,
					177, 216, 249,-1,
					177, 249, 250,-1,
					177, 250, 251,-1,
					177, 332, 216,-1,
					177, 333, 332,-1,
					177, 334, 333,-1,
					177, 335, 334,-1,
					177, 336, 335,-1,
					177, 337, 336,-1,
					178, 180, 181,-1,
					178, 181, 179,-1,
					179, 181, 208,-1,
					179, 208, 206,-1,
					180, 182, 215,-1,
					180, 210, 213,-1,
					180, 212, 181,-1,
					180, 213, 212,-1,
					180, 215, 210,-1,
					181, 207, 209,-1,
					181, 209, 208,-1,
					181, 211, 207,-1,
					181, 212, 211,-1,
					182, 183, 214,-1,
					182, 214, 217,-1,
					182, 217, 215,-1,
					183, 184, 218,-1,
					183, 186, 184,-1,
					183, 218, 214,-1,
					184, 185, 243,-1,
					184, 186, 185,-1,
					184, 219, 218,-1,
					184, 220, 219,-1,
					184, 243, 220,-1,
					185, 186, 241,-1,
					185, 241, 243,-1,
					186, 237, 241,-1,
					187, 192, 226,-1,
					187, 226, 190,-1,
					188, 189, 229,-1,
					189, 190, 226,-1,
					189, 226, 229,-1,
					191, 196, 316,-1,
					191, 223, 225,-1,
					191, 225, 193,-1,
					191, 316, 323,-1,
					191, 323, 223,-1,
					192, 193, 226,-1,
					193, 225, 226,-1,
					194, 198, 326,-1,
					194, 316, 195,-1,
					194, 326, 316,-1,
					195, 316, 196,-1,
					197, 202, 321,-1,
					197, 321, 322,-1,
					197, 322, 200,-1,
					198, 199, 325,-1,
					198, 325, 326,-1,
					199, 200, 324,-1,
					199, 324, 325,-1,
					200, 322, 324,-1,
					201, 222, 205,-1,
					201, 328, 222,-1,
					202, 203, 320,-1,
					202, 320, 321,-1,
					203, 204, 318,-1,
					203, 318, 320,-1,
					204, 317, 318,-1,
					205, 222, 319,-1,
					205, 318, 317,-1,
					205, 319, 320,-1,
					205, 320, 318,-1,
					206, 208, 337,-1,
					206, 337, 329,-1,
					207, 211, 333,-1,
					207, 333, 334,-1,
					207, 334, 335,-1,
					207, 335, 209,-1,
					208, 209, 336,-1,
					208, 336, 337,-1,
					209, 335, 336,-1,
					210, 215, 330,-1,
					210, 330, 213,-1,
					211, 212, 332,-1,
					211, 332, 333,-1,
					212, 213, 331,-1,
					212, 331, 332,-1,
					213, 330, 331,-1,
					214, 218, 244,-1,
					214, 244, 246,-1,
					214, 246, 217,-1,
					215, 216, 330,-1,
					215, 217, 216,-1,
					216, 217, 247,-1,
					216, 247, 249,-1,
					216, 331, 330,-1,
					216, 332, 331,-1,
					217, 246, 247,-1,
					218, 219, 244,-1,
					219, 220, 243,-1,
					219, 243, 244,-1,
					221, 223, 323,-1,
					221, 224, 223,-1,
					221, 323, 224,-1,
					222, 224, 319,-1,
					222, 303, 224,-1,
					222, 308, 303,-1,
					222, 315, 308,-1,
					223, 224, 227,-1,
					223, 227, 225,-1,
					224, 303, 227,-1,
					224, 323, 327,-1,
					224, 327, 319,-1,
					225, 227, 226,-1,
					226, 227, 231,-1,
					226, 231, 229,-1,
					227, 294, 298,-1,
					227, 298, 231,-1,
					227, 303, 294,-1,
					228, 229, 231,-1,
					228, 231, 233,-1,
					228, 233, 230,-1,
					230, 233, 232,-1,
					231, 278, 233,-1,
					231, 279, 278,-1,
					231, 280, 279,-1,
					231, 281, 280,-1,
					231, 298, 281,-1,
					232, 233, 234,-1,
					233, 266, 234,-1,
					233, 275, 266,-1,
					233, 278, 275,-1,
					234, 256, 240,-1,
					234, 261, 256,-1,
					234, 266, 261,-1,
					235, 238, 242,-1,
					235, 242, 237,-1,
					236, 252, 257,-1,
					236, 257, 238,-1,
					237, 242, 241,-1,
					238, 257, 242,-1,
					239, 253, 252,-1,
					239, 254, 253,-1,
					239, 255, 254,-1,
					239, 256, 255,-1,
					241, 242, 245,-1,
					241, 245, 243,-1,
					242, 257, 262,-1,
					242, 262, 270,-1,
					242, 267, 245,-1,
					242, 270, 267,-1,
					243, 245, 244,-1,
					244, 245, 248,-1,
					244, 248, 246,-1,
					245, 267, 268,-1,
					245, 268, 284,-1,
					245, 282, 283,-1,
					245, 283, 248,-1,
					245, 284, 282,-1,
					246, 248, 247,-1,
					247, 248, 250,-1,
					247, 250, 249,-1,
					248, 283, 289,-1,
					248, 289, 299,-1,
					248, 299, 250,-1,
					250, 299, 304,-1,
					250, 304, 251,-1,
					252, 253, 258,-1,
					252, 258, 257,-1,
					253, 254, 258,-1,
					254, 255, 260,-1,
					254, 259, 258,-1,
					254, 260, 259,-1,
					255, 256, 260,-1,
					256, 261, 260,-1,
					257, 258, 262,-1,
					258, 259, 264,-1,
					258, 263, 262,-1,
					258, 264, 263,-1,
					259, 260, 264,-1,
					260, 261, 266,-1,
					260, 265, 264,-1,
					260, 266, 265,-1,
					262, 263, 271,-1,
					262, 271, 270,-1,
					263, 264, 272,-1,
					263, 272, 273,-1,
					263, 273, 271,-1,
					264, 265, 272,-1,
					265, 266, 277,-1,
					265, 274, 272,-1,
					265, 277, 274,-1,
					266, 275, 277,-1,
					267, 269, 268,-1,
					267, 270, 271,-1,
					267, 271, 269,-1,
					268, 269, 286,-1,
					268, 286, 284,-1,
					269, 271, 273,-1,
					269, 273, 286,-1,
					272, 274, 296,-1,
					272, 290, 273,-1,
					272, 291, 290,-1,
					272, 296, 291,-1,
					273, 287, 286,-1,
					273, 288, 287,-1,
					273, 289, 288,-1,
					273, 290, 289,-1,
					274, 276, 295,-1,
					274, 277, 276,-1,
					274, 292, 293,-1,
					274, 293, 294,-1,
					274, 294, 296,-1,
					274, 295, 292,-1,
					275, 278, 277,-1,
					276, 277, 278,-1,
					276, 278, 279,-1,
					276, 279, 295,-1,
					279, 280, 295,-1,
					280, 281, 292,-1,
					280, 292, 295,-1,
					281, 293, 292,-1,
					281, 298, 293,-1,
					282, 284, 287,-1,
					282, 285, 283,-1,
					282, 287, 288,-1,
					282, 288, 285,-1,
					283, 285, 289,-1,
					284, 286, 287,-1,
					285, 288, 289,-1,
					289, 290, 299,-1,
					290, 291, 300,-1,
					290, 300, 299,-1,
					291, 296, 301,-1,
					291, 301, 300,-1,
					293, 297, 294,-1,
					293, 298, 297,-1,
					294, 297, 298,-1,
					294, 303, 296,-1,
					296, 302, 301,-1,
					296, 303, 302,-1,
					299, 300, 305,-1,
					299, 305, 304,-1,
					300, 301, 305,-1,
					301, 302, 306,-1,
					301, 306, 305,-1,
					302, 303, 308,-1,
					302, 307, 306,-1,
					302, 308, 307,-1,
					306, 307, 313,-1,
					307, 308, 314,-1,
					316, 326, 323,-1,
					319, 321, 320,-1,
					319, 322, 321,-1,
					319, 323, 324,-1,
					319, 324, 322,-1,
					319, 327, 323,-1,
					323, 325, 324,-1,
					323, 326, 325,-1,
				]
			}
		}
	]
}
