#VRML V2.0 utf8

DEF simple_asm0001_vrml_06_prt
Transform {
	children [
		 Shape {
			geometry IndexedFaceSet {
				coord Coordinate {
					point [
					0.378498 14.608125 -1.224997,
					0.000002 14.441294 -0.885377,
					0.000000 14.708256 -1.356674,
					-0.461139 14.631656 -1.186730,
					0.292152 14.404734 -0.880788,
					0.421546 14.349512 -0.868172,
					-0.169939 14.428631 -0.869325,
					-0.366084 14.381693 -0.818929,
					0.378498 14.734488 -1.630630,
					0.000000 14.795850 -1.891198,
					-0.461139 14.770401 -1.615557,
					0.378498 14.742074 -2.055422,
					0.000000 14.693283 -2.423052,
					-0.461139 14.778893 -2.066190,
					0.378616 14.408017 -2.827458,
					0.000000 14.413196 -2.886669,
					-0.461139 14.656401 -2.499939,
					0.378498 14.630273 -2.465308,
					-0.466371 14.412621 -2.880097,
					0.639210 14.396689 -2.697979,
					0.726084 14.571236 -2.234166,
					0.730864 14.390250 -2.624391,
					0.722982 14.621374 -1.814082,
					0.725499 14.620059 -1.816745,
					0.724641 14.609739 -1.690052,
					0.699766 14.630465 -1.755241,
					0.718661 14.613944 -1.696427,
					0.368018 14.382734 -0.878328,
					0.726084 14.470679 -1.246735,
					0.691233 14.219495 -0.875287,
					0.733527 14.187974 -0.877244,
					0.788693 14.123547 -0.873146,
					0.844022 14.379325 -2.499523,
					0.774042 14.591618 -1.837783,
					1.008112 14.348484 -2.173736,
					0.990209 14.355040 -2.221944,
					0.768151 14.581195 -1.672702,
					1.009315 14.138748 -1.159145,
					1.009315 14.315546 -1.469134,
					0.961745 13.952833 -0.910814,
					1.017045 13.870457 -0.927545,
					1.047727 13.783989 -0.932899,
					0.817545 14.551532 -1.697419,
					1.009315 14.387368 -1.818693,
					0.839345 14.542022 -1.755241,
					0.821702 14.558725 -1.813060,
					1.032102 14.333855 -2.114713,
					1.178457 14.113081 -1.707668,
					1.079460 14.288914 -2.012219,
					1.200276 13.968239 -1.456792,
					1.200276 13.877190 -1.328936,
					1.200276 13.763606 -1.220640,
					1.092246 13.726492 -0.958258,
					1.200276 13.631833 -1.135928,
					1.153684 13.549440 -0.993846,
					1.168128 13.380256 -1.003456,
					1.200276 13.486305 -1.077598,
					1.183563 13.390961 -1.016731,
					1.195987 13.433685 -1.053531,
					-0.463428 14.376612 -0.818886,
					-0.392629 14.364387 -0.807241,
					-0.360113 14.369962 -0.812366,
					-0.643425 14.353773 -0.818795,
					-0.424510 14.341889 -0.802742,
					-0.915549 14.560914 -1.231609,
					-0.915076 14.260360 -0.819237,
					-0.788869 14.737373 -1.697340,
					-0.845781 14.718627 -1.672692,
					-0.915549 14.643114 -2.299932,
					-0.909033 14.709552 -1.812838,
					-0.767625 14.748000 -1.755241,
					-0.794002 14.745013 -1.813771,
					-0.853550 14.729081 -1.837781,
					-0.919823 14.402087 -2.759694,
					-0.861979 14.404652 -2.789016,
					-0.489334 14.412460 -2.878257,
					-1.421258 13.495810 -0.822529,
					-1.439982 13.344936 -0.822528,
					-1.456142 13.343091 -0.843612,
					-1.408641 13.341224 -0.864948,
					-1.381835 13.487687 -0.802742,
					-1.422005 13.346210 -0.807960,
					-1.472000 13.341224 -0.864948,
					-1.533471 13.354151 -0.956003,
					-1.575406 13.404861 -1.031074,
					-1.472192 13.353926 -0.955421,
					-1.591122 13.486305 -1.077598,
					-1.320407 13.814524 -0.822087,
					-1.591122 13.763609 -1.220643,
					-1.364553 13.707546 -0.822366,
					-1.305422 14.161625 -1.080343,
					-1.591122 13.968239 -1.456792,
					-1.305422 14.382206 -1.453040,
					-1.561433 14.113258 -1.707972,
					-1.305422 14.456547 -1.879693,
					-1.444346 14.288914 -2.012219,
					-1.393731 14.333892 -2.114833,
					-1.311649 14.363410 -2.317617,
					-1.350627 14.355040 -2.221944,
					-1.163377 14.384204 -2.555292,
					-0.920286 14.704611 -1.796753,
					-0.929583 14.698318 -1.755241,
					-0.920987 14.698526 -1.720757,
					-1.211115 13.999065 -0.821034,
					-0.919922 14.257703 -0.819234,
					-1.199203 13.948195 -0.802742,
					-1.330735 13.682941 -0.802742,
					-0.938625 14.203282 -0.802742,
					-0.904169 14.702208 -1.697096,
					-0.680807 14.307959 -0.802742,
					-1.047384 13.771138 -0.802742,
					-1.164666 13.346667 -0.802742,
					-1.399532 13.346667 -0.802742,
					-1.190560 13.341224 -0.864948,
					-1.142508 13.341224 -0.864948,
					-1.146703 13.346016 -0.810184,
					-0.794273 14.110239 -0.802742,
					-1.151589 13.341224 -0.875180,
					-1.140318 13.341734 -0.859113,
					-1.190560 13.341224 -0.878942,
					-1.164340 13.341224 -0.878942,
					-1.139363 13.344444 -0.828142,
					-1.139533 13.342288 -0.852801,
				]
			}
			coordIndex [
					0, 1, 4,-1,
					0, 2, 1,-1,
					0, 4, 27,-1,
					0, 8, 2,-1,
					0, 24, 8,-1,
					0, 27, 28,-1,
					0, 28, 24,-1,
					1, 2, 3,-1,
					1, 3, 6,-1,
					1, 6, 7,-1,
					1, 7, 4,-1,
					2, 8, 9,-1,
					2, 9, 10,-1,
					2, 10, 3,-1,
					3, 10, 66,-1,
					3, 59, 6,-1,
					3, 62, 59,-1,
					3, 64, 62,-1,
					3, 66, 67,-1,
					3, 67, 64,-1,
					4, 5, 27,-1,
					4, 7, 61,-1,
					4, 60, 5,-1,
					4, 61, 60,-1,
					5, 28, 27,-1,
					5, 29, 28,-1,
					5, 60, 29,-1,
					6, 59, 7,-1,
					7, 59, 60,-1,
					7, 60, 61,-1,
					8, 11, 9,-1,
					8, 24, 26,-1,
					8, 25, 11,-1,
					8, 26, 25,-1,
					9, 11, 12,-1,
					9, 12, 13,-1,
					9, 13, 10,-1,
					10, 13, 70,-1,
					10, 70, 66,-1,
					11, 17, 12,-1,
					11, 20, 17,-1,
					11, 22, 23,-1,
					11, 23, 20,-1,
					11, 25, 22,-1,
					12, 15, 16,-1,
					12, 16, 13,-1,
					12, 17, 15,-1,
					13, 16, 68,-1,
					13, 68, 72,-1,
					13, 71, 70,-1,
					13, 72, 71,-1,
					14, 15, 17,-1,
					14, 17, 19,-1,
					14, 19, 57,-1,
					14, 55, 15,-1,
					14, 57, 55,-1,
					15, 18, 16,-1,
					15, 55, 83,-1,
					15, 83, 18,-1,
					16, 18, 75,-1,
					16, 74, 68,-1,
					16, 75, 74,-1,
					17, 20, 21,-1,
					17, 21, 19,-1,
					18, 83, 75,-1,
					19, 21, 57,-1,
					20, 23, 33,-1,
					20, 32, 21,-1,
					20, 33, 45,-1,
					20, 34, 35,-1,
					20, 35, 32,-1,
					20, 45, 34,-1,
					21, 32, 57,-1,
					22, 24, 23,-1,
					22, 25, 26,-1,
					22, 26, 24,-1,
					23, 24, 36,-1,
					23, 36, 33,-1,
					24, 28, 36,-1,
					28, 29, 30,-1,
					28, 30, 37,-1,
					28, 37, 38,-1,
					28, 38, 42,-1,
					28, 42, 36,-1,
					29, 31, 30,-1,
					29, 60, 31,-1,
					30, 31, 37,-1,
					31, 39, 37,-1,
					31, 41, 39,-1,
					31, 60, 63,-1,
					31, 63, 111,-1,
					31, 111, 41,-1,
					32, 35, 47,-1,
					32, 47, 58,-1,
					32, 58, 57,-1,
					33, 36, 42,-1,
					33, 42, 45,-1,
					34, 45, 46,-1,
					34, 46, 35,-1,
					35, 46, 48,-1,
					35, 48, 47,-1,
					37, 39, 40,-1,
					37, 40, 51,-1,
					37, 49, 38,-1,
					37, 50, 49,-1,
					37, 51, 50,-1,
					38, 43, 44,-1,
					38, 44, 42,-1,
					38, 47, 43,-1,
					38, 49, 47,-1,
					39, 41, 40,-1,
					40, 41, 52,-1,
					40, 52, 51,-1,
					41, 54, 52,-1,
					41, 55, 54,-1,
					41, 111, 55,-1,
					42, 44, 45,-1,
					43, 45, 44,-1,
					43, 46, 45,-1,
					43, 47, 48,-1,
					43, 48, 46,-1,
					47, 49, 56,-1,
					47, 56, 58,-1,
					49, 50, 56,-1,
					50, 51, 53,-1,
					50, 53, 56,-1,
					51, 52, 53,-1,
					52, 54, 53,-1,
					53, 54, 56,-1,
					54, 55, 57,-1,
					54, 57, 58,-1,
					54, 58, 56,-1,
					55, 85, 83,-1,
					55, 111, 115,-1,
					55, 114, 117,-1,
					55, 115, 121,-1,
					55, 117, 120,-1,
					55, 118, 114,-1,
					55, 120, 85,-1,
					55, 121, 122,-1,
					55, 122, 118,-1,
					59, 62, 60,-1,
					60, 62, 109,-1,
					60, 109, 63,-1,
					62, 64, 65,-1,
					62, 65, 109,-1,
					63, 109, 116,-1,
					63, 110, 111,-1,
					63, 116, 110,-1,
					64, 67, 108,-1,
					64, 90, 104,-1,
					64, 92, 90,-1,
					64, 104, 65,-1,
					64, 108, 92,-1,
					65, 104, 107,-1,
					65, 107, 109,-1,
					66, 70, 71,-1,
					66, 71, 67,-1,
					67, 71, 72,-1,
					67, 72, 108,-1,
					68, 69, 72,-1,
					68, 73, 99,-1,
					68, 74, 73,-1,
					68, 94, 69,-1,
					68, 97, 94,-1,
					68, 99, 97,-1,
					69, 94, 100,-1,
					69, 100, 102,-1,
					69, 102, 108,-1,
					69, 108, 72,-1,
					73, 74, 84,-1,
					73, 84, 99,-1,
					74, 75, 84,-1,
					75, 83, 84,-1,
					76, 77, 81,-1,
					76, 78, 77,-1,
					76, 80, 106,-1,
					76, 81, 80,-1,
					76, 82, 78,-1,
					76, 83, 82,-1,
					76, 84, 83,-1,
					76, 86, 84,-1,
					76, 89, 86,-1,
					76, 106, 89,-1,
					77, 78, 81,-1,
					78, 82, 81,-1,
					79, 82, 119,-1,
					79, 113, 118,-1,
					79, 118, 82,-1,
					79, 119, 113,-1,
					80, 81, 112,-1,
					80, 111, 106,-1,
					80, 112, 111,-1,
					81, 82, 118,-1,
					81, 111, 112,-1,
					81, 118, 121,-1,
					81, 121, 111,-1,
					82, 83, 119,-1,
					83, 85, 119,-1,
					84, 86, 93,-1,
					84, 93, 97,-1,
					84, 97, 99,-1,
					85, 120, 119,-1,
					86, 88, 91,-1,
					86, 89, 88,-1,
					86, 91, 93,-1,
					87, 88, 89,-1,
					87, 89, 106,-1,
					87, 90, 88,-1,
					87, 103, 90,-1,
					87, 105, 103,-1,
					87, 106, 105,-1,
					88, 90, 91,-1,
					90, 92, 91,-1,
					90, 103, 104,-1,
					91, 92, 93,-1,
					92, 94, 93,-1,
					92, 102, 94,-1,
					92, 108, 102,-1,
					93, 94, 95,-1,
					93, 95, 97,-1,
					94, 96, 95,-1,
					94, 97, 98,-1,
					94, 98, 96,-1,
					94, 101, 100,-1,
					94, 102, 101,-1,
					95, 96, 98,-1,
					95, 98, 97,-1,
					100, 101, 102,-1,
					103, 105, 107,-1,
					103, 107, 104,-1,
					105, 106, 110,-1,
					105, 110, 107,-1,
					106, 111, 110,-1,
					107, 110, 116,-1,
					107, 116, 109,-1,
					111, 121, 115,-1,
					113, 114, 118,-1,
					113, 119, 120,-1,
					113, 120, 114,-1,
					114, 120, 117,-1,
					118, 122, 121,-1,
				]
			}
		}
	]
}
