<?xml version="1.0" encoding="utf-8"?>
<COLLADA xmlns="http://www.collada.org/2005/11/COLLADASchema" version="1.4.1">
  <asset>
    <contributor>
      <author>Blender User</author>
      <authoring_tool>Blender 2.68.4 r59916</authoring_tool>
    </contributor>
    <created>2013-09-08T17:34:29</created>
    <modified>2013-09-08T17:34:29</modified>
    <unit name="meter" meter="1"/>
    <up_axis>Z_UP</up_axis>
  </asset>
  <library_cameras>
    <camera id="Camera-camera" name="Camera">
      <optics>
        <technique_common>
          <perspective>
            <xfov sid="xfov">49.13434</xfov>
            <aspect_ratio>1.777778</aspect_ratio>
            <znear sid="znear">0.1</znear>
            <zfar sid="zfar">100</zfar>
          </perspective>
        </technique_common>
      </optics>
      <extra>
        <technique profile="blender">
          <YF_dofdist>0</YF_dofdist>
          <shiftx>0</shiftx>
          <shifty>0</shifty>
        </technique>
      </extra>
    </camera>
  </library_cameras>
  <library_lights>
    <light id="Lamp-light" name="Lamp">
      <technique_common>
        <point>
          <color sid="color">1 1 1</color>
          <constant_attenuation>1</constant_attenuation>
          <linear_attenuation>0</linear_attenuation>
          <quadratic_attenuation>0.00111109</quadratic_attenuation>
        </point>
      </technique_common>
      <extra>
        <technique profile="blender">
          <adapt_thresh>0.000999987</adapt_thresh>
          <area_shape>1</area_shape>
          <area_size>0.1</area_size>
          <area_sizey>0.1</area_sizey>
          <area_sizez>1</area_sizez>
          <atm_distance_factor>1</atm_distance_factor>
          <atm_extinction_factor>1</atm_extinction_factor>
          <atm_turbidity>2</atm_turbidity>
          <att1>0</att1>
          <att2>1</att2>
          <backscattered_light>1</backscattered_light>
          <bias>1</bias>
          <blue>1</blue>
          <buffers>1</buffers>
          <bufflag>0</bufflag>
          <bufsize>2880</bufsize>
          <buftype>2</buftype>
          <clipend>30.002</clipend>
          <clipsta>1.000799</clipsta>
          <compressthresh>0.04999995</compressthresh>
          <dist sid="blender_dist">29.99998</dist>
          <energy sid="blender_energy">1</energy>
          <falloff_type>2</falloff_type>
          <filtertype>0</filtertype>
          <flag>0</flag>
          <gamma sid="blender_gamma">1</gamma>
          <green>1</green>
          <halo_intensity sid="blnder_halo_intensity">1</halo_intensity>
          <horizon_brightness>1</horizon_brightness>
          <mode>8192</mode>
          <ray_samp>1</ray_samp>
          <ray_samp_method>1</ray_samp_method>
          <ray_samp_type>0</ray_samp_type>
          <ray_sampy>1</ray_sampy>
          <ray_sampz>1</ray_sampz>
          <red>1</red>
          <samp>3</samp>
          <shadhalostep>0</shadhalostep>
          <shadow_b sid="blender_shadow_b">0</shadow_b>
          <shadow_g sid="blender_shadow_g">0</shadow_g>
          <shadow_r sid="blender_shadow_r">0</shadow_r>
          <shadspotsize>45</shadspotsize>
          <sky_colorspace>0</sky_colorspace>
          <sky_exposure>1</sky_exposure>
          <skyblendfac>1</skyblendfac>
          <skyblendtype>1</skyblendtype>
          <soft>3</soft>
          <spotblend>0.15</spotblend>
          <spotsize>75</spotsize>
          <spread>1</spread>
          <sun_brightness>1</sun_brightness>
          <sun_effect_type>0</sun_effect_type>
          <sun_intensity>1</sun_intensity>
          <sun_size>1</sun_size>
          <type>0</type>
        </technique>
      </extra>
    </light>
  </library_lights>
  <library_images/>
  <library_geometries>
    <geometry id="ShapeIndexedFaceSet-mesh" name="ShapeIndexedFaceSet">
      <mesh>
        <source id="ShapeIndexedFaceSet-mesh-positions">
          <float_array id="ShapeIndexedFaceSet-mesh-positions-array" count="555">0 0 0 0.607453 17.39586 -0.380726 0.64777 17.39185 0.34671 0.607253 17.39588 0.281553 0.993462 17.29367 0.8128 0.607453 17.39586 0.411753 0.64777 17.39185 -0.44577 0.56466 17.39853 -0.369574 0.564412 17.39854 0.270513 0.522628 17.39956 -0.380163 0.522445 17.39957 0.281206 0.482946 17.39911 -0.44577 0.482946 17.39911 0.34671 0.565151 17.3985 0.8128 0.522628 17.39956 0.412317 0.1293269 17.33147 -0.8128 0.56466 17.39853 0.422906 0.565151 17.3985 -0.8128 0.607253 17.39588 -0.510927 0.564412 17.39854 -0.521967 0.522445 17.39957 -0.511274 -0.215914 17.13082 -0.380266 -0.1853629 17.15586 0.34671 -0.216054 17.13071 0.281103 0.1293269 17.33147 0.8128 -0.215914 17.13082 0.412214 -0.1853629 17.15586 -0.44577 -0.2474009 17.10306 -0.369573 -0.247584 17.10289 0.270514 -0.278509 17.07348 -0.380613 -0.278651 17.07334 0.281666 -0.306958 17.04436 -0.44577 -0.306958 17.04436 0.34671 -0.247701 17.10278 0.8128 -0.278509 17.07348 0.411867 -0.508547 16.74719 -0.8128 -0.2474009 17.10306 0.422907 -0.247701 17.10278 -0.8128 -0.216054 17.13071 -0.511377 -0.247584 17.10289 -0.521966 -0.278651 17.07334 -0.510813 1.349086 17.03291 -0.8128 1.577881 16.65587 0.8128 1.349086 17.03291 0.8128 1.530145 16.6385 0.8128 1.577881 16.65587 -0.8128 1.530145 16.6385 -0.8128 0.993462 17.29367 -0.8128 1.313677 16.99635 0.8128 0.97747 17.24505 0.8128 0.571993 17.34731 0.8128 -0.20218 17.07544 0.8128 0.158077 17.2878 0.8128 -0.508547 16.74719 0.8128 -0.454713 16.74207 0.8128 -0.613468 16.31879 0.8128 -0.561584 16.33767 0.8128 -0.614329 16.29178 0.717826 -0.614529 16.27663 0.79426 -0.614546 16.26527 0.75253 -0.467643 16.37187 0.8128 -0.597011 16.7273 0.15409 -0.597011 16.7273 -0.15409 -0.613468 16.31879 -0.8128 -0.614329 16.29178 -0.717826 -0.614529 16.27663 -0.79426 -0.614546 16.26527 -0.75253 -0.561584 16.33767 -0.8128 -0.454713 16.74207 -0.8128 -0.20218 17.07544 -0.8128 0.158077 17.2878 -0.8128 0.97747 17.24505 -0.8128 0.571993 17.34731 -0.8128 1.313677 16.99635 -0.8128 -0.467643 16.37187 -0.8128 0.43469 15.14189 0.226305 0.383724 15.14672 0.34671 0.424241 15.14269 0.281553 0.038284 15.24478 0.8128 0.424041 15.14271 0.411753 0.190758 15.18671 0.472377 0.467082 15.14003 0.270513 0.537915 15.1392 0.03060096 0.509049 15.139 0.281206 0.548548 15.13946 0.34671 0.466671 15.14006 0.8128 0.508866 15.139 0.412317 0.548548 15.13946 -0.44577 0.902491 15.20722 -0.8128 0.466834 15.14004 0.422906 0.466671 15.14006 -0.8128 0.383724 15.14672 -0.44577 0.424241 15.14269 -0.510927 0.39319 15.14565 -0.369987 0.424041 15.14271 -0.380726 0.169854 15.19322 -0.542865 0.467082 15.14003 -0.521967 0.509049 15.139 -0.511274 0.522712 15.13901 -0.189519 0.508866 15.139 -0.380163 0.466834 15.14004 -0.369574 1.247408 15.40775 -0.380266 1.216857 15.3827 0.34671 1.247548 15.40786 0.281103 0.902491 15.20722 0.8128 1.247408 15.40775 0.412214 1.216857 15.3827 -0.44577 1.278895 15.43551 -0.369573 1.279079 15.43568 0.270514 1.310002 15.46508 -0.380613 1.310145 15.46523 0.281666 1.338452 15.49421 -0.44577 1.338452 15.49421 0.34671 1.279435 15.43601 0.8128 1.310002 15.46508 0.411867 1.540156 15.79163 -0.8128 1.278895 15.43551 0.422907 1.279435 15.43601 -0.8128 1.247548 15.40786 -0.511377 1.279079 15.43568 -0.521966 1.310145 15.46523 -0.510813 1.645016 16.31755 0.401801 1.643756 16.3412 -0.4318 1.644822 16.32189 -0.404653 1.645016 16.31755 -0.461799 1.643756 16.3412 0.4318 1.646012 16.2782 -0.383971 1.646046 16.26752 0.380514 1.64453 16.21075 -0.367819 1.643556 16.19428 0.365665 1.637704 16.13221 -0.363761 1.635892 16.11811 0.364905 1.628406 16.07037 -0.375027 1.627121 16.06331 0.377662 1.620852 16.03196 -0.396358 1.616858 16.01408 0.4318 1.616858 16.01408 -0.4318 1.620311 16.02946 0.398712 1.620311 16.02946 -0.464888 1.540156 15.79163 0.8128 1.644969 16.21998 -0.8128 1.627121 16.06331 -0.485938 1.635892 16.11811 -0.498695 1.643556 16.19428 -0.497935 1.646046 16.26752 -0.483085 1.644969 16.21998 0.8128 1.644822 16.32189 0.458947 1.646012 16.2782 0.479629 1.64453 16.21075 0.495781 1.637704 16.13221 0.499839 1.628406 16.07037 0.488572 1.620852 16.03196 0.467241 0.038284 15.24478 -0.8128 -0.149191 15.35526 -0.717826 -0.08400696 15.31123 -0.709128 -0.247087 15.43522 -0.717826 -0.03198295 15.28056 -0.685554 -0.02954298 15.27921 0.674142 -0.086645 15.31288 0.705911 -0.317462 15.50552 0.8128 -0.162917 15.36541 0.717826 -0.253383 15.44102 0.717826 -0.335482 15.52565 0.717826 -0.345373 15.53713 0.79426 -0.352685 15.54582 0.75253 -0.265578 15.5244 0.8128 0.07622897 15.28331 0.8128 0.48397 15.19026 0.8128 0.896445 15.25915 0.8128 1.496658 15.81859 0.8128 1.251775 15.47962 0.8128 1.594345 16.22522 0.8128 1.594345 16.22522 -0.8128 1.496658 15.81859 -0.8128 1.251775 15.47962 -0.8128 0.48397 15.19026 -0.8128 0.896445 15.25915 -0.8128 0.07622897 15.28331 -0.8128 -0.317462 15.50552 -0.8128 -0.265578 15.5244 -0.8128 -0.335482 15.52565 -0.717826 -0.345373 15.53713 -0.79426 -0.352685 15.54582 -0.75253 -0.171636 15.55859 -0.8128 -0.171636 15.55859 0.8128</float_array>
          <technique_common>
            <accessor source="#ShapeIndexedFaceSet-mesh-positions-array" count="185" stride="3">
              <param name="X" type="float"/>
              <param name="Y" type="float"/>
              <param name="Z" type="float"/>
            </accessor>
          </technique_common>
        </source>
        <source id="ShapeIndexedFaceSet-mesh-normals">
          <float_array id="ShapeIndexedFaceSet-mesh-normals-array" count="1092">0.09900158 0.9950873 0 0.08552747 0.9963358 0 0.09900158 0.9950873 0 0.09896838 0.9950906 -2.08078e-5 0.08552747 0.9963358 0 0.273212 0.9619538 0 0.1065037 0.9943012 0.004698634 0.2376394 0.9709418 0.02827686 0.273212 0.9619539 0 0.0620805 0.9980711 0 0.06252783 0.9980432 3.55501e-5 0.06208038 0.9980711 0 0.0620805 0.9980711 0 0 0 1 0.5913171 0.8064392 0 0.5913171 0.8064392 0 0 0 1 0 0 1 0.10952 0.9939624 -0.006651878 0.2375813 0.970704 -0.03589993 0.0460937 0.9989371 0 0.05255615 0.998618 -1.05414e-5 0.06208068 0.9980711 0 0.0460937 0.9989371 0 0.02455109 0.9996986 0 0.02466958 0.9996957 3.49241e-5 0.02455109 0.9996986 0 0.01042288 0.9999457 0 0.02448451 0.9997002 -1.96289e-5 0.01042288 0.9999457 0 -0.01154017 0.9999335 0 -0.01148945 0.999934 3.0582e-5 -0.01154017 0.9999335 0 -0.187874 0.9821931 0 -0.1519079 0.9877506 -0.03567618 -0.02276903 0.9997178 -0.006772518 -0.01922011 0.9998042 0.004707276 -0.187874 0.9821931 0 -0.1519446 0.9879895 0.02810055 0.02466648 0.9996958 4.7187e-5 0 0 1 0 0 1 0 0 -1 -0.4872918 0.8732392 0 -0.4872918 0.8732392 0 -0.5182877 0.8544669 -0.03555738 0 0 -1 0 0 -1 0.02446866 0.9997006 -8.20653e-5 0 0 -1 0 0 -1 -0.6338957 0.7734186 0 -0.6452568 0.7639658 0 -0.6338957 0.7734186 0 -0.6339221 0.7733969 -2.06105e-5 -0.6452568 0.7639658 0 -0.6278856 0.7782917 0.004665851 -0.5184122 0.8546721 0.02800691 -0.6614333 0.750004 0 -0.6613577 0.7500707 2.97265e-5 -0.6614333 0.7500041 0 0 0 1 0 0 1 -0.6613568 0.7500714 3.41773e-5 -0.6254221 0.7802585 -0.006628036 -0.6759338 0.7369623 0 -0.6633668 0.7482944 -2.75724e-5 -0.6615093 0.7499369 -2.98758e-5 -0.6759338 0.7369623 0 -0.6891271 0.7246406 0 -0.6796212 0.7335633 8.17156e-6 -0.6891169 0.7246502 4.24178e-6 -0.6891271 0.7246406 0 -0.7049452 0.7092618 0 -0.6893346 0.7244431 -3.34838e-5 -0.689146 0.7246225 -7.88656e-6 -0.7049452 0.7092618 0 -0.7154366 0.6986777 0 -0.7154109 0.698704 2.286e-5 -0.7154366 0.6986777 0 -0.7440466 0.6679853 -0.01379954 -0.7229514 0.6908659 -0.006751716 -0.7378267 0.6749902 0 -0.7206306 0.6933032 0.004716157 -0.7408069 0.6716437 0.009996235 -0.7378267 0.6749902 0 0 0 1 0 0 1 -0.8030396 0.5890813 0.09005993 0 0 -1 -0.8030396 0.5890813 -0.09005993 -0.9639986 0.2360953 -0.122335 0 0 -1 0 0 -1 0 0 -1 0 0 -1 0.8549075 0.5187805 0 0 0 -1 0 0 -1 0 0 -1 0 0 1 0 0 1 0.8549075 0.5187805 0 0 0 1 0.9787815 0.2049065 0 0.9787816 0.2049065 0 0.9873519 0.1519623 0.04520827 0 0 1 0 0 1 0 0 1 0 0 1 0 0 1 0 0 -1 0.9873519 0.1519623 -0.04520827 0 0 -1 0 0 -1 0 0 -1 0 0 -1 0 0 -1 0 0 -1 0 0 1 0 0 1 0 0 1 0 0 1 0 0 1 0 0 1 0 0 1 0 0 1 -0.9639986 0.2360953 0.122335 -0.9997047 0.02420145 0.002180099 -0.7225437 -0.262984 0.6393513 -0.9991895 0.04025244 0 -0.9991896 0.04025244 0 -0.9994923 0.03186053 0 0 0 1 -0.7225481 -0.2629854 0.6393457 0 0 1 0 0 1 0 0 1 -0.9994923 0.03186053 0 -0.9999128 0.01320391 0 -0.9356155 -0.3405358 0.09305375 -0.9999129 0.01320391 0 -0.9999989 0.001495838 0 -0.9999989 0.001495838 0 -0.9396923 -0.3420211 0 -0.9356174 -0.340538 0.09302645 -0.9396923 -0.3420211 0 -0.9997047 0.02420145 -0.002180099 0 0 -1 -0.7225481 -0.2629854 -0.6393457 -0.7225437 -0.262984 -0.6393513 -0.9356155 -0.3405358 -0.09305375 -0.9356174 -0.340538 -0.09302645 0 0 -1 0 0 -1 0 0 -1 0 0 -1 0 0 -1 0 0 -1 0 0 -1 0 0 -1 -0.07635158 -0.9970809 0 -0.07631516 -0.9970837 6.92696e-6 -0.06717187 -0.9977413 5.34858e-4 -0.05753874 -0.9983432 7.68756e-6 -0.05761629 -0.9983388 -6.73389e-6 -0.06338202 -0.9979894 -1.84807e-4 -0.05749189 -0.998346 0 -0.1065242 -0.9942988 0.004740655 -0.202952 -0.9791887 0 -0.1904906 -0.9814879 0.01986676 -0.1126198 -0.9936382 0 -0.09924066 -0.9950635 1.78842e-4 -0.08079588 -0.9967307 0 -0.08079588 -0.9967307 0 -0.2370595 -0.9696879 0.0592283 0 0 1 -0.3533931 -0.935474 0.001286864 -0.3649155 -0.9310407 0 -0.4526528 -0.8916869 0 -0.496372 -0.8676791 0.02734762 -0.5763643 -0.7863938 0.2222364 -0.5507766 -0.8263764 0.1172482 0 0 1 0 0 1 0 0 1 -0.09475064 -0.9955011 0 -0.2116138 -0.9773516 -0.001900434 -0.03578537 -0.9993595 1.68152e-5 -0.02465957 -0.9996959 2.52623e-5 -0.04609918 -0.9989368 0 -0.02457392 -0.9996981 0 -0.02457392 -0.999698 0 -0.04609918 -0.9989369 0 0.01213937 -0.9999263 4.0919e-4 0.009663045 -0.9999533 2.20727e-4 0.02429884 -0.9997048 0 0.01565331 -0.9998775 -1.93069e-4 0 -1 0 6.97998e-5 -1 0 7.33256e-5 -1 0 0 -1 0 0.01913195 -0.9998062 0.004639446 0.1880221 -0.9821649 0 0.1880221 -0.9821648 0 0.1522462 -0.9879457 0.02800816 0 0 1 0 0 1 0.1522097 -0.9877083 -0.03555887 0.02254742 -0.9997237 -0.006653368 0.01238304 -0.9999232 -5.2287e-4 0 0 -1 0.4874222 -0.8731665 0 0.4874222 -0.8731665 0 0.5185452 -0.8543056 -0.03567498 0 0 -1 0 0 -1 -0.2004158 -0.9793246 -0.02751106 -0.1095391 -0.9939599 -0.006707668 -0.2368996 -0.9690339 -0.06965482 -0.05159217 -0.9986682 -8.95877e-6 -0.02445471 -0.9997009 -4.73939e-5 0 0 -1 0 0 -1 -0.1011703 -0.9948681 -0.001447498 -0.09475809 -0.9955003 -2.16007e-5 -0.02445811 -0.9997009 -3.41352e-5 0.6339237 -0.7733957 0 0.642365 -0.7663989 0 0.6339236 -0.7733957 0 0.6339432 -0.7733797 -1.52352e-5 0.642365 -0.7663989 0 0.6278299 -0.7783362 0.00473088 0.5186706 -0.8545123 0.02809965 0.6614199 -0.7500158 0 0.6613313 -0.750094 3.48328e-5 0.6614199 -0.7500158 0 0 0 1 0 0 1 0.6613265 -0.7500982 6.0113e-5 0.6253025 -0.7803534 -0.006731629 0.6761353 -0.7367774 0 0.661502 -0.7499434 -3.22461e-5 0.6761353 -0.7367774 0 0.6807584 -0.732508 1.03093e-5 0.6890491 -0.7247146 0 0.6890491 -0.7247146 0 0.7023453 -0.7118365 0 0.6891515 -0.7246173 0 0.6891515 -0.7246174 0 0.6893587 -0.7244203 -2.791e-5 0.7023453 -0.7118364 0 0.71546 -0.6986538 0 0.7154278 -0.6986867 2.86286e-5 0.7154599 -0.6986538 0 0.8276254 -0.5612809 0 0.8059565 -0.5908854 -0.03589791 0.7228926 -0.6909282 -0.006677806 0.720582 -0.6933541 0.00466305 0.8276254 -0.5612809 0 0.8061538 -0.5910301 0.02827531 0 0 1 0 0 1 0 0 -1 0.9453756 -0.325983 0 0.9596297 -0.2796721 -0.02990752 0.9695227 -0.237236 -0.06119555 0 0 -1 0 0 -1 0.6614962 -0.7499486 -6.31083e-5 0 0 -1 0.999006 0.04457497 0 0.999006 0.04457497 0 0.9996797 0.02530634 0 0.9996119 0.02782851 0.001275837 0.9996798 0.02530634 0 0.9985355 0.05409634 -7.25846e-4 0.9963507 0.08220201 -0.02298319 0.9984801 0.05511361 0 0.9984801 0.05511361 0 0.9997686 0.02142161 -0.001964986 0.9997039 0.02340984 -0.00664103 0.9954818 0.09135258 0.0258975 0.9999949 0.003191351 0 0.9999949 0.003191351 0 0.9997435 -0.02264964 0 0.9997434 -0.02264964 0 0.9999504 -0.009861528 0.001406848 0.9982541 -0.05906563 0 0.9988716 -0.0474928 0 0.9983491 -0.0574367 -2.06811e-4 0.9988716 -0.0474928 0 0.9982541 -0.05906563 0 0.9955857 -0.09385716 0 0.9959784 -0.08957177 0.001999676 0.9980436 -0.06252121 4.38772e-4 0.9955857 -0.09385716 0 0.9918448 -0.127452 0 0.9949757 -0.1000746 -0.002903044 0.9918447 -0.127452 0 0.9879284 -0.1549114 0 0.9888211 -0.149089 0.002301692 0.9879283 -0.1549114 0 0.9838135 -0.1791955 0 0.9873797 -0.1583649 -0.001366376 0.9838135 -0.1791955 0 0.9805836 -0.1961017 0 0.9810974 -0.1935121 9.42187e-4 0.9805836 -0.1961018 0 0.9774219 -0.2112967 0 0.980294 -0.1975437 -5.24873e-4 0.9774219 -0.2112967 0 0.9757313 -0.218971 0 0.9758563 -0.2184136 2.72245e-4 0.9453756 -0.325983 0 0.9603449 -0.277018 0.03160113 0.9757313 -0.218971 0 0.971146 -0.2313599 -0.05786281 0 0 1 0.9695098 -0.2372328 0.06141126 0 0 1 0.986225 -0.1635777 -0.02455121 0.9949738 -0.1000664 -0.003700613 0 0 -1 0.9994734 0.03129023 0.008596897 0.9881579 -0.1521655 0.01973539 0.9740096 -0.2204635 0.05197328 0 0 1 -0.5762739 -0.7862704 -0.2229062 -0.545987 -0.8302842 -0.1119217 -0.4971551 -0.867118 -0.03071337 -0.4538598 -0.8910731 -6.92729e-5 0 0 -1 0 0 -1 0 0 -1 -0.559795 -0.8286311 -7.35551e-5 -0.6291584 -0.7702966 -0.1039363 -0.5671355 -0.8236244 3.97955e-4 -0.6325844 -0.7744912 -5.74995e-4 -0.5077794 -0.8614871 5.68291e-5 -0.5078703 -0.8614335 6.16463e-5 -0.6413179 -0.7672752 2.87935e-4 -0.7065448 -0.7076683 -2.38976e-4 -0.6388301 -0.764299 0.08799475 -0.7451891 -0.6668531 0 -0.7502597 -0.6611396 0.002173483 -0.7093863 -0.7048199 0 -0.7574663 -0.6528744 0 -0.7451891 -0.6668532 0 -0.7651625 -0.6438372 0 -0.7574663 -0.6528744 0 -0.7651625 -0.6438372 0 0 0 1 0 0 1 0 0 1 0 0 1 0 0 1 0 0 -1 0 0 -1 0 0 -1 0 0 -1 0 0 -1 -0.7502597 -0.6611396 -0.002173483</float_array>
          <technique_common>
            <accessor source="#ShapeIndexedFaceSet-mesh-normals-array" count="364" stride="3">
              <param name="X" type="float"/>
              <param name="Y" type="float"/>
              <param name="Z" type="float"/>
            </accessor>
          </technique_common>
        </source>
        <vertices id="ShapeIndexedFaceSet-mesh-vertices">
          <input semantic="POSITION" source="#ShapeIndexedFaceSet-mesh-positions"/>
        </vertices>
        <polylist count="364">
          <input semantic="VERTEX" source="#ShapeIndexedFaceSet-mesh-vertices" offset="0"/>
          <input semantic="NORMAL" source="#ShapeIndexedFaceSet-mesh-normals" offset="1"/>
          <vcount>3 3 3 3 3 3 3 3 3 3 3 3 3 3 3 3 3 3 3 3 3 3 3 3 3 3 3 3 3 3 3 3 3 3 3 3 3 3 3 3 3 3 3 3 3 3 3 3 3 3 3 3 3 3 3 3 3 3 3 3 3 3 3 3 3 3 3 3 3 3 3 3 3 3 3 3 3 3 3 3 3 3 3 3 3 3 3 3 3 3 3 3 3 3 3 3 3 3 3 3 3 3 3 3 3 3 3 3 3 3 3 3 3 3 3 3 3 3 3 3 3 3 3 3 3 3 3 3 3 3 3 3 3 3 3 3 3 3 3 3 3 3 3 3 3 3 3 3 3 3 3 3 3 3 3 3 3 3 3 3 3 3 3 3 3 3 3 3 3 3 3 3 3 3 3 3 3 3 3 3 3 3 3 3 3 3 3 3 3 3 3 3 3 3 3 3 3 3 3 3 3 3 3 3 3 3 3 3 3 3 3 3 3 3 3 3 3 3 3 3 3 3 3 3 3 3 3 3 3 3 3 3 3 3 3 3 3 3 3 3 3 3 3 3 3 3 3 3 3 3 3 3 3 3 3 3 3 3 3 3 3 3 3 3 3 3 3 3 3 3 3 3 3 3 3 3 3 3 3 3 3 3 3 3 3 3 3 3 3 3 3 3 3 3 3 3 3 3 3 3 3 3 3 3 3 3 3 3 3 3 3 3 3 3 3 3 3 3 3 3 3 3 3 3 3 3 3 3 3 3 3 3 3 3 3 3 3 3 3 3 3 3 3 3 3 3 3 3 3 3 3 3 3 3 3 3 3 3 3 3 3 3 3 3 </vcount>
          <p>1 0 2 0 6 0 1 1 3 1 5 1 1 2 5 2 2 2 1 3 6 3 18 3 1 4 18 4 3 4 2 5 4 5 47 5 2 6 5 6 13 6 2 7 13 7 4 7 2 8 47 8 6 8 3 9 7 9 16 9 3 10 13 10 5 10 3 11 16 11 13 11 3 12 18 12 7 12 4 13 13 13 50 13 4 14 41 14 47 14 4 15 43 15 41 15 4 16 49 16 43 16 4 17 50 17 49 17 6 18 17 18 18 18 6 19 47 19 17 19 7 20 8 20 16 20 7 21 17 21 19 21 7 22 18 22 17 22 7 23 19 23 8 23 8 24 9 24 14 24 8 25 14 25 16 25 8 26 19 26 9 26 9 27 10 27 14 27 9 28 19 28 20 28 9 29 20 29 10 29 10 30 11 30 12 30 10 31 12 31 14 31 10 32 20 32 11 32 11 33 15 33 12 33 11 34 17 34 15 34 11 35 20 35 17 35 12 36 13 36 14 36 12 37 15 37 24 37 12 38 24 38 13 38 13 39 16 39 14 39 13 40 24 40 52 40 13 41 52 41 50 41 15 42 17 42 70 42 15 43 22 43 24 43 15 44 26 44 22 44 15 45 37 45 26 45 15 46 69 46 37 46 15 47 70 47 69 47 17 48 20 48 19 48 17 49 47 49 72 49 17 50 72 50 70 50 21 51 22 51 26 51 21 52 23 52 25 52 21 53 25 53 22 53 21 54 26 54 38 54 21 55 38 55 23 55 22 56 25 56 33 56 22 57 33 57 24 57 23 58 27 58 36 58 23 59 36 59 25 59 23 60 38 60 27 60 24 61 33 61 51 61 24 62 51 62 52 62 25 63 36 63 33 63 26 64 37 64 38 64 27 65 28 65 36 65 27 66 37 66 39 66 27 67 38 67 37 67 27 68 39 68 28 68 28 69 29 69 34 69 28 70 33 70 36 70 28 71 34 71 33 71 28 72 39 72 29 72 29 73 30 73 34 73 29 74 37 74 40 74 29 75 39 75 37 75 29 76 40 76 30 76 30 77 31 77 32 77 30 78 32 78 34 78 30 79 40 79 31 79 31 80 37 80 62 80 31 81 40 81 37 81 31 82 62 82 32 82 32 83 33 83 34 83 32 84 61 84 33 84 32 85 62 85 61 85 33 86 53 86 54 86 33 87 54 87 51 87 33 88 61 88 53 88 35 89 37 89 68 89 35 90 62 90 37 90 35 91 63 91 62 91 35 92 67 92 63 92 35 93 68 93 74 93 35 94 74 94 67 94 37 95 69 95 68 95 41 96 43 96 45 96 41 97 45 97 73 97 41 98 71 98 47 98 41 99 73 99 71 99 42 100 43 100 48 100 42 101 44 101 171 101 42 102 45 102 43 102 42 103 48 103 44 103 42 104 122 104 45 104 42 105 125 105 122 105 42 106 145 106 125 106 42 107 171 107 145 107 43 108 49 108 48 108 44 109 48 109 60 109 44 110 60 110 184 110 44 111 184 111 171 111 45 112 46 112 73 112 45 113 122 113 140 113 45 114 140 114 172 114 45 115 172 115 46 115 46 116 74 116 73 116 46 117 172 117 183 117 46 118 183 118 74 118 47 119 71 119 72 119 48 120 49 120 60 120 49 121 50 121 60 121 50 122 52 122 60 122 51 123 54 123 60 123 51 124 60 124 52 124 53 125 55 125 56 125 53 126 56 126 60 126 53 127 60 127 54 127 53 128 61 128 55 128 55 129 57 129 58 129 55 130 58 130 163 130 55 131 61 131 62 131 55 132 62 132 63 132 55 133 63 133 57 133 55 134 159 134 56 134 55 135 163 135 159 135 56 136 159 136 165 136 56 137 165 137 184 137 56 138 184 138 60 138 57 139 63 139 64 139 57 140 64 140 58 140 58 141 59 141 163 141 58 142 64 142 65 142 58 143 65 143 59 143 59 144 65 144 66 144 59 145 66 145 182 145 59 146 164 146 163 146 59 147 182 147 164 147 63 148 65 148 64 148 63 149 67 149 178 149 63 150 178 150 181 150 63 151 181 151 65 151 65 152 181 152 66 152 66 153 181 153 182 153 67 154 74 154 183 154 67 155 179 155 178 155 67 156 183 156 179 156 68 157 69 157 74 157 69 158 70 158 74 158 70 159 72 159 74 159 71 160 73 160 74 160 71 161 74 161 72 161 75 162 77 162 92 162 75 163 79 163 77 163 75 164 85 164 79 164 75 165 89 165 85 165 75 166 90 166 100 166 75 167 92 167 90 167 75 168 100 168 89 168 76 169 79 169 85 169 76 170 80 170 91 170 76 171 85 171 80 171 76 172 91 172 93 172 76 173 93 173 79 173 77 174 79 174 94 174 77 175 94 175 92 175 78 176 80 176 85 176 78 177 85 177 166 177 78 178 95 178 80 178 78 179 152 179 95 179 78 180 157 180 152 180 78 181 158 181 157 181 78 182 159 182 160 182 78 183 160 183 158 183 78 184 165 184 159 184 78 185 166 185 184 185 78 186 184 186 165 186 79 187 93 187 94 187 80 188 95 188 91 188 81 189 85 189 89 189 81 190 86 190 85 190 81 191 89 191 100 191 81 192 96 192 99 192 81 193 99 193 86 193 81 194 100 194 96 194 82 195 84 195 86 195 82 196 86 196 98 196 82 197 87 197 84 197 82 198 98 198 87 198 83 199 86 199 99 199 83 200 97 200 98 200 83 201 98 201 86 201 83 202 99 202 97 202 84 203 85 203 86 203 84 204 87 204 88 204 84 205 88 205 104 205 84 206 104 206 85 206 85 207 104 207 167 207 85 208 167 208 166 208 87 209 90 209 88 209 87 210 97 210 90 210 87 211 98 211 97 211 88 212 90 212 175 212 88 213 102 213 104 213 88 214 106 214 102 214 88 215 117 215 106 215 88 216 175 216 176 216 88 217 176 217 117 217 90 218 91 218 95 218 90 219 92 219 91 219 90 220 95 220 152 220 90 221 96 221 100 221 90 222 97 222 96 222 90 223 152 223 177 223 90 224 177 224 175 224 91 225 92 225 93 225 92 226 94 226 93 226 96 227 97 227 99 227 101 228 102 228 106 228 101 229 103 229 105 229 101 230 105 230 102 230 101 231 106 231 118 231 101 232 118 232 103 232 102 233 105 233 113 233 102 234 113 234 104 234 103 235 107 235 116 235 103 236 116 236 105 236 103 237 118 237 107 237 104 238 113 238 168 238 104 239 168 239 167 239 105 240 116 240 113 240 106 241 117 241 118 241 107 242 108 242 116 242 107 243 118 243 119 243 107 244 119 244 108 244 108 245 113 245 116 245 108 246 117 246 113 246 108 247 119 247 117 247 109 248 110 248 114 248 109 249 113 249 117 249 109 250 114 250 113 250 109 251 117 251 120 251 109 252 120 252 110 252 110 253 111 253 112 253 110 254 112 254 114 254 110 255 120 255 111 255 111 256 115 256 112 256 111 257 117 257 115 257 111 258 120 258 117 258 112 259 113 259 114 259 112 260 115 260 139 260 112 261 139 261 113 261 113 262 139 262 170 262 113 263 170 263 168 263 115 264 117 264 174 264 115 265 136 265 139 265 115 266 138 266 136 266 115 267 140 267 138 267 115 268 173 268 140 268 115 269 174 269 173 269 117 270 119 270 118 270 117 271 176 271 174 271 121 272 123 272 146 272 121 273 124 273 123 273 121 274 126 274 124 274 121 275 146 275 147 275 121 276 147 276 126 276 122 277 123 277 124 277 122 278 124 278 140 278 122 279 125 279 123 279 123 280 125 280 146 280 124 281 126 281 144 281 124 282 144 282 140 282 125 283 145 283 146 283 126 284 127 284 144 284 126 285 147 285 127 285 127 286 140 286 144 286 127 287 145 287 140 287 127 288 147 288 145 288 128 289 129 289 143 289 128 290 140 290 145 290 128 291 143 291 140 291 128 292 145 292 148 292 128 293 148 293 129 293 129 294 130 294 143 294 129 295 145 295 149 295 129 296 148 296 145 296 129 297 149 297 130 297 130 298 131 298 142 298 130 299 142 299 143 299 130 300 149 300 131 300 131 301 132 301 142 301 131 302 149 302 150 302 131 303 150 303 132 303 132 304 133 304 141 304 132 305 141 305 142 305 132 306 150 306 133 306 133 307 134 307 141 307 133 308 150 308 151 308 133 309 151 309 134 309 134 310 137 310 138 310 134 311 138 311 141 311 134 312 151 312 137 312 135 313 136 313 137 313 135 314 137 314 151 314 135 315 139 315 136 315 135 316 151 316 139 316 136 317 138 317 137 317 138 318 140 318 141 318 139 319 145 319 169 319 139 320 151 320 145 320 139 321 169 321 170 321 140 322 142 322 141 322 140 323 143 323 142 323 140 324 173 324 172 324 145 325 147 325 146 325 145 326 150 326 149 326 145 327 151 327 150 327 145 328 171 328 169 328 152 329 153 329 178 329 152 330 154 330 153 330 152 331 156 331 154 331 152 332 157 332 156 332 152 333 178 333 179 333 152 334 179 334 183 334 152 335 183 335 177 335 153 336 154 336 158 336 153 337 155 337 178 337 153 338 158 338 160 338 153 339 160 339 155 339 154 340 156 340 157 340 154 341 157 341 158 341 155 342 160 342 161 342 155 343 161 343 178 343 159 344 161 344 160 344 159 345 162 345 178 345 159 346 163 346 162 346 159 347 178 347 161 347 162 348 163 348 180 348 162 349 180 349 178 349 163 350 164 350 181 350 163 351 181 351 180 351 164 352 182 352 181 352 166 353 167 353 184 353 167 354 168 354 184 354 168 355 170 355 184 355 169 356 171 356 184 356 169 357 184 357 170 357 172 358 173 358 183 358 173 359 174 359 183 359 174 360 176 360 183 360 175 361 177 361 183 361 175 362 183 362 176 362 178 363 180 363 181 363</p>
        </polylist>
      </mesh>
      <extra><technique profile="MAYA"><double_sided>1</double_sided></technique></extra>
    </geometry>
  </library_geometries>
  <library_controllers/>
  <library_visual_scenes>
    <visual_scene id="Scene" name="Scene">
      <node id="Camera" name="Camera" type="NODE">
        <matrix sid="transform">0.6858805 -0.3173701 0.6548619 7.481132 0.7276338 0.3124686 -0.6106656 -6.50764 -0.01081678 0.8953432 0.4452454 5.343665 0 0 0 1</matrix>
        <instance_camera url="#Camera-camera"/>
      </node>
      <node id="Lamp" name="Lamp" type="NODE">
        <matrix sid="transform">-0.2908646 -0.7711008 0.5663932 4.076245 0.9551712 -0.1998834 0.2183912 1.005454 -0.05518906 0.6045247 0.7946723 5.903862 0 0 0 1</matrix>
        <instance_light url="#Lamp-light"/>
      </node>
      <node id="ShapeIndexedFaceSet" name="ShapeIndexedFaceSet" type="NODE">
        <matrix sid="transform">-1 6.60024e-15 -8.74228e-8 0 -8.74228e-8 -7.54979e-8 1 0 0 1 7.54979e-8 0 0 0 0 1</matrix>
        <instance_geometry url="#ShapeIndexedFaceSet-mesh"/>
      </node>
    </visual_scene>
  </library_visual_scenes>
  <scene>
    <instance_visual_scene url="#Scene"/>
  </scene>
</COLLADA>