<?xml version="1.0" encoding="utf-8"?>
<COLLADA xmlns="http://www.collada.org/2005/11/COLLADASchema" version="1.4.1">
  <asset>
    <contributor>
      <author>Blender User</author>
      <authoring_tool>Blender 2.68.4 r59916</authoring_tool>
    </contributor>
    <created>2013-09-09T09:40:56</created>
    <modified>2013-09-09T09:40:56</modified>
    <unit name="meter" meter="1"/>
    <up_axis>Z_UP</up_axis>
  </asset>
  <library_cameras>
    <camera id="Camera-camera" name="Camera">
      <optics>
        <technique_common>
          <perspective>
            <xfov sid="xfov">49.13434</xfov>
            <aspect_ratio>1.777778</aspect_ratio>
            <znear sid="znear">0.1</znear>
            <zfar sid="zfar">100</zfar>
          </perspective>
        </technique_common>
      </optics>
      <extra>
        <technique profile="blender">
          <YF_dofdist>0</YF_dofdist>
          <shiftx>0</shiftx>
          <shifty>0</shifty>
        </technique>
      </extra>
    </camera>
  </library_cameras>
  <library_lights>
    <light id="Lamp-light" name="Lamp">
      <technique_common>
        <point>
          <color sid="color">1 1 1</color>
          <constant_attenuation>1</constant_attenuation>
          <linear_attenuation>0</linear_attenuation>
          <quadratic_attenuation>0.00111109</quadratic_attenuation>
        </point>
      </technique_common>
      <extra>
        <technique profile="blender">
          <adapt_thresh>0.000999987</adapt_thresh>
          <area_shape>1</area_shape>
          <area_size>0.1</area_size>
          <area_sizey>0.1</area_sizey>
          <area_sizez>1</area_sizez>
          <atm_distance_factor>1</atm_distance_factor>
          <atm_extinction_factor>1</atm_extinction_factor>
          <atm_turbidity>2</atm_turbidity>
          <att1>0</att1>
          <att2>1</att2>
          <backscattered_light>1</backscattered_light>
          <bias>1</bias>
          <blue>1</blue>
          <buffers>1</buffers>
          <bufflag>0</bufflag>
          <bufsize>2880</bufsize>
          <buftype>2</buftype>
          <clipend>30.002</clipend>
          <clipsta>1.000799</clipsta>
          <compressthresh>0.04999995</compressthresh>
          <dist sid="blender_dist">29.99998</dist>
          <energy sid="blender_energy">1</energy>
          <falloff_type>2</falloff_type>
          <filtertype>0</filtertype>
          <flag>0</flag>
          <gamma sid="blender_gamma">1</gamma>
          <green>1</green>
          <halo_intensity sid="blnder_halo_intensity">1</halo_intensity>
          <horizon_brightness>1</horizon_brightness>
          <mode>8192</mode>
          <ray_samp>1</ray_samp>
          <ray_samp_method>1</ray_samp_method>
          <ray_samp_type>0</ray_samp_type>
          <ray_sampy>1</ray_sampy>
          <ray_sampz>1</ray_sampz>
          <red>1</red>
          <samp>3</samp>
          <shadhalostep>0</shadhalostep>
          <shadow_b sid="blender_shadow_b">0</shadow_b>
          <shadow_g sid="blender_shadow_g">0</shadow_g>
          <shadow_r sid="blender_shadow_r">0</shadow_r>
          <shadspotsize>45</shadspotsize>
          <sky_colorspace>0</sky_colorspace>
          <sky_exposure>1</sky_exposure>
          <skyblendfac>1</skyblendfac>
          <skyblendtype>1</skyblendtype>
          <soft>3</soft>
          <spotblend>0.15</spotblend>
          <spotsize>75</spotsize>
          <spread>1</spread>
          <sun_brightness>1</sun_brightness>
          <sun_effect_type>0</sun_effect_type>
          <sun_intensity>1</sun_intensity>
          <sun_size>1</sun_size>
          <type>0</type>
        </technique>
      </extra>
    </light>
  </library_lights>
  <library_images/>
  <library_geometries>
    <geometry id="ShapeIndexedFaceSet-mesh" name="ShapeIndexedFaceSet">
      <mesh>
        <source id="ShapeIndexedFaceSet-mesh-positions">
          <float_array id="ShapeIndexedFaceSet-mesh-positions-array" count="372">0 0 0 0.378498 14.60812 1.224997 2e-6 14.44129 0.885377 0.292152 14.40473 0.880788 0 14.70826 1.356674 -0.461139 14.63166 1.18673 -0.169939 14.42863 0.869325 0.368018 14.38273 0.878328 0.726084 14.47068 1.246735 0.691233 14.21949 0.875287 0.421555 14.34953 0.868178 0.378498 14.73449 1.63063 0 14.79585 1.891198 0.378498 14.74207 2.055422 0.718661 14.61394 1.696427 0.724641 14.60974 1.690052 0 14.69328 2.423052 0.378498 14.63027 2.465308 0.726084 14.57124 2.234166 0.699766 14.63046 1.755241 0.722982 14.62137 1.814082 0.725499 14.62006 1.816745 0 14.4132 2.886669 0.378616 14.40802 2.827458 0.730864 14.39025 2.624391 0.63921 14.39669 2.697979 -0.466371 14.41262 2.880097 -0.461139 14.77889 2.06619 -0.461139 14.6564 2.499939 -0.461139 14.7704 1.615557 0.733527 14.18797 0.877244 1.009315 14.13875 1.159145 0.961745 13.95283 0.910814 0.78871 14.12356 0.873152 1.009315 14.31555 1.469134 0.768151 14.58119 1.672702 0.774042 14.59162 1.837783 1.008112 14.34848 2.173736 1.009315 14.38737 1.818693 0.990209 14.35504 2.221944 0.844022 14.37932 2.499523 1.017045 13.87046 0.927545 1.200276 13.76361 1.22064 1.200276 13.63183 1.135928 1.092246 13.72649 0.958258 1.047748 13.784 0.932905 1.200276 13.96824 1.456792 1.200276 13.87719 1.328936 0.839345 14.54202 1.755241 1.178457 14.11308 1.707668 0.817545 14.55153 1.697419 1.032102 14.33385 2.114713 0.821702 14.55873 1.81306 1.07946 14.28891 2.012219 1.153684 13.54944 0.993846 1.195987 13.43369 1.053531 1.183563 13.39096 1.016731 1.200276 13.48631 1.077598 1.167595 13.38015 1.00332 -0.366084 14.38169 0.818929 -0.463428 14.37661 0.818886 -0.42451 14.34189 0.802742 -0.392629 14.36439 0.807241 -0.360113 14.36996 0.812366 -0.489334 14.41246 2.878257 -0.915549 14.64311 2.299932 -0.861979 14.40465 2.789016 -0.919823 14.40209 2.759694 -0.794002 14.74501 1.813771 -0.85355 14.72908 1.837781 -0.915549 14.56091 1.231609 -0.767625 14.748 1.755241 -0.788869 14.73737 1.69734 -0.845781 14.71863 1.672692 -0.643425 14.35377 0.818795 -0.680807 14.30796 0.802742 -1.163377 14.3842 2.555292 -0.909033 14.70955 1.812838 -0.920286 14.70461 1.796753 -1.305422 14.45655 1.879693 -1.311649 14.36341 2.317617 -0.929583 14.69832 1.755241 -0.904169 14.70221 1.697096 -0.920987 14.69853 1.720757 -1.305422 14.38221 1.45304 -0.915076 14.26036 0.819237 -1.305422 14.16162 1.080343 -0.919922 14.2577 0.819234 -0.938625 14.20328 0.802742 -1.350627 14.35504 2.221944 -1.561433 14.11326 1.707972 -1.393731 14.33389 2.114833 -1.444346 14.28891 2.012219 -1.591122 13.96824 1.456792 -1.211115 13.99907 0.821034 -1.320407 13.81452 0.822087 -1.591122 13.76361 1.220643 -1.199203 13.9482 0.802742 -1.364553 13.70755 0.822366 -1.330735 13.68294 0.802742 -1.591122 13.48631 1.077598 -1.421258 13.49581 0.822529 -1.575406 13.40486 1.031074 -1.439982 13.34494 0.822528 -1.533471 13.35415 0.956003 -1.456142 13.34309 0.843612 -1.472 13.34122 0.864948 -1.472192 13.35393 0.955421 -1.422005 13.34621 0.80796 -1.408641 13.34122 0.864948 -1.381835 13.48769 0.802742 -1.399532 13.34667 0.802742 -1.164666 13.34667 0.802742 -1.047384 13.77114 0.802742 -1.146703 13.34602 0.810184 -1.19056 13.34122 0.864948 -0.794273 14.11024 0.802742 -1.139363 13.34444 0.828142 -1.142508 13.34122 0.864948 -1.140318 13.34173 0.859113 -1.19056 13.34122 0.878942 -1.16434 13.34122 0.878942 -1.151589 13.34122 0.87518 -1.139533 13.34229 0.852801</float_array>
          <technique_common>
            <accessor source="#ShapeIndexedFaceSet-mesh-positions-array" count="124" stride="3">
              <param name="X" type="float"/>
              <param name="Y" type="float"/>
              <param name="Z" type="float"/>
            </accessor>
          </technique_common>
        </source>
        <source id="ShapeIndexedFaceSet-mesh-normals">
          <float_array id="ShapeIndexedFaceSet-mesh-normals-array" count="726">0.05862021 0.8686102 -0.4920164 0.0976215 0.8459023 -0.5243274 0.1474748 0.9443066 -0.2941704 0.2189357 0.8150047 -0.5365022 0.3421186 0.7830316 -0.5194385 0.3674941 0.8879384 -0.2766106 0.3682562 0.8874462 -0.2771762 0.05765879 0.5641349 -0.823667 0.03707617 0.8695081 -0.4925251 -0.01086741 0.837804 -0.5458629 0.01494413 0.7020133 -0.7120071 0.09492033 0.4278492 -0.8988521 0.07583039 0.3876299 -0.9186909 0.07387292 0.4063415 -0.9107301 0.06264483 0.5113752 -0.8570712 -0.04455333 0.9504951 -0.307529 0.04859948 0.9856712 -0.1615248 0.04216605 0.9859597 -0.1615721 -0.04773855 0.820994 -0.5689376 -0.103464 0.8176828 -0.566295 -0.1759107 0.9354272 -0.3066453 -0.1701822 0.9375609 -0.3033442 -0.1755011 0.9356002 -0.3063521 -0.1813012 0.8258712 -0.5339164 -0.04187291 0.8071789 -0.5888199 0.3679601 0.7579853 -0.5385757 0.3763087 0.7507192 -0.5429663 0.4525762 0.8512675 -0.2655531 0.5294747 0.6788529 -0.5087389 0.6022158 0.6398436 -0.4774267 0.6541242 0.657037 -0.3747318 0.5888065 0.766337 -0.2569718 0.6121692 0.7473465 -0.2583061 0.2416495 0.2663077 -0.9331054 0.07550144 0.09879982 -0.992239 0.07611358 0.1036324 -0.9916991 0.1481487 0.9888074 -0.01765936 0.3139452 0.9492897 -0.01695358 0.3658786 0.8969098 -0.248366 0.3553144 0.9233965 -0.1452254 0.05725276 0.9802975 0.1890479 0.03572916 0.9812811 0.1892376 -0.04387193 0.9988598 -0.01882416 0.1301133 0.9565541 0.2609112 0.3209301 0.9137226 0.2492285 0.3940731 0.9129196 0.1062268 0.3381091 0.9410307 0.01197844 0.3848415 0.9185936 0.08990466 0.5182765 0.8521051 -0.07284569 0.5205265 0.8507328 -0.0728417 0.5212788 0.8502766 -0.07278883 0.5267026 0.8469476 -0.0725544 0.08445799 0.8528691 0.5152487 -0.031641 0.9618788 0.2716392 0.01775598 0.8557924 0.5170147 0.09304916 0.8486099 0.5207716 0.2846245 0.8170838 0.5013612 0.3960528 0.8348383 0.3823445 0.3830823 0.8304564 0.4044626 0.4792463 0.7984386 0.3644433 0.469641 0.8769554 0.1019143 0.6310696 0.7663056 0.1205276 0.6315875 0.7642207 0.1306297 0.618654 0.7410511 0.26098 0.6035732 0.7891727 0.1136049 0.5273326 0.84658 -0.07226866 -0.005747795 -0.8748099 0.4844323 -0.008643329 0.8418121 0.5397015 0.06836599 -0.8562363 0.5120406 1.60153e-5 -0.8767617 0.480925 0.2408826 -0.7965599 0.5544978 0.1254044 -0.8401547 0.5276493 0.4007374 -0.7232613 0.562408 0.5435282 -0.6356746 0.5481742 -0.04902923 0.8410835 0.5386786 -0.03368729 -0.8676692 0.4959993 -0.08139294 0.9965052 -0.01877975 -0.1461725 0.9520242 0.2688562 -0.2035487 0.9692442 0.1383241 -0.2107049 0.9657577 0.1513788 -0.1041318 0.9945561 0.003826379 -0.2220208 0.8666183 0.4468549 -0.1441292 0.8365166 0.5286462 -0.1319246 0.9824439 -0.1319081 0.6327475 0.5750408 -0.5186123 0.6509304 0.5426031 -0.5309156 0.8399498 0.4713861 -0.2688484 0.7751331 0.4254963 -0.4670348 0.8434849 0.364721 -0.3943498 0.8525859 0.4256815 -0.3031376 0.8463015 0.3675979 -0.3855458 0.4059603 0.08776712 -0.9096665 0.1751438 -0.03950071 -0.9837501 0.08056437 -0.112811 -0.990345 0.07438391 0.09314525 -0.99287 0.05108141 -0.03798973 -0.9979717 0.8243694 0.5544696 -0.1139241 0.6949237 0.7043694 -0.1447232 0.855311 0.4774302 -0.2012547 0.6940741 0.7049998 -0.145727 0.539803 0.8386881 -0.07221537 0.5411332 0.8378855 -0.07157391 0.9104471 0.2855047 0.2992877 0.6663273 0.7405334 0.08728241 0.6744979 0.7382392 -0.007456123 0.7528879 0.6553605 0.06051826 0.6708074 0.7371268 0.08161807 0.8444467 0.5345512 -0.0341286 0.818354 -0.3431708 0.4610104 0.8316786 -0.3189672 0.4545004 0.9135934 0.27068 0.3034458 0.768936 -0.4330226 0.4703497 0.550576 -0.630927 0.5466234 0.8451187 0.3564646 -0.3983811 0.6589011 0.1888428 -0.7281399 0.8804835 0.2563621 -0.3987822 1 0 0 1 0 0 0.881145 0.2218267 -0.4175841 0.9083995 0.155553 -0.3880897 0.4899447 -0.00520879 -0.871738 0.4830638 -0.009303212 -0.8755357 0.08684784 -0.1460533 -0.9854572 0.9800529 -0.1228905 0.1561867 1 0 0 0.5520921 0.8307099 -0.07152146 0.9635992 -0.1721128 0.2045818 0.8974934 0.1074417 -0.4277403 0.6393253 0.009506523 -0.7688777 0.9025661 0.1160646 -0.4146124 9.00002e-4 -0.8971723 0.44168 0.006335258 -0.9820331 0.1886022 0.02728611 -0.9879527 -0.152332 0.02272152 -0.9950857 -0.09637528 0.02153164 -0.9966369 -0.07906526 0.02187746 -0.9961642 -0.08472585 0.01412105 -0.9987542 0.04786205 0.01599812 -0.9997712 0.01419842 0.02201867 -0.9959703 -0.08693873 -0.03049921 0.5911234 -0.8060044 0.04884505 0.5064762 -0.8608694 -0.06065773 0.4815421 -0.8743213 -0.03162878 0.2389088 -0.9705268 0 0 -1 0 0 -1 0 0 -1 -0.05842661 0.3722391 -0.9262961 -0.107832 -0.8447457 0.5241917 -0.0962705 -0.8489239 0.5196732 -0.2639576 0.8552697 0.445915 -0.3772596 0.9182737 0.1202023 -0.411924 0.8086113 0.4200792 -0.5217907 0.8461543 0.108432 -0.5641095 0.8092322 0.1640846 -0.5469563 0.7917607 0.2719447 -0.2447336 -0.7967902 0.5524771 -0.4247923 -0.7050563 0.5678443 -0.2750058 0.9585114 -0.07501876 -0.2824388 0.956333 -0.07520353 -0.2854666 0.955532 -0.07394242 -0.2986227 0.9514743 -0.07430458 -0.301775 0.9505803 -0.07299959 -0.2685586 0.7782975 -0.5675644 -0.3613907 0.8946362 -0.262722 -0.5130952 0.8247343 -0.2377952 -0.4047182 0.7387686 -0.5389102 -0.5644204 0.7103909 -0.4204455 -0.5144839 0.693445 -0.5044207 -0.1507521 0.4341934 -0.8881159 -0.1319837 0.3250765 -0.9364324 0 0 -1 -0.7317609 -0.466087 0.4972816 -0.5223193 0.8462016 0.105477 -0.3104165 0.9477792 -0.07318502 -0.3116693 0.9473842 -0.07297509 -0.5423806 0.8401123 -0.005891203 -0.315232 0.9462144 -0.07284861 -0.5675305 0.8119497 -0.1365535 -0.5685196 0.8104588 -0.1412158 -0.7697549 0.6288647 -0.1095746 -0.5722261 0.8037729 0.1628081 -0.7882848 0.6132203 -0.05067437 -0.6732448 0.7284116 0.1271142 -0.7395321 0.669324 0.07139784 -0.9190713 0.1591851 0.3605108 -0.7431986 -0.4545067 0.4909985 -0.8966259 -0.1335555 0.422167 -0.5136541 0.8246737 -0.2367968 -0.7817489 0.5366466 -0.3176147 -0.8030745 0.5522138 -0.2239001 -0.1877058 0.3433883 -0.9202451 -0.5435383 0.6079273 -0.5787836 -0.7289131 0.4286419 -0.5338087 -0.7833889 0.3924288 -0.4819766 -0.8086204 0.4446254 -0.3852808 -0.3411026 0.3780485 -0.8606558 -0.2650174 0.2707223 -0.9254595 0 0 -1 0 0 -1 -0.8945164 0.3372958 0.2933802 -0.9640589 -0.1642906 0.2088038 -0.7992246 -0.406908 0.4423413 -1 0 0 -0.3936371 0.2280443 -0.8905311 -0.3278127 0.162553 -0.9306532 -0.800195 0.3289051 -0.5015071 -0.403121 0.1640061 -0.9003307 -0.8229961 0.2604166 -0.5048373 0 0 -1 -0.4342691 0.1156134 -0.893333 -0.816013 0.2181235 -0.535299 -0.4272708 0.1118211 -0.8971821 0 0 -1 0 0 -1 -0.8253141 0.1514813 -0.5439763 -0.7939711 0.09853959 -0.5999165 -0.8239349 0.1338292 -0.5506551 -0.8026493 0.1022185 -0.5876269 -0.8160985 0.1123228 -0.5668922 -0.6310038 0.07831573 -0.7718166 -0.4319807 0.08955448 -0.8974255 -2.77748e-4 -0.996173 -0.08740204 -0.0067662 -0.990675 0.136078 -0.002144575 -0.9877312 0.1561495 -2.22158e-4 -0.9961777 -0.08734923 -8.56732e-7 -0.9961946 -0.08715653 0 -1 0 0 -0.9961988 -0.08710825 0 -0.9864869 0.1638404 -0.226629 0.02844029 -0.9735658 0 -0.9961739 -0.08739262 4.11807e-6 -0.9961916 -0.0871911 3.24645e-6 -0.9961927 -0.087179 0 -1 0 0 -0.9961988 -0.08710825 0 0 -1 -3.16296e-6 -0.9961922 -0.08718389 0 -1 0 0 -0.9961988 -0.08710825 0 -1 0 0.002887666 -0.9961963 -0.08709037 0 -1 0</float_array>
          <technique_common>
            <accessor source="#ShapeIndexedFaceSet-mesh-normals-array" count="242" stride="3">
              <param name="X" type="float"/>
              <param name="Y" type="float"/>
              <param name="Z" type="float"/>
            </accessor>
          </technique_common>
        </source>
        <vertices id="ShapeIndexedFaceSet-mesh-vertices">
          <input semantic="POSITION" source="#ShapeIndexedFaceSet-mesh-positions"/>
        </vertices>
        <polylist count="242">
          <input semantic="VERTEX" source="#ShapeIndexedFaceSet-mesh-vertices" offset="0"/>
          <input semantic="NORMAL" source="#ShapeIndexedFaceSet-mesh-normals" offset="1"/>
          <vcount>3 3 3 3 3 3 3 3 3 3 3 3 3 3 3 3 3 3 3 3 3 3 3 3 3 3 3 3 3 3 3 3 3 3 3 3 3 3 3 3 3 3 3 3 3 3 3 3 3 3 3 3 3 3 3 3 3 3 3 3 3 3 3 3 3 3 3 3 3 3 3 3 3 3 3 3 3 3 3 3 3 3 3 3 3 3 3 3 3 3 3 3 3 3 3 3 3 3 3 3 3 3 3 3 3 3 3 3 3 3 3 3 3 3 3 3 3 3 3 3 3 3 3 3 3 3 3 3 3 3 3 3 3 3 3 3 3 3 3 3 3 3 3 3 3 3 3 3 3 3 3 3 3 3 3 3 3 3 3 3 3 3 3 3 3 3 3 3 3 3 3 3 3 3 3 3 3 3 3 3 3 3 3 3 3 3 3 3 3 3 3 3 3 3 3 3 3 3 3 3 3 3 3 3 3 3 3 3 3 3 3 3 3 3 3 3 3 3 3 3 3 3 3 3 3 3 3 3 3 3 3 3 3 3 3 3 3 3 3 3 3 3 </vcount>
          <p>1 0 2 0 4 0 1 1 3 1 2 1 1 2 4 2 11 2 1 3 7 3 3 3 1 4 8 4 7 4 1 5 11 5 15 5 1 6 15 6 8 6 2 7 3 7 59 7 2 8 5 8 4 8 2 9 6 9 5 9 2 10 59 10 6 10 3 11 7 11 10 11 3 12 10 12 62 12 3 13 62 13 63 13 3 14 63 14 59 14 4 15 5 15 29 15 4 16 12 16 11 16 4 17 29 17 12 17 5 18 6 18 60 18 5 19 60 19 74 19 5 20 70 20 73 20 5 21 72 21 29 21 5 22 73 22 72 22 5 23 74 23 70 23 6 24 59 24 60 24 7 25 8 25 10 25 8 26 9 26 10 26 8 27 15 27 35 27 8 28 30 28 9 28 8 29 31 29 30 29 8 30 34 30 31 30 8 31 35 31 50 31 8 32 50 32 34 32 9 33 30 33 33 33 9 34 33 34 62 34 9 35 62 35 10 35 11 36 12 36 13 36 11 37 13 37 19 37 11 38 14 38 15 38 11 39 19 39 14 39 12 40 16 40 13 40 12 41 27 41 16 41 12 42 29 42 27 42 13 43 16 43 17 43 13 44 17 44 18 44 13 45 18 45 21 45 13 46 20 46 19 46 13 47 21 47 20 47 14 48 19 48 20 48 14 49 20 49 15 49 15 50 20 50 21 50 15 51 21 51 35 51 16 52 22 52 17 52 16 53 27 53 28 53 16 54 28 54 22 54 17 55 22 55 23 55 17 56 23 56 25 56 17 57 24 57 18 57 17 58 25 58 24 58 18 59 24 59 40 59 18 60 36 60 21 60 18 61 37 61 52 61 18 62 39 62 37 62 18 63 40 63 39 63 18 64 52 64 36 64 21 65 36 65 35 65 22 66 26 66 104 66 22 67 28 67 26 67 22 68 58 68 23 68 22 69 104 69 58 69 23 70 56 70 25 70 23 71 58 71 56 71 24 72 25 72 56 72 24 73 56 73 40 73 26 74 28 74 64 74 26 75 64 75 104 75 27 76 29 76 71 76 27 77 65 77 28 77 27 78 68 78 69 78 27 79 69 79 65 79 27 80 71 80 68 80 28 81 65 81 66 81 28 82 66 82 64 82 29 83 72 83 71 83 30 84 31 84 33 84 31 85 32 85 33 85 31 86 34 86 46 86 31 87 41 87 32 87 31 88 42 88 41 88 31 89 46 89 47 89 31 90 47 90 42 90 32 91 41 91 45 91 32 92 45 92 33 92 33 93 45 93 112 93 33 94 61 94 62 94 33 95 112 95 61 95 34 96 38 96 49 96 34 97 48 97 38 97 34 98 49 98 46 98 34 99 50 99 48 99 35 100 36 100 50 100 36 101 52 101 50 101 37 102 39 102 51 102 37 103 51 103 52 103 38 104 48 104 52 104 38 105 51 105 53 105 38 106 52 106 51 106 38 107 53 107 49 107 39 108 40 108 49 108 39 109 49 109 53 109 39 110 53 110 51 110 40 111 55 111 49 111 40 112 56 112 55 112 41 113 42 113 44 113 41 114 44 114 45 114 42 115 43 115 44 115 42 116 47 116 43 116 43 117 47 117 57 117 43 118 54 118 44 118 43 119 57 119 54 119 44 120 54 120 45 120 45 121 54 121 58 121 45 122 58 122 112 122 46 123 49 123 57 123 46 124 57 124 47 124 48 125 50 125 52 125 49 126 55 126 57 126 54 127 55 127 56 127 54 128 56 128 58 128 54 129 57 129 55 129 58 130 104 130 107 130 58 131 107 131 121 131 58 132 114 132 112 132 58 133 117 133 114 133 58 134 118 134 119 134 58 135 119 135 123 135 58 136 121 136 122 136 58 137 122 137 118 137 58 138 123 138 117 138 59 139 62 139 60 139 59 140 63 140 62 140 60 141 62 141 74 141 61 142 75 142 62 142 61 143 112 143 113 143 61 144 113 144 116 144 61 145 116 145 75 145 62 146 75 146 74 146 64 147 66 147 102 147 64 148 102 148 104 148 65 149 67 149 66 149 65 150 69 150 77 150 65 151 76 151 67 151 65 152 77 152 79 152 65 153 79 153 80 153 65 154 80 154 76 154 66 155 67 155 102 155 67 156 76 156 102 156 68 157 71 157 72 157 68 158 72 158 73 158 68 159 73 159 69 159 69 160 73 160 82 160 69 161 82 161 77 161 70 162 74 162 85 162 70 163 82 163 73 163 70 164 84 164 82 164 70 165 85 165 87 165 70 166 86 166 84 166 70 167 87 167 86 167 74 168 75 168 85 168 75 169 88 169 85 169 75 170 116 170 88 170 76 171 80 171 102 171 77 172 78 172 79 172 77 173 82 173 83 173 77 174 83 174 78 174 78 175 81 175 79 175 78 176 83 176 81 176 79 177 81 177 83 177 79 178 83 178 84 178 79 179 84 179 90 179 79 180 89 180 80 180 79 181 90 181 92 181 79 182 91 182 89 182 79 183 92 183 91 183 80 184 89 184 92 184 80 185 90 185 102 185 80 186 92 186 90 186 82 187 84 187 83 187 84 188 86 188 93 188 84 189 93 189 90 189 85 190 88 190 87 190 86 191 87 191 94 191 86 192 94 192 95 192 86 193 95 193 96 193 86 194 96 194 93 194 87 195 88 195 94 195 88 196 97 196 94 196 88 197 113 197 97 197 88 198 116 198 113 198 89 199 91 199 92 199 90 200 93 200 100 200 90 201 100 201 102 201 93 202 96 202 100 202 94 203 97 203 95 203 95 204 97 204 99 204 95 205 98 205 96 205 95 206 99 206 98 206 96 207 98 207 100 207 97 208 113 208 99 208 98 209 99 209 101 209 98 210 101 210 100 210 99 211 110 211 101 211 99 212 112 212 110 212 99 213 113 213 112 213 100 214 101 214 102 214 101 215 103 215 105 215 101 216 104 216 102 216 101 217 105 217 106 217 101 218 106 218 104 218 101 219 108 219 103 219 101 220 110 220 108 220 103 221 108 221 105 221 104 222 106 222 120 222 104 223 120 223 107 223 105 224 108 224 106 224 106 225 108 225 119 225 106 226 109 226 120 226 106 227 119 227 109 227 107 228 120 228 121 228 108 229 110 229 111 229 108 230 111 230 112 230 108 231 112 231 117 231 108 232 117 232 119 232 109 233 115 233 120 233 109 234 119 234 115 234 110 235 112 235 111 235 112 236 114 236 117 236 115 237 118 237 121 237 115 238 119 238 118 238 115 239 121 239 120 239 117 240 123 240 119 240 118 241 122 241 121 241</p>
        </polylist>
      </mesh>
      <extra><technique profile="MAYA"><double_sided>1</double_sided></technique></extra>
    </geometry>
  </library_geometries>
  <library_controllers/>
  <library_visual_scenes>
    <visual_scene id="Scene" name="Scene">
      <node id="Camera" name="Camera" type="NODE">
        <matrix sid="transform">0.6858805 -0.3173701 0.6548619 7.481132 0.7276338 0.3124686 -0.6106656 -6.50764 -0.01081678 0.8953432 0.4452454 5.343665 0 0 0 1</matrix>
        <instance_camera url="#Camera-camera"/>
      </node>
      <node id="Lamp" name="Lamp" type="NODE">
        <matrix sid="transform">-0.2908646 -0.7711008 0.5663932 4.076245 0.9551712 -0.1998834 0.2183912 1.005454 -0.05518906 0.6045247 0.7946723 5.903862 0 0 0 1</matrix>
        <instance_light url="#Lamp-light"/>
      </node>
      <node id="ShapeIndexedFaceSet" name="ShapeIndexedFaceSet" type="NODE">
        <matrix sid="transform">-1 6.60024e-15 -8.74228e-8 0 -8.74228e-8 -7.54979e-8 1 0 0 1 7.54979e-8 0 0 0 0 1</matrix>
        <instance_geometry url="#ShapeIndexedFaceSet-mesh"/>
      </node>
    </visual_scene>
  </library_visual_scenes>
  <scene>
    <instance_visual_scene url="#Scene"/>
  </scene>
</COLLADA>