<?xml version="1.0" encoding="utf-8"?>
<COLLADA xmlns="http://www.collada.org/2005/11/COLLADASchema" version="1.4.1">
  <asset>
    <contributor>
      <author>Blender User</author>
      <authoring_tool>Blender 2.68.4 r59916</authoring_tool>
    </contributor>
    <created>2013-09-09T14:00:09</created>
    <modified>2013-09-09T14:00:09</modified>
    <unit name="meter" meter="1"/>
    <up_axis>Z_UP</up_axis>
  </asset>
  <library_cameras>
    <camera id="Camera-camera" name="Camera">
      <optics>
        <technique_common>
          <perspective>
            <xfov sid="xfov">49.13434</xfov>
            <aspect_ratio>1.777778</aspect_ratio>
            <znear sid="znear">0.1</znear>
            <zfar sid="zfar">100</zfar>
          </perspective>
        </technique_common>
      </optics>
      <extra>
        <technique profile="blender">
          <YF_dofdist>0</YF_dofdist>
          <shiftx>0</shiftx>
          <shifty>0</shifty>
        </technique>
      </extra>
    </camera>
  </library_cameras>
  <library_lights>
    <light id="Lamp-light" name="Lamp">
      <technique_common>
        <point>
          <color sid="color">1 1 1</color>
          <constant_attenuation>1</constant_attenuation>
          <linear_attenuation>0</linear_attenuation>
          <quadratic_attenuation>0.00111109</quadratic_attenuation>
        </point>
      </technique_common>
      <extra>
        <technique profile="blender">
          <adapt_thresh>0.000999987</adapt_thresh>
          <area_shape>1</area_shape>
          <area_size>0.1</area_size>
          <area_sizey>0.1</area_sizey>
          <area_sizez>1</area_sizez>
          <atm_distance_factor>1</atm_distance_factor>
          <atm_extinction_factor>1</atm_extinction_factor>
          <atm_turbidity>2</atm_turbidity>
          <att1>0</att1>
          <att2>1</att2>
          <backscattered_light>1</backscattered_light>
          <bias>1</bias>
          <blue>1</blue>
          <buffers>1</buffers>
          <bufflag>0</bufflag>
          <bufsize>2880</bufsize>
          <buftype>2</buftype>
          <clipend>30.002</clipend>
          <clipsta>1.000799</clipsta>
          <compressthresh>0.04999995</compressthresh>
          <dist sid="blender_dist">29.99998</dist>
          <energy sid="blender_energy">1</energy>
          <falloff_type>2</falloff_type>
          <filtertype>0</filtertype>
          <flag>0</flag>
          <gamma sid="blender_gamma">1</gamma>
          <green>1</green>
          <halo_intensity sid="blnder_halo_intensity">1</halo_intensity>
          <horizon_brightness>1</horizon_brightness>
          <mode>8192</mode>
          <ray_samp>1</ray_samp>
          <ray_samp_method>1</ray_samp_method>
          <ray_samp_type>0</ray_samp_type>
          <ray_sampy>1</ray_sampy>
          <ray_sampz>1</ray_sampz>
          <red>1</red>
          <samp>3</samp>
          <shadhalostep>0</shadhalostep>
          <shadow_b sid="blender_shadow_b">0</shadow_b>
          <shadow_g sid="blender_shadow_g">0</shadow_g>
          <shadow_r sid="blender_shadow_r">0</shadow_r>
          <shadspotsize>45</shadspotsize>
          <sky_colorspace>0</sky_colorspace>
          <sky_exposure>1</sky_exposure>
          <skyblendfac>1</skyblendfac>
          <skyblendtype>1</skyblendtype>
          <soft>3</soft>
          <spotblend>0.15</spotblend>
          <spotsize>75</spotsize>
          <spread>1</spread>
          <sun_brightness>1</sun_brightness>
          <sun_effect_type>0</sun_effect_type>
          <sun_intensity>1</sun_intensity>
          <sun_size>1</sun_size>
          <type>0</type>
        </technique>
      </extra>
    </light>
  </library_lights>
  <library_images/>
  <library_geometries>
    <geometry id="ShapeIndexedFaceSet-mesh" name="ShapeIndexedFaceSet">
      <mesh>
        <source id="ShapeIndexedFaceSet-mesh-positions">
          <float_array id="ShapeIndexedFaceSet-mesh-positions-array" count="795">0 0 0 -0.917738 20.27527 3.707753 -0.862861 20.27527 3.611617 -0.965612 20.27527 3.820875 -0.769677 20.27527 3.486474 -0.898443 20.27527 3.95732 -1.002102 20.27527 3.95732 -0.846013 20.27527 3.794149 -0.670889 20.27527 3.509806 -0.6678 20.27527 3.379648 -0.713315 20.27527 3.572725 -0.756368 20.27527 3.635217 -0.426455 20.27527 3.27287 -0.455653 20.27527 3.21538 -0.235948 20.27527 3.115393 -0.105812 20.27527 3.157841 7e-6 20.27527 3.080688 -0.172956 19.82345 3.060238 0.2336699 20.27527 3.185482 0.347118 20.27527 3.15244 -2.9e-5 19.93011 3.052456 0.531473 20.27527 3.350774 0.614764 20.27527 3.332298 0.734467 20.27527 3.624311 0.766162 20.27527 3.531556 0.80645 20.27527 3.95732 0.848397 20.27527 3.737073 0.876631 20.27527 3.95732 -1.009638 18.01118 3.198278 -1.0922 17.60827 3.355838 -1.065867 17.60256 3.330887 -1.186548 18.01054 3.334619 -1.129516 17.59615 3.41176 -1.03908 17.57957 3.31578 -0.79896 18.46689 3.110466 -1.003109 18.46884 3.174434 -1.184904 18.47042 3.311146 -1.155405 17.55089 3.49414 -1.272 18.01144 3.537291 -1.277708 18.46999 3.51764 -1.155063 17.55374 3.49091 -1.147639 17.57574 3.457537 -1.213362 17.55255 3.805609 -1.29676 18.012 3.746469 -1.307356 18.46914 3.731536 -1.197796 17.55163 3.648838 -1.289679 17.95612 3.95732 -1.295424 18.00999 3.95732 -1.210955 17.53939 3.95732 -1.313272 18.48019 3.95732 -1.113117 17.23703 3.95732 -1.045783 17.09427 3.805795 -1.054239 17.09397 3.95732 -1.153721 17.52904 3.508885 -1.014928 17.09361 3.640329 -0.944789 17.09409 3.481395 -1.051291 17.49621 3.362412 -1.0922 17.48127 3.422373 -1.108454 17.48339 3.447721 -1.125253 17.49055 3.474825 -1.142286 17.50574 3.500716 -0.824978 16.64627 3.81817 -0.837961 16.64632 3.95732 -0.799258 16.64459 3.708824 -0.773831 16.64446 3.637526 -1.226849 19.38194 3.769154 -1.247216 19.3815 3.95732 -1.178697 19.38305 3.581675 -1.082909 19.38366 3.408603 -0.940459 19.38214 3.274572 -0.775105 19.37954 3.18012 -0.600207 19.37656 3.115116 -0.421422 19.37356 3.07241 -1.289838 18.9219 3.744661 -1.304311 18.94318 3.95732 -1.249408 19.37251 3.95732 -1.249617 18.92384 3.536273 -1.150343 18.92584 3.339188 -0.981099 18.92483 3.199892 -0.787032 18.92235 3.11935 -0.587681 18.92026 3.074548 -1.30998 18.76224 3.95732 -0.810733 16.60191 3.95732 -0.776338 16.56277 3.95732 -0.735767 16.55897 3.722606 -0.182732 16.12631 3.299867 -0.136803 16.09524 3.36042 0.20528 15.9607 3.299867 0.249036 15.95364 3.36042 0.626862 15.97641 3.299867 0.659038 15.98549 3.36042 1.001474 16.17043 3.299867 1.018424 16.18502 3.36042 1.257548 16.5057 3.299867 1.262212 16.51598 3.36042 1.346163 16.91816 3.299867 1.346151 16.91857 3.36042 1.291071 17.12721 3.181028 1.302322 16.74646 3.181028 1.160884 16.39278 3.181028 0.890198 16.12478 3.181028 0.535123 15.98687 3.181028 0.154506 16.00192 3.181028 -0.188575 16.16742 3.181028 -0.437261 16.45595 3.181028 1.156028 17.26844 3.089808 1.234998 16.90977 3.089808 1.150425 16.53924 3.089808 0.913459 16.24209 3.089808 0.571032 16.07719 3.089808 0.190967 16.07719 3.089808 -0.151459 16.24209 3.089808 -0.388425 16.53924 3.089808 0.696905 17.22568 2.894203 0.79375 17.08074 2.894203 0.827758 16.90977 2.894203 0.696905 16.59387 2.894203 0.79375 16.73881 2.894203 0.551967 16.49702 2.894203 0.381 16.46302 2.894203 0.2100329 16.49702 2.894203 0.06509399 16.59387 2.894203 -0.03174996 16.73881 2.894203 -0.06575798 16.90977 2.894203 -0.03174996 17.08074 2.894203 0.381 16.90977 2.82702 0.774013 20.27527 4.183738 0.705238 20.27527 4.442681 0.635345 20.27527 4.624413 0.706107 20.27527 4.665342 0.609396 20.27527 4.844682 0.459081 20.27527 4.853682 0.782231 20.27527 4.468753 0.798291 20.27527 4.071747 0.847569 20.27527 4.231425 0.476832 20.27527 4.998728 0.271899 20.27527 5.122358 0.196488 20.27527 4.974842 -0.05432295 20.27527 5.179271 -0.154935 20.27527 4.981984 -0.251573 20.27527 5.15133 -0.263314 19.87255 5.193778 -0.488644 20.27527 4.871195 -0.452927 20.27527 5.075003 -0.496556 19.87672 5.143941 -0.639488 20.27527 4.953842 -0.714898 19.8808 5.03734 -0.766015 20.27527 4.655302 -0.796722 20.27527 4.79448 -0.888704 19.88243 4.866181 -0.900223 20.27527 4.414956 -0.91509 20.27527 4.603965 -0.846958 20.27527 4.542853 -0.938387 20.27527 4.139547 -0.991168 20.27527 4.388127 -0.937865 20.27527 4.177178 -1.019407 20.27527 4.163331 -0.919211 20.27527 3.95732 -0.719443 18.24193 5.178637 -0.789794 17.83397 5.133075 -0.965203 18.23887 5.013401 -0.994928 17.83369 4.954597 -0.801806 17.41793 5.06893 -1.144466 18.23852 4.778629 -1.141344 17.83198 4.728191 -0.982103 17.41791 4.893466 -1.24798 18.2398 4.505667 -1.22472 17.82995 4.473574 -1.095175 17.41656 4.672379 -1.294341 18.24008 4.222868 -1.25879 17.82843 4.213561 -1.1499 17.41546 4.434081 -1.288047 17.94199 3.95732 -1.271013 17.82114 3.95732 -1.168513 17.4148 4.196244 -1.309753 18.24093 3.95732 -1.170558 17.40159 3.95732 -1.311327 18.6577 3.95732 -1.300738 18.64824 4.23345 -1.257766 18.64794 4.515316 -1.164568 18.64735 4.790395 -0.984462 18.64692 5.027974 -0.727865 18.64883 5.174667 -0.449962 18.6504 5.249359 -0.912786 16.99681 4.658649 -0.98289 16.9994 4.432972 -1.00889 17.00128 4.202522 -1.013442 17.00286 3.95732 -1.110826 17.23106 3.95732 -0.418036 19.46545 5.212381 -0.689885 19.46831 5.146683 -0.927691 19.47201 4.987973 -1.088635 19.4734 4.758282 -1.185409 19.47455 4.49803 -1.22479 19.47531 4.226247 -1.222479 19.47414 3.95732 -0.449016 19.05731 5.233195 -0.727744 19.05679 5.168351 -0.98261 19.05901 5.018789 -1.154402 19.05972 4.781154 -1.251524 19.05837 4.511391 -1.294983 19.05817 4.231172 -1.251722 19.36265 3.95732 -1.294814 19.08852 3.95732 -1.310197 18.75204 3.95732 -0.791633 16.6218 4.265877 -0.82808 16.63851 4.115946 -0.741098 16.54583 4.18354 -0.376126 16.31113 5.022928 -0.126914 16.08902 4.557522 -0.495874 16.60233 5.153266 -0.05738699 16.04987 5.022928 -0.310049 16.28858 5.153266 0.254375 15.95291 4.557522 0.341279 15.94539 5.022928 -0.01780098 16.0705 5.153266 0.657942 15.98516 4.557522 0.747187 16.01673 5.022928 0.69648 16.03576 5.153266 0.335864 15.98166 5.153266 1.012785 16.18008 4.557522 1.086332 16.2509 5.022928 1.008511 16.22446 5.153266 1.256472 16.50337 4.557522 1.29688 16.60519 5.022928 1.223904 16.51869 5.153266 1.34613 16.89818 4.557522 1.340446 17.01501 5.022928 1.309487 16.87316 5.153266 1.252081 17.23327 5.153266 1.346135 16.89582 4.51612 1.01509 16.18203 4.51612 1.256629 16.50367 4.51612 0.663411 15.98679 4.51612 0.262695 15.95181 4.51612 -0.117467 16.08323 4.51612 -0.005228996 17.09577 5.402804 0.648278 17.24493 5.402804 0.767229 17.09577 5.402804 1.113158 17.30377 5.246668 1.187234 17.11293 5.246668 0.809681 16.90977 5.402804 1.212435 16.90977 5.246668 0.767229 16.72378 5.402804 1.191589 16.72476 5.246668 0.381 16.90977 5.45592 -0.450435 16.90977 5.246668 -0.04768097 16.90977 5.402804 -0.429589 16.72476 5.246668 -0.005228996 16.72378 5.402804 -0.368097 16.54903 5.246668 0.648278 16.57462 5.402804 0.47639 16.49184 5.402804 0.285609 16.49184 5.402804 0.113721 16.57462 5.402804 -0.137391 16.25973 5.246668 -0.269042 16.39138 5.246668 0.1959879 16.09918 5.246668 0.020253 16.16068 5.246668 0.381 16.07834 5.246668 0.741746 16.16068 5.246668 0.566012 16.09918 5.246668 1.031042 16.39138 5.246668 0.899391 16.25973 5.246668 1.130097 16.54903 5.246668</float_array>
          <technique_common>
            <accessor source="#ShapeIndexedFaceSet-mesh-positions-array" count="265" stride="3">
              <param name="X" type="float"/>
              <param name="Y" type="float"/>
              <param name="Z" type="float"/>
            </accessor>
          </technique_common>
        </source>
        <source id="ShapeIndexedFaceSet-mesh-normals">
          <float_array id="ShapeIndexedFaceSet-mesh-normals-array" count="1572">-0.8254038 0.3109878 -0.4711636 0 1 0 0 1 0 0 1 0 -0.8759778 0.3085936 -0.3707196 -0.8327106 0.3085248 -0.4597885 -0.76077 0.3167402 -0.5664845 0 1 0 0 1 0 0 1 0 -0.9253132 0.2873309 -0.24746 0 1 0 0 1 0 -0.6903342 0.3000189 -0.658352 0 1 0 0 1 0 0 1 0 0 1 0 0 1 0 0 1 0 0 1 0 0 1 0 0 1 0 -0.9586544 0.2637097 -0.1069538 -0.9291769 0.28368 -0.2369723 0 1 0 0 1 0 -0.961038 0.2643654 -0.08072757 0 1 0 0 1 0 0 1 0 0 1 0 0 1 0 -0.5895686 0.2695635 -0.7614095 -0.6557316 0.2825523 -0.7001289 0 1 0 0 1 0 0 1 0 0 1 0 0 1 0 0 1 0 0 1 0 -0.4074122 0.1805383 -0.8952213 -0.4829475 0.2057416 -0.8511357 0 1 0 -0.144788 0.099981 -0.9843984 -0.2099046 0.0895856 -0.973609 -0.3429051 0.1392703 -0.9289886 -0.2298299 0.09345167 -0.9687337 0 1 0 0 1 0 0.2012735 0.1068506 -0.9736899 -0.0947107 0.08116364 -0.9921907 0.1219276 0.08831685 -0.9886019 0.1371822 0.09166181 -0.9862957 0.05637568 0.08138477 -0.9950872 -0.08399552 0.06362748 -0.9944327 -0.1433758 0.05244565 -0.9882777 -0.1391288 0.05270016 -0.988871 0 1 0 0 1 0 0 1 0 0.5501117 0.1650451 -0.8186191 0.4175677 0.1310649 -0.8991436 0 1 0 0 1 0 0.7807537 0.1962368 -0.5932241 0.6723496 0.178957 -0.718276 0 1 0 0 1 0 0 1 0 0 1 0 0.9110676 0.1925034 -0.3645521 0 1 0 0 1 0 0.9788656 0.1614806 -0.1254832 0.9731081 0.1651921 -0.1605373 0 1 0 0.979385 0.1732697 0.1038395 0.9902276 0.1393859 -0.00454837 -0.6010925 -0.170659 -0.7807455 -0.6098997 -0.03822207 -0.7915563 -0.5926432 -0.1736938 -0.7865142 -0.3521637 -0.04368501 -0.9349184 -0.6008844 -0.03303736 -0.7986529 -0.567112 -0.1801155 -0.8037054 -0.4277044 -0.1144315 -0.8966462 -0.3857261 -0.07672685 -0.9194175 -0.6906916 -0.2898302 -0.6625282 -0.6964485 -0.1997017 -0.6892595 -0.7900393 -0.2155677 -0.5739065 -0.7485548 -0.3077095 -0.5873504 -0.7620092 -0.3005134 -0.5736146 -0.6922386 -0.2914257 -0.6602096 -0.6161361 -0.2211484 -0.7559562 -0.876452 -0.2019883 -0.4370728 -0.9211264 -0.028104 -0.3882479 -0.911961 -0.01766169 -0.4098968 -0.9051964 -0.1886593 -0.3808242 -0.8120091 -0.3094771 -0.4948385 -0.8318071 -0.3035635 -0.4646999 -0.29867 0.02642947 -0.9539904 -0.233461 0.02507388 -0.9720429 -0.2990667 -0.008296668 -0.9541961 -0.5989977 0.07343059 -0.7973768 -0.3816226 0.06987774 -0.9216731 -0.9097343 0.07308793 -0.4087074 -0.8894422 0.09502643 -0.4470599 -0.6322535 0.09532427 -0.768875 -0.935343 -0.210136 -0.2845631 -0.8783218 -0.3084098 -0.3652864 -0.9422672 -0.2144547 -0.2571802 -0.9355081 -0.2443459 -0.2551854 -0.8822678 -0.3081817 -0.3558478 -0.9198324 -0.2008602 -0.3369922 -0.9927179 -0.02684628 -0.1174332 -0.9903558 -0.01821362 -0.1373448 -0.9759103 -0.1853948 -0.1150129 -0.9896677 0.0422638 -0.1370094 -0.9796985 0.06837588 -0.1884557 -0.8654891 -0.3076797 -0.3952997 -0.8675304 -0.3103214 -0.3887051 -0.8425002 -0.3107208 -0.4400523 -0.9771445 -0.1897119 -0.09590709 -0.935667 -0.3409759 -0.09089988 -0.978024 -0.2084764 -0.002568244 -0.9423518 -0.3289349 -0.06144005 -0.9817617 -0.1842412 -0.04689449 -0.9595764 -0.2812984 -0.009178161 -0.994349 -0.1060282 0.005289375 -0.9980643 -0.06192612 0.00573343 -0.9933871 -0.1147757 0.002938508 -0.9901977 -0.1395676 -0.005425393 -0.9990856 -0.02430677 -0.03517436 -0.9995828 0.01095247 -0.02672666 -0.9965841 0.04064363 -0.07189089 -0.9981469 0.03127396 -0.05219817 -0.9995675 -0.0147022 -0.02547168 -0.999548 0.01197171 -0.02757728 -0.9990054 0.02125245 -0.03919887 -0.9349116 -0.3425549 -0.09271752 -0.9057916 -0.3574199 -0.2275796 -0.9163637 -0.3627209 -0.1694435 -0.9921365 -0.1057923 0.06688147 -0.9914534 -0.1145523 0.06243395 -0.9964218 -0.0618242 0.05763214 -0.9929485 -0.08755958 0.07991671 -0.976678 -0.2081894 0.05251151 -0.9746547 -0.2152718 0.06087821 -0.9593458 -0.2812308 0.02376312 -0.998419 -0.01468527 0.05425745 -0.9991912 0.01094818 0.03869193 -0.9308379 -0.3572053 -0.07710456 -0.943809 -0.3294435 0.02629619 -0.9324474 -0.357823 0.05004638 -0.9230784 -0.3810459 -0.05225187 -0.8831899 -0.4397977 -0.1629527 -0.8929538 -0.4424052 -0.0831328 -0.8947086 -0.4403618 -0.07468545 -0.9114673 -0.4081163 -0.05165636 -0.9240116 -0.3814312 0.02669697 -0.9125924 -0.4086201 0.01430666 -0.9023649 -0.3594177 -0.2378163 -0.8216211 -0.4387572 -0.3639106 -0.8421779 -0.3895267 -0.3728342 -0.8590797 -0.3811917 -0.3415771 -0.8714144 -0.4487695 -0.1980979 -0.8414912 -0.4498265 -0.2992469 -0.7726329 -0.3725283 -0.5140633 -0.7942135 -0.3752373 -0.4779349 -0.8270169 -0.3832627 -0.4112818 -0.7988005 -0.4444872 -0.4053996 -0.7380784 -0.3333827 -0.5865972 -0.6996895 -0.2999402 -0.648437 -0.777495 -0.6044476 -0.1736223 -0.849898 -0.5209791 -0.07908332 -0.7594043 -0.6383483 -0.1257647 -0.8522496 -0.5224205 0.0273391 -0.8971289 -0.441553 0.01380717 -0.8913113 -0.4521721 0.03323465 -0.7529366 -0.6013282 -0.2673778 -0.7348046 -0.6139966 -0.2882195 -0.960972 0.2565912 -0.1034119 -0.9544507 0.1715407 -0.2441264 -0.9808712 0.1414226 -0.1337588 -0.966261 0.2356196 -0.1040337 -0.9720327 0.1430089 -0.186282 -0.968224 0.2271147 -0.1046954 -0.9814384 0.154282 -0.1139112 -0.9715315 0.2369048 -0.001620531 -0.964906 0.2576416 -0.05076736 -0.9686806 0.2482418 -0.005812823 -0.8578653 0.1982404 -0.474097 -0.8793344 0.1794159 -0.4411134 -0.6692739 0.2067849 -0.7136613 -0.4854777 0.1827568 -0.8549335 -0.6245118 0.1796225 -0.7600795 -0.3433269 0.1325485 -0.9298158 -0.3785499 0.1316536 -0.91617 -0.2301181 0.08561491 -0.9693894 -0.2178934 0.07532751 -0.9730612 -0.1516214 0.05095463 -0.9871245 -0.9951192 0.06502044 -0.07422965 -0.9992914 0.03130978 0.02088999 -0.9978504 0.06519889 0.006609737 -0.9735729 0.2283694 0.001828968 -0.2188599 0.03066813 -0.9752742 -0.1918557 0.03816348 -0.9806809 -0.9992697 0.02125805 0.03175103 -0.7494053 -0.6586712 0.06740868 -0.7458405 -0.6555379 -0.1182878 -0.7520354 -0.6555006 0.06900423 -0.6601751 -0.7441479 -0.102043 -0.5907284 -0.8068673 0.002297401 -0.6029769 -0.797427 0.0230019 -0.6161879 -0.7867265 0.03706556 -0.695249 -0.6891469 -0.2042189 -0.726852 -0.6264697 -0.2814637 -0.5605736 -0.8281045 3.29461e-4 -0.3923514 -0.9046167 -0.1665204 -0.4172704 -0.864987 -0.2787162 -0.3671892 -0.9301133 -0.007840573 -0.3848659 -0.910485 -0.1513122 -0.4780672 -0.8783226 -0.001130819 -0.523186 -0.8522185 -1.04643e-4 -0.1593946 -0.987215 1.08458e-4 0.02933037 -0.9901903 -0.1366121 -0.03751432 -0.9489885 -0.3130709 -0.289638 -0.9571211 0.00537908 0.05883151 -0.9982341 -0.008221387 0.04074555 -0.9920868 -0.1187589 -0.07721215 -0.9970145 -6.67081e-4 -0.1312304 -0.991352 -1.96779e-5 0.2715691 -0.962419 -1.89472e-5 0.4510238 -0.8860968 -0.1068177 0.3404735 -0.8766375 -0.3399773 0.1299308 -0.9915162 0.003683626 0.4740127 -0.8804761 -0.008585751 0.4605403 -0.8828544 -0.09203737 0.3377005 -0.9412536 -2.16044e-4 0.2866452 -0.9580368 -3.92577e-6 0.652366 -0.7579041 -7.68121e-5 0.79095 -0.6072481 -0.07515317 0.6564207 -0.6630005 -0.3599199 0.5261272 -0.850404 0.001787662 0.6470955 -0.7624089 2.51441e-5 0.8008167 -0.5988422 -0.008980512 0.7932406 -0.6048118 -0.07051265 0.6944898 -0.7195025 1.43958e-4 0.910696 -0.4130773 -1.14414e-6 0.9769235 -0.2098852 -0.03960627 0.976096 -0.2097074 -0.05709201 0.861378 -0.3444669 -0.3733237 0.829001 -0.559247 -3.24644e-4 0.874401 -0.4852039 -1.48917e-4 0.978575 -0.2056775 -0.009370267 0.9286748 -0.3708946 5.35092e-4 0.9999707 0.007645666 1.47775e-4 0.9243847 0.02731502 -0.3804823 0.9999992 0.001301467 4.69419e-5 0.9980226 0.06285536 -2.21289e-4 0.9850189 -0.1724178 -0.003144621 0.9989664 0.04544746 7.91734e-4 0.8247059 0.02436959 -0.5650365 0.6527485 0.1437188 -0.7438175 0.7597218 -0.3038144 -0.5749084 0.6499847 -0.1483555 -0.7453258 0.5670513 -0.5727353 -0.5919688 0.5283574 -0.4213483 -0.7370917 0.2854095 -0.7348608 -0.6152406 0.2995173 -0.6219632 -0.7234992 -0.03024071 -0.7649902 -0.6433317 0 -0.7106121 -0.703584 -0.3206999 -0.6647998 -0.6746798 -0.319803 -0.6640856 -0.6758079 -0.5792526 -0.4992545 -0.644369 -0.5562181 -0.4435665 -0.7027591 0.4341275 0.09558391 -0.8957662 0.4351723 -0.09932571 -0.8948516 0.4313678 0.08580672 -0.8980863 0.4313678 -0.08580577 -0.8980864 0.3514938 -0.2803052 -0.8932418 0.3598542 -0.2404457 -0.9014936 0.1959082 -0.4068136 -0.892257 0.2378967 -0.3560404 -0.9036816 0 -0.4521834 -0.891925 0.08309847 -0.4177571 -0.9047506 -0.1959086 -0.4068131 -0.8922572 -0.08309841 -0.417757 -0.9047507 -0.3514943 -0.2803057 -0.8932415 -0.2378958 -0.3560415 -0.9036814 -0.3598552 -0.240444 -0.9014937 0.1260131 0.08419883 -0.9884489 0.148642 0.02956753 -0.9884489 0.148642 -0.02956718 -0.988449 0.08419841 -0.1260128 -0.988449 0.1260128 -0.08419865 -0.988449 0.02956718 -0.1486418 -0.9884489 -0.02956718 -0.1486418 -0.9884489 -0.08419793 -0.126013 -0.988449 -0.1260131 -0.08419799 -0.988449 -0.148642 -0.02956718 -0.988449 -0.148642 0.02956748 -0.9884489 0 1 0 0 1 0 0 1 0 0 1 0 0 1 0 0 1 0 0 1 0 0 1 0 0 1 0 0 1 0 0 1 0 0.857007 0.2279407 0.4621494 0.9097277 0.2197785 0.3522683 0 1 0 0.7392843 0.2207244 0.6361914 0 1 0 0.9435122 0.2056986 0.2597553 0.9355682 0.2086191 0.2849388 0.5080997 0.1801765 0.8422417 0 1 0 0.6602795 0.2049751 0.7225069 0 1 0 0.1707665 0.1129394 0.9788174 0.3390837 0.134946 0.9310273 0.3662037 0.1421464 0.9196137 0 1 0 0 1 0 -0.1394361 0.1078169 0.984344 -0.07086563 0.07261085 0.9948396 0.1286354 0.1025843 0.9863719 0.08167755 0.09214079 0.9923905 0 1 0 0 1 0 -0.3475367 0.1966243 0.916819 -0.2221841 0.1186289 0.967761 -0.16675 0.1081605 0.9800488 -0.07122677 0.07253056 0.9948196 0 1 0 0 1 0 0 1 0 -0.5242653 0.2710908 0.8072519 -0.4358885 0.2058218 0.8761498 -0.407248 0.1987686 0.8914259 -0.2321535 0.1163811 0.9656916 -0.6827809 0.2828236 0.6736624 -0.6734892 0.274061 0.686515 -0.6746836 0.2681599 0.6876717 -0.5436471 0.1841042 0.8188734 0 1 0 0 1 0 0 1 0 -0.8146505 0.2831254 0.5061468 -0.8258638 0.2736191 0.493033 -0.7941403 0.2409994 0.5579072 0 1 0 0 1 0 0 1 0 -0.9095047 0.2646315 0.3205798 -0.9045055 0.2607061 0.3374938 0 1 0 0 1 0 -0.9592059 0.2557433 0.1204961 -0.9577599 0.2514801 0.1394769 -0.3984515 -0.03365331 0.9165718 -0.5049244 -0.009322106 0.8631133 -0.496296 -0.001801609 0.8681515 -0.3613433 -0.02536755 0.9320877 -0.3114953 0.002824246 0.9502434 -0.6551104 -0.06123006 0.753048 -0.6532238 -0.09692025 0.7509362 -0.5839137 -0.1072116 0.8047052 -0.6501631 -0.05774211 0.7575975 -0.4343363 -0.04893809 0.8994203 -0.6709266 -0.05806678 0.7392467 -0.8371741 -0.073668 0.5419527 -0.8346853 -0.1052263 0.5405811 -0.6918801 -0.1258711 0.7109559 -0.8213941 -0.0567196 0.5675339 -0.7961556 -0.04420459 0.6034751 -0.6854773 -0.1842867 0.7043858 -0.6757584 -0.1795518 0.7149208 -0.9153995 -0.05647897 0.3985648 -0.947258 -0.07809644 0.3108106 -0.9398229 -0.1459531 0.3089182 -0.8787193 -0.1581667 0.4503728 -0.935108 -0.05335998 0.3503225 -0.8300946 -0.3589522 0.4267273 -0.98452 -0.06850624 0.1613298 -0.9864593 -0.02747499 0.1616887 -0.9467023 -0.03028053 0.3206834 -0.9875913 -0.08822745 0.1299205 -0.9736975 -0.1880269 0.128682 -0.9560002 -0.1935749 0.2204371 -0.9071385 -0.3646882 0.2100049 -0.8342587 -0.3756976 0.4035638 -0.8801302 -0.391225 0.2689122 -0.9981765 -0.01714485 0.05787748 -0.9883946 -0.01939713 0.1506652 -0.9889166 -0.1393871 0.05113792 -0.9734421 -0.2156731 0.07678276 -0.9307381 -0.3581542 0.07383841 -0.9231764 -0.3708356 0.1011259 -0.9319525 -0.358969 0.05104726 -0.9991782 0.0119673 0.03872638 -0.9884681 0.01471412 0.1507129 -0.9991148 0.0142461 0.03958088 -0.9469614 0.01747006 0.3208722 -0.9880536 0.01649188 0.1532253 -0.7967651 0.01704496 0.6040487 -0.8099178 0.03308922 0.5856094 -0.940483 0.03076934 0.338445 -0.4963373 0.01358538 0.8680235 -0.5058614 0.02149498 0.862347 -0.2834417 0.01492869 0.9588733 -0.2264868 0.03918707 0.9732257 -0.2385348 0.03043967 0.9706568 -0.2029846 0.03933763 0.9783914 -0.8224698 -0.5111076 0.2496247 -0.8215388 -0.4773715 0.3117538 -0.8815835 -0.4622278 0.09568673 -0.8204671 -0.5203574 0.2367738 -0.8530685 -0.4992454 0.1517505 -0.2335669 0.07254076 0.969631 -0.1163853 0.05939435 0.9914267 -0.2262053 0.06672894 0.9717913 -0.1070546 0.06109595 0.9923743 -0.5486244 0.1345221 0.8251758 -0.5033985 0.09154927 0.8591907 -0.8079841 0.1598109 0.5671174 -0.801055 0.1497623 0.5795534 -0.9240605 0.1659479 0.3443451 -0.9758862 0.1658921 0.1418656 -0.9292627 0.1583387 0.3337659 -0.9755009 0.1598224 0.151178 -0.9856622 0.1662055 0.02908188 -0.1867311 0.04261952 0.9814862 -0.9877324 0.1552715 0.01659828 -0.7648769 -0.6337695 0.1153239 -0.7459613 -0.6505782 0.1424427 -0.6328068 -0.772037 0.05928152 -0.6230565 -0.7601413 0.1843523 -0.8126058 -0.4812809 0.3286952 -0.5103557 -0.8599545 0.003905594 -0.6439284 -0.3813785 0.6632546 -0.6340508 -0.2218621 0.7407812 -0.2533957 -0.9668438 0.03168231 -0.2470692 -0.9427052 0.2241959 -0.5714958 -0.7658438 0.2947471 -0.4538932 -0.6082481 0.6511644 -0.4783341 -0.4783343 0.7364732 -0.6116355 -0.3843182 0.6915212 -0.1096085 -0.9939651 0.004394829 0.1730134 -0.9843459 0.03360974 0.1693782 -0.9636638 0.2065504 0.1428079 -0.951969 0.2708522 -0.2357918 -0.9387136 0.2514342 -0.185119 -0.73698 0.6500704 -0.2282496 -0.6522938 0.7227828 -0.3698129 -0.5885537 0.7189179 0.3147072 -0.9491801 0.004052996 0.5678208 -0.8223901 0.03541332 0.5599255 -0.8109551 0.1698095 0.4919639 -0.813504 0.3101332 0.3858574 -0.6380479 0.6663399 0.2219183 -0.6341964 0.7406398 0.1114389 -0.7428603 0.6601061 -0.07596719 -0.6742417 0.7345932 0.08018696 -0.7116941 0.697898 0.6821998 -0.7311576 0.003455221 0.8590612 -0.510527 0.03709453 0.8510785 -0.505783 0.1408863 0.7587305 -0.5554204 0.340347 0.6114803 -0.4476274 0.6524735 0.4772798 -0.47728 0.7378399 0.3873959 -0.6165407 0.6854209 0.9281126 -0.3722987 8.60985e-4 0.993654 -0.1056304 0.03865188 0.9871783 -0.104942 0.1202759 0.9060859 -0.2187675 0.3621452 0.9883114 -0.1521961 0.008771717 0.7391547 -0.1784632 0.6494623 0.6492571 -0.2271829 0.7258466 0.5918297 -0.3718734 0.7151558 0.9150279 0.1458684 0.3760935 0.7382509 0.1176877 0.6641802 0.707747 0.08779513 0.7009895 0.6763369 -0.07620513 0.7326399 -0.1229177 0.02805471 0.9920203 0.09857201 0.07860928 0.9920202 0.3406404 0.1322237 0.9308496 0.3445467 0.07863932 0.9354696 0.1229177 0.02805471 0.9920203 0.3610968 0.0447936 0.9314519 0.3443942 -0.07860451 0.9355287 0.3611602 -0.0406931 0.9316155 0.1229177 -0.02805471 0.9920203 0.09857237 -0.07860857 0.9920203 0.2761825 -0.2202474 0.9355289 0.3077371 -0.1933652 0.9316157 0.3430505 -0.1200374 0.9316155 -0.1229177 -0.02805471 0.9920203 -0.09857255 -0.07860803 0.9920203 0.05470341 -0.1135927 0.9920203 0 -0.1260783 0.9920203 -0.05470335 -0.1135926 0.9920203 -0.3611602 -0.0406931 0.9316155 -0.3443942 -0.07860457 0.9355287 -0.3430504 -0.1200375 0.9316154 -0.3077372 -0.1933652 0.9316157 -0.2761836 -0.2202464 0.9355288 0.1532699 -0.3182678 0.9355287 0.1933638 -0.3077386 0.9316155 0.2569946 -0.2569947 0.9316155 0 -0.3532506 0.9355288 0.04069209 -0.3611602 0.9316155 0.12004 -0.3430494 0.9316155 -0.1532699 -0.3182678 0.9355288 -0.04069215 -0.3611603 0.9316155 -0.1200394 -0.3430498 0.9316154 -0.1933648 -0.3077383 0.9316154 -0.256995 -0.2569951 0.9316153</float_array>
          <technique_common>
            <accessor source="#ShapeIndexedFaceSet-mesh-normals-array" count="524" stride="3">
              <param name="X" type="float"/>
              <param name="Y" type="float"/>
              <param name="Z" type="float"/>
            </accessor>
          </technique_common>
        </source>
        <vertices id="ShapeIndexedFaceSet-mesh-vertices">
          <input semantic="POSITION" source="#ShapeIndexedFaceSet-mesh-positions"/>
        </vertices>
        <polylist count="524">
          <input semantic="VERTEX" source="#ShapeIndexedFaceSet-mesh-vertices" offset="0"/>
          <input semantic="NORMAL" source="#ShapeIndexedFaceSet-mesh-normals" offset="1"/>
          <vcount>3 3 3 3 3 3 3 3 3 3 3 3 3 3 3 3 3 3 3 3 3 3 3 3 3 3 3 3 3 3 3 3 3 3 3 3 3 3 3 3 3 3 3 3 3 3 3 3 3 3 3 3 3 3 3 3 3 3 3 3 3 3 3 3 3 3 3 3 3 3 3 3 3 3 3 3 3 3 3 3 3 3 3 3 3 3 3 3 3 3 3 3 3 3 3 3 3 3 3 3 3 3 3 3 3 3 3 3 3 3 3 3 3 3 3 3 3 3 3 3 3 3 3 3 3 3 3 3 3 3 3 3 3 3 3 3 3 3 3 3 3 3 3 3 3 3 3 3 3 3 3 3 3 3 3 3 3 3 3 3 3 3 3 3 3 3 3 3 3 3 3 3 3 3 3 3 3 3 3 3 3 3 3 3 3 3 3 3 3 3 3 3 3 3 3 3 3 3 3 3 3 3 3 3 3 3 3 3 3 3 3 3 3 3 3 3 3 3 3 3 3 3 3 3 3 3 3 3 3 3 3 3 3 3 3 3 3 3 3 3 3 3 3 3 3 3 3 3 3 3 3 3 3 3 3 3 3 3 3 3 3 3 3 3 3 3 3 3 3 3 3 3 3 3 3 3 3 3 3 3 3 3 3 3 3 3 3 3 3 3 3 3 3 3 3 3 3 3 3 3 3 3 3 3 3 3 3 3 3 3 3 3 3 3 3 3 3 3 3 3 3 3 3 3 3 3 3 3 3 3 3 3 3 3 3 3 3 3 3 3 3 3 3 3 3 3 3 3 3 3 3 3 3 3 3 3 3 3 3 3 3 3 3 3 3 3 3 3 3 3 3 3 3 3 3 3 3 3 3 3 3 3 3 3 3 3 3 3 3 3 3 3 3 3 3 3 3 3 3 3 3 3 3 3 3 3 3 3 3 3 3 3 3 3 3 3 3 3 3 3 3 3 3 3 3 3 3 3 3 3 3 3 3 3 3 3 3 3 3 3 3 3 3 3 3 3 3 3 3 3 3 3 3 3 3 3 3 3 3 3 3 3 3 3 3 3 3 3 3 3 3 3 3 3 3 3 3 3 3 3 3 3 3 3 3 3 3 3 3 3 3 3 3 3 3 3 3 3 3 3 3 3 3 3 3 3 3 3 3 3 3 3 3 3 3 3 3 3 3 3 3 3 3 3 </vcount>
          <p>1 0 2 0 68 0 1 1 3 1 7 1 1 2 7 2 11 2 1 3 11 3 2 3 1 4 67 4 3 4 1 5 68 5 67 5 2 6 4 6 68 6 2 7 11 7 4 7 3 8 5 8 7 8 3 9 6 9 157 9 3 10 67 10 6 10 3 11 157 11 5 11 4 12 8 12 9 12 4 13 9 13 68 13 4 14 10 14 8 14 4 15 11 15 10 15 5 16 127 16 7 16 5 17 142 17 127 17 5 18 147 18 142 18 5 19 150 19 147 19 5 20 153 20 155 20 5 21 155 21 150 21 5 22 157 22 153 22 6 23 65 23 195 23 6 24 67 24 65 24 6 25 153 25 157 25 6 26 156 26 153 26 6 27 195 27 156 27 7 28 127 28 11 28 8 29 10 29 126 29 8 30 12 30 9 30 8 31 126 31 12 31 9 32 12 32 13 32 9 33 13 33 69 33 9 34 69 34 68 34 10 35 11 35 126 35 11 36 127 36 126 36 12 37 14 37 13 37 12 38 15 38 14 38 12 39 18 39 15 39 12 40 23 40 18 40 12 41 126 41 23 41 13 42 14 42 70 42 13 43 70 43 69 43 14 44 15 44 16 44 14 45 16 45 17 45 14 46 17 46 72 46 14 47 71 47 70 47 14 48 72 48 71 48 15 49 18 49 16 49 16 50 18 50 19 50 16 51 19 51 114 51 16 52 20 52 17 52 16 53 113 53 125 53 16 54 114 54 113 54 16 55 125 55 20 55 17 56 20 56 125 56 17 57 124 57 72 57 17 58 125 58 124 58 18 59 21 59 19 59 18 60 23 60 21 60 19 61 21 61 22 61 19 62 22 62 105 62 19 63 105 63 114 63 21 64 23 64 24 64 21 65 24 65 22 65 22 66 24 66 97 66 22 67 97 67 105 67 23 68 25 68 26 68 23 69 26 69 24 69 23 70 126 70 133 70 23 71 133 71 25 71 24 72 26 72 97 72 25 73 27 73 26 73 25 74 133 74 27 74 26 75 27 75 95 75 26 76 95 76 97 76 27 77 133 77 134 77 27 78 134 78 227 78 27 79 227 79 95 79 28 80 30 80 31 80 28 81 31 81 36 81 28 82 33 82 30 82 28 83 35 83 123 83 28 84 36 84 35 84 28 85 112 85 33 85 28 86 122 86 112 86 28 87 123 87 122 87 29 88 30 88 112 88 29 89 31 89 30 89 29 90 32 90 31 90 29 91 56 91 57 91 29 92 57 92 32 92 29 93 112 93 56 93 30 94 33 94 112 94 31 95 32 95 41 95 31 96 38 96 39 96 31 97 39 97 36 97 31 98 41 98 38 98 32 99 57 99 58 99 32 100 58 100 41 100 34 101 35 101 79 101 34 102 79 102 123 102 34 103 123 103 35 103 35 104 36 104 78 104 35 105 78 105 79 105 36 106 39 106 76 106 36 107 76 107 77 107 36 108 77 108 78 108 37 109 38 109 40 109 37 110 40 110 60 110 37 111 45 111 38 111 37 112 53 112 45 112 37 113 60 113 53 113 38 114 41 114 40 114 38 115 43 115 44 115 38 116 44 116 39 116 38 117 45 117 43 117 39 118 44 118 73 118 39 119 73 119 76 119 40 120 41 120 59 120 40 121 59 121 60 121 41 122 58 122 59 122 42 123 43 123 45 123 42 124 45 124 50 124 42 125 48 125 173 125 42 126 50 126 176 126 42 127 173 127 43 127 42 128 176 128 48 128 43 129 46 129 47 129 43 130 47 130 175 130 43 131 172 131 46 131 43 132 173 132 172 132 43 133 175 133 44 133 44 134 49 134 177 134 44 135 74 135 73 135 44 136 81 136 74 136 44 137 175 137 49 137 44 138 177 138 204 138 44 139 204 139 81 139 45 140 51 140 50 140 45 141 53 141 54 141 45 142 54 142 51 142 46 143 170 143 47 143 46 144 172 144 170 144 47 145 169 145 175 145 47 146 170 146 169 146 48 147 170 147 173 147 48 148 174 148 170 148 48 149 176 149 174 149 49 150 175 150 178 150 49 151 178 151 177 151 50 152 51 152 188 152 50 153 174 153 176 153 50 154 188 154 174 154 51 155 52 155 188 155 51 156 54 156 61 156 51 157 61 157 62 157 51 158 62 158 187 158 51 159 187 159 52 159 52 160 186 160 188 160 52 161 187 161 186 161 53 162 60 162 54 162 54 163 55 163 64 163 54 164 59 164 55 164 54 165 60 165 59 165 54 166 63 166 61 166 54 167 64 167 63 167 55 168 57 168 104 168 55 169 58 169 57 169 55 170 59 170 58 170 55 171 104 171 64 171 56 172 104 172 57 172 56 173 112 173 104 173 61 174 63 174 84 174 61 175 82 175 62 175 61 176 84 176 82 176 62 177 82 177 206 177 62 178 186 178 187 178 62 179 206 179 186 179 63 180 64 180 84 180 64 181 104 181 84 181 65 182 66 182 195 182 65 183 67 183 76 183 65 184 73 184 203 184 65 185 75 185 66 185 65 186 76 186 73 186 65 187 202 187 75 187 65 188 203 188 202 188 66 189 75 189 194 189 66 190 156 190 195 190 66 191 194 191 156 191 67 192 68 192 77 192 67 193 77 193 76 193 68 194 69 194 77 194 69 195 70 195 78 195 69 196 78 196 77 196 70 197 71 197 79 197 70 198 79 198 78 198 71 199 72 199 79 199 72 200 80 200 79 200 72 201 124 201 80 201 73 202 74 202 203 202 74 203 81 203 201 203 74 204 201 204 203 204 75 205 202 205 194 205 79 206 80 206 123 206 80 207 124 207 123 207 81 208 204 208 201 208 82 209 83 209 207 209 82 210 84 210 83 210 82 211 207 211 206 211 83 212 84 212 85 212 83 213 85 213 209 213 83 214 209 214 211 214 83 215 211 215 207 215 84 216 103 216 85 216 84 217 104 217 103 217 85 218 86 218 209 218 85 219 102 219 86 219 85 220 103 220 102 220 86 221 87 221 211 221 86 222 102 222 87 222 86 223 211 223 235 223 86 224 235 224 209 224 87 225 88 225 213 225 87 226 101 226 88 226 87 227 102 227 101 227 87 228 213 228 211 228 88 229 89 229 214 229 88 230 101 230 89 230 88 231 214 231 234 231 88 232 234 232 213 232 89 233 90 233 216 233 89 234 100 234 90 234 89 235 101 235 100 235 89 236 216 236 214 236 90 237 91 237 217 237 90 238 100 238 91 238 90 239 217 239 233 239 90 240 233 240 216 240 91 241 92 241 231 241 91 242 99 242 92 242 91 243 100 243 99 243 91 244 220 244 217 244 91 245 231 245 220 245 92 246 93 246 221 246 92 247 99 247 93 247 92 248 221 248 231 248 93 249 94 249 232 249 93 250 95 250 94 250 93 251 98 251 95 251 93 252 99 252 98 252 93 253 223 253 221 253 93 254 232 254 223 254 94 255 95 255 224 255 94 256 224 256 232 256 95 257 96 257 226 257 95 258 98 258 97 258 95 259 226 259 230 259 95 260 227 260 96 260 95 261 230 261 224 261 96 262 227 262 226 262 97 263 98 263 106 263 97 264 106 264 105 264 98 265 99 265 107 265 98 266 107 266 106 266 99 267 100 267 108 267 99 268 108 268 107 268 100 269 101 269 109 269 100 270 109 270 108 270 101 271 102 271 110 271 101 272 110 272 109 272 102 273 103 273 111 273 102 274 111 274 110 274 103 275 104 275 111 275 104 276 112 276 111 276 105 277 106 277 114 277 106 278 107 278 117 278 106 279 115 279 114 279 106 280 117 280 115 280 107 281 108 281 116 281 107 282 116 282 117 282 108 283 109 283 118 283 108 284 118 284 116 284 109 285 110 285 119 285 109 286 119 286 118 286 110 287 111 287 120 287 110 288 120 288 119 288 111 289 112 289 121 289 111 290 121 290 120 290 112 291 122 291 121 291 113 292 114 292 125 292 114 293 115 293 125 293 115 294 117 294 125 294 116 295 118 295 125 295 116 296 125 296 117 296 118 297 119 297 125 297 119 298 120 298 125 298 120 299 121 299 125 299 121 300 122 300 125 300 122 301 123 301 125 301 123 302 124 302 125 302 126 303 127 303 134 303 126 304 134 304 133 304 127 305 128 305 132 305 127 306 132 306 134 306 127 307 139 307 128 307 127 308 142 308 139 308 128 309 129 309 132 309 128 310 130 310 129 310 128 311 131 311 130 311 128 312 137 312 131 312 128 313 139 313 137 313 129 314 130 314 229 314 129 315 229 315 132 315 130 316 131 316 135 316 130 317 135 317 229 317 131 318 137 318 135 318 132 319 227 319 134 319 132 320 229 320 227 320 135 321 136 321 240 321 135 322 137 322 136 322 135 323 240 323 229 323 136 324 137 324 138 324 136 325 138 325 238 325 136 326 238 326 239 326 136 327 239 327 240 327 137 328 139 328 138 328 138 329 139 329 140 329 138 330 140 330 141 330 138 331 141 331 245 331 138 332 237 332 238 332 138 333 245 333 237 333 139 334 142 334 143 334 139 335 143 335 140 335 140 336 143 336 144 336 140 337 144 337 189 337 140 338 189 338 141 338 141 339 189 339 245 339 142 340 145 340 143 340 142 341 147 341 148 341 142 342 148 342 145 342 143 343 145 343 146 343 143 344 146 344 190 344 143 345 190 345 144 345 144 346 190 346 189 346 145 347 148 347 149 347 145 348 149 348 146 348 146 349 149 349 191 349 146 350 191 350 190 350 147 351 150 351 152 351 147 352 151 352 148 352 147 353 152 353 151 353 148 354 151 354 149 354 149 355 151 355 192 355 149 356 192 356 191 356 150 357 151 357 152 357 150 358 154 358 151 358 150 359 155 359 154 359 151 360 154 360 193 360 151 361 193 361 192 361 153 362 156 362 155 362 154 363 155 363 156 363 154 364 156 364 194 364 154 365 194 365 193 365 158 366 159 366 246 366 158 367 181 367 159 367 158 368 182 368 181 368 158 369 246 369 247 369 158 370 247 370 182 370 159 371 160 371 161 371 159 372 161 372 162 372 159 373 162 373 248 373 159 374 181 374 160 374 159 375 248 375 246 375 160 376 181 376 161 376 161 377 163 377 164 377 161 378 164 378 165 378 161 379 165 379 162 379 161 380 180 380 163 380 161 381 181 381 180 381 162 382 165 382 210 382 162 383 210 383 248 383 163 384 180 384 164 384 164 385 166 385 167 385 164 386 167 386 168 386 164 387 168 387 165 387 164 388 180 388 166 388 165 389 168 389 210 389 166 390 169 390 167 390 166 391 179 391 169 391 166 392 180 392 179 392 167 393 169 393 170 393 167 394 170 394 171 394 167 395 171 395 168 395 168 396 171 396 185 396 168 397 184 397 210 397 168 398 185 398 184 398 169 399 178 399 175 399 169 400 179 400 178 400 170 401 172 401 173 401 170 402 174 402 171 402 171 403 174 403 186 403 171 404 186 404 185 404 174 405 188 405 186 405 177 406 178 406 204 406 178 407 179 407 201 407 178 408 201 408 204 408 179 409 180 409 200 409 179 410 200 410 201 410 180 411 181 411 198 411 180 412 198 412 199 412 180 413 199 413 200 413 181 414 182 414 197 414 181 415 197 415 198 415 182 416 247 416 197 416 183 417 196 417 197 417 183 418 197 418 247 418 183 419 247 419 196 419 184 420 185 420 208 420 184 421 208 421 210 421 185 422 186 422 206 422 185 423 205 423 208 423 185 424 206 424 205 424 189 425 190 425 197 425 189 426 196 426 236 426 189 427 197 427 196 427 189 428 236 428 245 428 190 429 191 429 198 429 190 430 198 430 197 430 191 431 192 431 199 431 191 432 199 432 198 432 192 433 193 433 199 433 193 434 194 434 201 434 193 435 200 435 199 435 193 436 201 436 200 436 194 437 202 437 201 437 196 438 247 438 236 438 201 439 202 439 203 439 205 440 206 440 207 440 205 441 207 441 208 441 207 442 211 442 208 442 208 443 211 443 212 443 208 444 212 444 210 444 209 445 235 445 211 445 210 446 212 446 250 446 210 447 250 447 248 447 211 448 213 448 214 448 211 449 214 449 215 449 211 450 215 450 212 450 212 451 215 451 255 451 212 452 255 452 256 452 212 453 256 453 250 453 213 454 234 454 214 454 214 455 216 455 217 455 214 456 217 456 218 456 214 457 218 457 219 457 214 458 219 458 215 458 215 459 219 459 257 459 215 460 257 460 258 460 215 461 258 461 255 461 216 462 233 462 217 462 217 463 220 463 221 463 217 464 221 464 222 464 217 465 222 465 218 465 218 466 222 466 260 466 218 467 260 467 261 467 218 468 261 468 219 468 219 469 259 469 257 469 219 470 261 470 259 470 220 471 231 471 221 471 221 472 223 472 224 472 221 473 224 473 225 473 221 474 225 474 222 474 222 475 225 475 262 475 222 476 262 476 263 476 222 477 263 477 260 477 223 478 232 478 224 478 224 479 226 479 227 479 224 480 227 480 228 480 224 481 228 481 225 481 224 482 230 482 226 482 225 483 228 483 244 483 225 484 244 484 264 484 225 485 264 485 262 485 227 486 229 486 228 486 228 487 229 487 240 487 228 488 240 488 242 488 228 489 242 489 244 489 236 490 247 490 245 490 237 491 245 491 238 491 238 492 240 492 239 492 238 493 241 493 240 493 238 494 245 494 241 494 240 495 241 495 242 495 241 496 243 496 244 496 241 497 244 497 242 497 241 498 245 498 243 498 243 499 245 499 251 499 243 500 251 500 262 500 243 501 262 501 264 501 243 502 264 502 244 502 245 503 247 503 249 503 245 504 249 504 254 504 245 505 252 505 251 505 245 506 253 506 252 506 245 507 254 507 253 507 246 508 248 508 247 508 247 509 248 509 249 509 248 510 250 510 249 510 249 511 250 511 256 511 249 512 256 512 254 512 251 513 252 513 260 513 251 514 260 514 263 514 251 515 263 515 262 515 252 516 253 516 259 516 252 517 259 517 261 517 252 518 261 518 260 518 253 519 254 519 258 519 253 520 257 520 259 520 253 521 258 521 257 521 254 522 255 522 258 522 254 523 256 523 255 523</p>
        </polylist>
      </mesh>
      <extra><technique profile="MAYA"><double_sided>1</double_sided></technique></extra>
    </geometry>
  </library_geometries>
  <library_controllers/>
  <library_visual_scenes>
    <visual_scene id="Scene" name="Scene">
      <node id="Camera" name="Camera" type="NODE">
        <matrix sid="transform">0.6858805 -0.3173701 0.6548619 7.481132 0.7276338 0.3124686 -0.6106656 -6.50764 -0.01081678 0.8953432 0.4452454 5.343665 0 0 0 1</matrix>
        <instance_camera url="#Camera-camera"/>
      </node>
      <node id="Lamp" name="Lamp" type="NODE">
        <matrix sid="transform">-0.2908646 -0.7711008 0.5663932 4.076245 0.9551712 -0.1998834 0.2183912 1.005454 -0.05518906 0.6045247 0.7946723 5.903862 0 0 0 1</matrix>
        <instance_light url="#Lamp-light"/>
      </node>
      <node id="ShapeIndexedFaceSet" name="ShapeIndexedFaceSet" type="NODE">
        <matrix sid="transform">-1 6.60024e-15 -8.74228e-8 0 -8.74228e-8 -7.54979e-8 1 0 0 1 7.54979e-8 0 0 0 0 1</matrix>
        <instance_geometry url="#ShapeIndexedFaceSet-mesh"/>
      </node>
    </visual_scene>
  </library_visual_scenes>
  <scene>
    <instance_visual_scene url="#Scene"/>
  </scene>
</COLLADA>