<?xml version="1.0" encoding="utf-8"?>
<COLLADA xmlns="http://www.collada.org/2005/11/COLLADASchema" version="1.4.1">
  <asset>
    <contributor>
      <author>Blender User</author>
      <authoring_tool>Blender 2.68.4 r59916</authoring_tool>
    </contributor>
    <created>2013-09-09T09:50:38</created>
    <modified>2013-09-09T09:50:38</modified>
    <unit name="meter" meter="1"/>
    <up_axis>Z_UP</up_axis>
  </asset>
  <library_cameras>
    <camera id="Camera-camera" name="Camera">
      <optics>
        <technique_common>
          <perspective>
            <xfov sid="xfov">49.13434</xfov>
            <aspect_ratio>1.777778</aspect_ratio>
            <znear sid="znear">0.1</znear>
            <zfar sid="zfar">100</zfar>
          </perspective>
        </technique_common>
      </optics>
      <extra>
        <technique profile="blender">
          <YF_dofdist>0</YF_dofdist>
          <shiftx>0</shiftx>
          <shifty>0</shifty>
        </technique>
      </extra>
    </camera>
  </library_cameras>
  <library_lights>
    <light id="Lamp-light" name="Lamp">
      <technique_common>
        <point>
          <color sid="color">1 1 1</color>
          <constant_attenuation>1</constant_attenuation>
          <linear_attenuation>0</linear_attenuation>
          <quadratic_attenuation>0.00111109</quadratic_attenuation>
        </point>
      </technique_common>
      <extra>
        <technique profile="blender">
          <adapt_thresh>0.000999987</adapt_thresh>
          <area_shape>1</area_shape>
          <area_size>0.1</area_size>
          <area_sizey>0.1</area_sizey>
          <area_sizez>1</area_sizez>
          <atm_distance_factor>1</atm_distance_factor>
          <atm_extinction_factor>1</atm_extinction_factor>
          <atm_turbidity>2</atm_turbidity>
          <att1>0</att1>
          <att2>1</att2>
          <backscattered_light>1</backscattered_light>
          <bias>1</bias>
          <blue>1</blue>
          <buffers>1</buffers>
          <bufflag>0</bufflag>
          <bufsize>2880</bufsize>
          <buftype>2</buftype>
          <clipend>30.002</clipend>
          <clipsta>1.000799</clipsta>
          <compressthresh>0.04999995</compressthresh>
          <dist sid="blender_dist">29.99998</dist>
          <energy sid="blender_energy">1</energy>
          <falloff_type>2</falloff_type>
          <filtertype>0</filtertype>
          <flag>0</flag>
          <gamma sid="blender_gamma">1</gamma>
          <green>1</green>
          <halo_intensity sid="blnder_halo_intensity">1</halo_intensity>
          <horizon_brightness>1</horizon_brightness>
          <mode>8192</mode>
          <ray_samp>1</ray_samp>
          <ray_samp_method>1</ray_samp_method>
          <ray_samp_type>0</ray_samp_type>
          <ray_sampy>1</ray_sampy>
          <ray_sampz>1</ray_sampz>
          <red>1</red>
          <samp>3</samp>
          <shadhalostep>0</shadhalostep>
          <shadow_b sid="blender_shadow_b">0</shadow_b>
          <shadow_g sid="blender_shadow_g">0</shadow_g>
          <shadow_r sid="blender_shadow_r">0</shadow_r>
          <shadspotsize>45</shadspotsize>
          <sky_colorspace>0</sky_colorspace>
          <sky_exposure>1</sky_exposure>
          <skyblendfac>1</skyblendfac>
          <skyblendtype>1</skyblendtype>
          <soft>3</soft>
          <spotblend>0.15</spotblend>
          <spotsize>75</spotsize>
          <spread>1</spread>
          <sun_brightness>1</sun_brightness>
          <sun_effect_type>0</sun_effect_type>
          <sun_intensity>1</sun_intensity>
          <sun_size>1</sun_size>
          <type>0</type>
        </technique>
      </extra>
    </light>
  </library_lights>
  <library_images/>
  <library_geometries>
    <geometry id="ShapeIndexedFaceSet-mesh" name="ShapeIndexedFaceSet">
      <mesh>
        <source id="ShapeIndexedFaceSet-mesh-positions">
          <float_array id="ShapeIndexedFaceSet-mesh-positions-array" count="372">0 0 0 0.378498 14.60812 -1.224997 2e-6 14.44129 -0.885377 0 14.70826 -1.356674 -0.461139 14.63166 -1.18673 0.292152 14.40473 -0.880788 0.421546 14.34951 -0.868172 -0.169939 14.42863 -0.869325 -0.366084 14.38169 -0.818929 0.378498 14.73449 -1.63063 0 14.79585 -1.891198 -0.461139 14.7704 -1.615557 0.378498 14.74207 -2.055422 0 14.69328 -2.423052 -0.461139 14.77889 -2.06619 0.378616 14.40802 -2.827458 0 14.4132 -2.886669 -0.461139 14.6564 -2.499939 0.378498 14.63027 -2.465308 -0.466371 14.41262 -2.880097 0.63921 14.39669 -2.697979 0.726084 14.57124 -2.234166 0.730864 14.39025 -2.624391 0.722982 14.62137 -1.814082 0.725499 14.62006 -1.816745 0.724641 14.60974 -1.690052 0.699766 14.63046 -1.755241 0.718661 14.61394 -1.696427 0.368018 14.38273 -0.878328 0.726084 14.47068 -1.246735 0.691233 14.21949 -0.875287 0.733527 14.18797 -0.877244 0.788693 14.12355 -0.873146 0.844022 14.37932 -2.499523 0.774042 14.59162 -1.837783 1.008112 14.34848 -2.173736 0.990209 14.35504 -2.221944 0.768151 14.58119 -1.672702 1.009315 14.13875 -1.159145 1.009315 14.31555 -1.469134 0.961745 13.95283 -0.910814 1.017045 13.87046 -0.927545 1.047727 13.78399 -0.932899 0.817545 14.55153 -1.697419 1.009315 14.38737 -1.818693 0.839345 14.54202 -1.755241 0.821702 14.55873 -1.81306 1.032102 14.33385 -2.114713 1.178457 14.11308 -1.707668 1.07946 14.28891 -2.012219 1.200276 13.96824 -1.456792 1.200276 13.87719 -1.328936 1.200276 13.76361 -1.22064 1.092246 13.72649 -0.958258 1.200276 13.63183 -1.135928 1.153684 13.54944 -0.993846 1.168128 13.38026 -1.003456 1.200276 13.48631 -1.077598 1.183563 13.39096 -1.016731 1.195987 13.43369 -1.053531 -0.463428 14.37661 -0.818886 -0.392629 14.36439 -0.807241 -0.360113 14.36996 -0.812366 -0.643425 14.35377 -0.818795 -0.42451 14.34189 -0.802742 -0.915549 14.56091 -1.231609 -0.915076 14.26036 -0.819237 -0.788869 14.73737 -1.69734 -0.845781 14.71863 -1.672692 -0.915549 14.64311 -2.299932 -0.909033 14.70955 -1.812838 -0.767625 14.748 -1.755241 -0.794002 14.74501 -1.813771 -0.85355 14.72908 -1.837781 -0.919823 14.40209 -2.759694 -0.861979 14.40465 -2.789016 -0.489334 14.41246 -2.878257 -1.421258 13.49581 -0.822529 -1.439982 13.34494 -0.822528 -1.456142 13.34309 -0.843612 -1.408641 13.34122 -0.864948 -1.381835 13.48769 -0.802742 -1.422005 13.34621 -0.80796 -1.472 13.34122 -0.864948 -1.533471 13.35415 -0.956003 -1.575406 13.40486 -1.031074 -1.472192 13.35393 -0.955421 -1.591122 13.48631 -1.077598 -1.320407 13.81452 -0.822087 -1.591122 13.76361 -1.220643 -1.364553 13.70755 -0.822366 -1.305422 14.16162 -1.080343 -1.591122 13.96824 -1.456792 -1.305422 14.38221 -1.45304 -1.561433 14.11326 -1.707972 -1.305422 14.45655 -1.879693 -1.444346 14.28891 -2.012219 -1.393731 14.33389 -2.114833 -1.311649 14.36341 -2.317617 -1.350627 14.35504 -2.221944 -1.163377 14.3842 -2.555292 -0.920286 14.70461 -1.796753 -0.929583 14.69832 -1.755241 -0.920987 14.69853 -1.720757 -1.211115 13.99907 -0.821034 -0.919922 14.2577 -0.819234 -1.199203 13.9482 -0.802742 -1.330735 13.68294 -0.802742 -0.938625 14.20328 -0.802742 -0.904169 14.70221 -1.697096 -0.680807 14.30796 -0.802742 -1.047384 13.77114 -0.802742 -1.164666 13.34667 -0.802742 -1.399532 13.34667 -0.802742 -1.19056 13.34122 -0.864948 -1.142508 13.34122 -0.864948 -1.146703 13.34602 -0.810184 -0.794273 14.11024 -0.802742 -1.151589 13.34122 -0.87518 -1.140318 13.34173 -0.859113 -1.19056 13.34122 -0.878942 -1.16434 13.34122 -0.878942 -1.139363 13.34444 -0.828142 -1.139533 13.34229 -0.852801</float_array>
          <technique_common>
            <accessor source="#ShapeIndexedFaceSet-mesh-positions-array" count="124" stride="3">
              <param name="X" type="float"/>
              <param name="Y" type="float"/>
              <param name="Z" type="float"/>
            </accessor>
          </technique_common>
        </source>
        <source id="ShapeIndexedFaceSet-mesh-normals">
          <float_array id="ShapeIndexedFaceSet-mesh-normals-array" count="726">0.0976215 0.8459023 0.5243274 0.05862021 0.8686102 0.4920164 0.2189357 0.8150047 0.5365022 0.1474748 0.9443066 0.2941704 0.3674941 0.8879384 0.2766106 0.3421186 0.7830316 0.5194385 0.3682562 0.8874462 0.2771762 0.03707617 0.8695081 0.4925251 -0.01086741 0.837804 0.5458629 0.01494413 0.7020133 0.7120071 0.05765879 0.5641349 0.823667 0.04859948 0.9856712 0.1615248 0.04216605 0.9859597 0.1615721 -0.04455333 0.9504951 0.307529 -0.1701822 0.9375609 0.3033442 -0.04773855 0.820994 0.5689376 -0.103464 0.8176828 0.566295 -0.1813012 0.8258712 0.5339164 -0.1755011 0.9356002 0.3063521 -0.1759107 0.9354272 0.3066453 0.0948587 0.4276481 0.8989543 0.06264483 0.5113752 0.8570712 0.07583498 0.3875854 0.9187092 0.07387292 0.4063415 0.9107301 0.3681293 0.7578151 0.5386995 0.3762592 0.7507382 0.5429745 0.0761094 0.1035997 0.9917029 -0.04187291 0.8071789 0.5888199 -0.03049921 0.5911234 0.8060044 0.04884505 0.5064762 0.8608694 0.1481487 0.9888074 0.01765936 0.3658786 0.8969098 0.248366 0.3139452 0.9492897 0.01695358 0.3553144 0.9233965 0.1452254 0.05725276 0.9802975 -0.1890479 0.03572916 0.9812811 -0.1892376 -0.04387193 0.9988598 0.01882416 -0.08139294 0.9965052 0.01877975 -0.1319246 0.9824439 0.1319081 0.1301133 0.9565541 -0.2609112 0.3209301 0.9137226 -0.2492285 0.3848415 0.9185936 -0.08990466 0.3940731 0.9129196 -0.1062268 0.3381091 0.9410307 -0.01197844 0.01775598 0.8557924 -0.5170147 -0.031641 0.9618788 -0.2716392 0.08445799 0.8528691 -0.5152487 -0.1461725 0.9520242 -0.2688562 -0.2107049 0.9657577 -0.1513788 -0.1041318 0.9945561 -0.003826379 -0.2035487 0.9692442 -0.1383241 0.09304916 0.8486099 -0.5207716 0.2846245 0.8170838 -0.5013612 0.2408826 -0.7965599 -0.5544978 0.06836736 -0.8562311 -0.512049 0.1278041 -0.8393917 -0.5282875 -0.008643329 0.8418121 -0.5397015 2.47276e-5 -0.8767647 -0.4809197 -0.005747795 -0.8748099 -0.4844323 -0.04902923 0.8410835 -0.5386786 -0.2220208 0.8666183 -0.4468549 -0.1441292 0.8365166 -0.5286462 0.3960528 0.8348383 -0.3823445 0.3830823 0.8304564 -0.4044626 -0.03368729 -0.8676692 -0.4959993 0.4007374 -0.7232613 -0.562408 0.469641 0.8769554 -0.1019143 0.4792463 0.7984386 -0.3644433 0.6035732 0.7891727 -0.1136049 0.6315875 0.7642207 -0.1306297 0.618654 0.7410511 -0.26098 0.6310696 0.7663056 -0.1205276 0.5435282 -0.6356746 -0.5481742 0.5212788 0.8502766 0.07278883 0.5182765 0.8521051 0.07284569 0.5205265 0.8507328 0.0728417 0.5267026 0.8469476 0.0725544 0.5273326 0.84658 0.07226866 0.4525762 0.8512675 0.2655531 0.5294747 0.6788529 0.5087389 0.6022158 0.6398436 0.4774267 0.6541242 0.657037 0.3747318 0.6121692 0.7473465 0.2583061 0.5888065 0.766337 0.2569718 0.2415728 0.2662017 0.9331555 0.07550609 0.09883666 0.9922349 0.6328272 0.5748531 0.5187231 0.6508792 0.5426442 0.5309365 0.1752136 -0.03944873 0.9837398 0.07438182 0.09314823 0.9928699 0.05107724 -0.03798663 0.997972 0.080563 -0.1128159 0.9903445 0.818354 -0.3431708 -0.4610104 0.768936 -0.4330226 -0.4703497 0.550576 -0.630927 -0.5466234 0.539803 0.8386881 0.07221537 0.5411332 0.8378855 0.07157391 0.6663273 0.7405334 -0.08728241 0.9104471 0.2855047 -0.2992877 0.9135934 0.27068 -0.3034458 0.8316786 -0.3189672 -0.4545004 0.7751331 0.4254963 0.4670348 0.8434849 0.364721 0.3943498 0.8399498 0.4713861 0.2688484 0.8525859 0.4256815 0.3031376 0.8463015 0.3675979 0.3855458 0.6949237 0.7043694 0.1447232 0.6940741 0.7049998 0.145727 0.8243694 0.5544696 0.1139241 0.855311 0.4774302 0.2012547 0.4058502 0.08768165 0.9097239 0.6585245 0.1885576 0.7285544 0.8451187 0.3564646 0.3983811 0.4897901 -0.005279779 0.8718244 0.4847226 -0.008297681 0.8746286 0.08689188 -0.1463 0.9854167 0.5520921 0.8307099 0.07152146 0.6744979 0.7382392 0.007456123 0.6708074 0.7371268 -0.08161807 0.8444467 0.5345512 0.0341286 0.7528879 0.6553605 -0.06051826 0.9800529 -0.1228905 -0.1561867 0.9635992 -0.1721128 -0.2045818 1 0 0 1 0 0 1 0 0 0.8804835 0.2563621 0.3987822 0.881145 0.2218267 0.4175841 0.9083995 0.155553 0.3880897 0.6472371 0.01196318 0.7621949 0.8974934 0.1074417 0.4277403 0.9025661 0.1160646 0.4146124 9.03752e-4 -0.8970088 -0.4420117 0.02734285 -0.9879302 0.152467 0.01603531 -0.9997702 -0.01423144 0.02276688 -0.9950829 0.09639364 0.01415252 -0.9987486 -0.04796874 0.02157402 -0.9966372 0.0790494 0.006359934 -0.9820145 -0.1886984 0.0220623 -0.9959694 0.08693832 0.02192068 -0.9961636 0.08472043 -0.06065773 0.4815421 0.8743213 -0.05842661 0.3722391 0.9262961 -0.03162878 0.2389088 0.9705268 -0.2685586 0.7782975 0.5675644 -0.1507521 0.4341934 0.8881159 0 0 1 0 0 1 0 0 1 -0.3613907 0.8946362 0.262722 -0.5144839 0.693445 0.5044207 -0.5644204 0.7103909 0.4204455 -0.4047182 0.7387686 0.5389102 -0.5130952 0.8247343 0.2377952 -0.1877058 0.3433883 0.9202451 -0.1319837 0.3250765 0.9364324 -0.2750058 0.9585114 0.07501876 -0.2824388 0.956333 0.07520353 -0.2854666 0.955532 0.07394242 -0.2986227 0.9514743 0.07430458 -0.3772596 0.9182737 -0.1202023 -0.411924 0.8086113 -0.4200792 -0.2639576 0.8552697 -0.445915 -0.5217907 0.8461543 -0.108432 -0.5641095 0.8092322 -0.1640846 -0.5469563 0.7917607 -0.2719447 -0.5223193 0.8462016 -0.105477 -0.3116693 0.9473842 0.07297509 -0.3104165 0.9477792 0.07318502 -0.301775 0.9505803 0.07299959 -0.2447336 -0.7967902 -0.5524771 -0.4247923 -0.7050563 -0.5678443 -0.107832 -0.8447457 -0.5241917 -0.0962705 -0.8489239 -0.5196732 -0.6310038 0.07831573 0.7718166 -0.7939711 0.09853959 0.5999165 -0.4272708 0.1118211 0.8971821 -0.4319807 0.08955448 0.8974255 -0.8026493 0.1022185 0.5876269 -0.8160985 0.1123228 0.5668922 -0.8239349 0.1338292 0.5506551 -0.8253141 0.1514813 0.5439763 -0.816013 0.2181235 0.535299 -0.4342691 0.1156134 0.893333 -2.77748e-4 -0.996173 0.08740204 -2.22158e-4 -0.9961777 0.08734923 0 -1 0 0 -0.9961988 0.08710825 0 -0.9961988 0.08710825 0 -1 0 -0.226629 0.02844029 0.9735658 0 0 1 0 0 1 -8.56732e-7 -0.9961946 0.08715653 0 -0.9961739 0.08739262 3.24645e-6 -0.9961927 0.087179 4.11807e-6 -0.9961916 0.0871911 -0.0067662 -0.990675 -0.136078 -0.002144575 -0.9877312 -0.1561495 -0.7992246 -0.406908 -0.4423413 -0.7431986 -0.4545067 -0.4909985 -0.7317609 -0.466087 -0.4972816 0 -0.9864869 -0.1638404 -1 0 0 -0.8229961 0.2604166 0.5048373 -0.9640589 -0.1642906 -0.2088038 -0.800195 0.3289051 0.5015071 -0.403121 0.1640061 0.9003307 -0.7833889 0.3924288 0.4819766 -0.7289131 0.4286419 0.5338087 -0.3936371 0.2280443 0.8905311 -0.3278127 0.162553 0.9306532 -0.8086204 0.4446254 0.3852808 -0.7817489 0.5366466 0.3176147 -0.5435383 0.6079273 0.5787836 -0.8030745 0.5522138 0.2239001 -0.7697549 0.6288647 0.1095746 -0.5685196 0.8104588 0.1412158 -0.5136541 0.8246737 0.2367968 -0.7882848 0.6132203 0.05067437 -0.8966259 -0.1335555 -0.422167 -0.7395321 0.669324 -0.07139784 -0.5722261 0.8037729 -0.1628081 -0.6732448 0.7284116 -0.1271142 -0.5423806 0.8401123 0.005891203 -0.5675305 0.8119497 0.1365535 -0.8945164 0.3372958 -0.2933802 -0.9190713 0.1591851 -0.3605108 -0.315232 0.9462144 0.07284861 -0.2650174 0.2707223 0.9254595 -0.3411026 0.3780485 0.8606558 0 0 1 0 0 1 0 0 1 0 0 1 0 0 1 -3.16296e-6 -0.9961922 0.08718389 0 -0.9961988 0.08710825 0 -1 0 0 -1 0 0 -1 0 0.002887666 -0.9961963 0.08709037</float_array>
          <technique_common>
            <accessor source="#ShapeIndexedFaceSet-mesh-normals-array" count="242" stride="3">
              <param name="X" type="float"/>
              <param name="Y" type="float"/>
              <param name="Z" type="float"/>
            </accessor>
          </technique_common>
        </source>
        <vertices id="ShapeIndexedFaceSet-mesh-vertices">
          <input semantic="POSITION" source="#ShapeIndexedFaceSet-mesh-positions"/>
        </vertices>
        <polylist count="242">
          <input semantic="VERTEX" source="#ShapeIndexedFaceSet-mesh-vertices" offset="0"/>
          <input semantic="NORMAL" source="#ShapeIndexedFaceSet-mesh-normals" offset="1"/>
          <vcount>3 3 3 3 3 3 3 3 3 3 3 3 3 3 3 3 3 3 3 3 3 3 3 3 3 3 3 3 3 3 3 3 3 3 3 3 3 3 3 3 3 3 3 3 3 3 3 3 3 3 3 3 3 3 3 3 3 3 3 3 3 3 3 3 3 3 3 3 3 3 3 3 3 3 3 3 3 3 3 3 3 3 3 3 3 3 3 3 3 3 3 3 3 3 3 3 3 3 3 3 3 3 3 3 3 3 3 3 3 3 3 3 3 3 3 3 3 3 3 3 3 3 3 3 3 3 3 3 3 3 3 3 3 3 3 3 3 3 3 3 3 3 3 3 3 3 3 3 3 3 3 3 3 3 3 3 3 3 3 3 3 3 3 3 3 3 3 3 3 3 3 3 3 3 3 3 3 3 3 3 3 3 3 3 3 3 3 3 3 3 3 3 3 3 3 3 3 3 3 3 3 3 3 3 3 3 3 3 3 3 3 3 3 3 3 3 3 3 3 3 3 3 3 3 3 3 3 3 3 3 3 3 3 3 3 3 3 3 3 3 3 3 </vcount>
          <p>1 0 2 0 5 0 1 1 3 1 2 1 1 2 5 2 28 2 1 3 9 3 3 3 1 4 25 4 9 4 1 5 28 5 29 5 1 6 29 6 25 6 2 7 3 7 4 7 2 8 4 8 7 8 2 9 7 9 8 9 2 10 8 10 5 10 3 11 9 11 10 11 3 12 10 12 11 12 3 13 11 13 4 13 4 14 11 14 67 14 4 15 60 15 7 15 4 16 63 16 60 16 4 17 65 17 63 17 4 18 67 18 68 18 4 19 68 19 65 19 5 20 6 20 28 20 5 21 8 21 62 21 5 22 61 22 6 22 5 23 62 23 61 23 6 24 29 24 28 24 6 25 30 25 29 25 6 26 61 26 30 26 7 27 60 27 8 27 8 28 60 28 61 28 8 29 61 29 62 29 9 30 12 30 10 30 9 31 25 31 27 31 9 32 26 32 12 32 9 33 27 33 26 33 10 34 12 34 13 34 10 35 13 35 14 35 10 36 14 36 11 36 11 37 14 37 71 37 11 38 71 38 67 38 12 39 18 39 13 39 12 40 21 40 18 40 12 41 23 41 24 41 12 42 24 42 21 42 12 43 26 43 23 43 13 44 16 44 17 44 13 45 17 45 14 45 13 46 18 46 16 46 14 47 17 47 69 47 14 48 69 48 73 48 14 49 72 49 71 49 14 50 73 50 72 50 15 51 16 51 18 51 15 52 18 52 20 52 15 53 20 53 58 53 15 54 56 54 16 54 15 55 58 55 56 55 16 56 19 56 17 56 16 57 56 57 84 57 16 58 84 58 19 58 17 59 19 59 76 59 17 60 75 60 69 60 17 61 76 61 75 61 18 62 21 62 22 62 18 63 22 63 20 63 19 64 84 64 76 64 20 65 22 65 58 65 21 66 24 66 34 66 21 67 33 67 22 67 21 68 34 68 46 68 21 69 35 69 36 69 21 70 36 70 33 70 21 71 46 71 35 71 22 72 33 72 58 72 23 73 25 73 24 73 23 74 26 74 27 74 23 75 27 75 25 75 24 76 25 76 37 76 24 77 37 77 34 77 25 78 29 78 37 78 29 79 30 79 31 79 29 80 31 80 38 80 29 81 38 81 39 81 29 82 39 82 43 82 29 83 43 83 37 83 30 84 32 84 31 84 30 85 61 85 32 85 31 86 32 86 38 86 32 87 40 87 38 87 32 88 42 88 40 88 32 89 61 89 64 89 32 90 64 90 112 90 32 91 112 91 42 91 33 92 36 92 48 92 33 93 48 93 59 93 33 94 59 94 58 94 34 95 37 95 43 95 34 96 43 96 46 96 35 97 46 97 47 97 35 98 47 98 36 98 36 99 47 99 49 99 36 100 49 100 48 100 38 101 40 101 41 101 38 102 41 102 52 102 38 103 50 103 39 103 38 104 51 104 50 104 38 105 52 105 51 105 39 106 44 106 45 106 39 107 45 107 43 107 39 108 48 108 44 108 39 109 50 109 48 109 40 110 42 110 41 110 41 111 42 111 53 111 41 112 53 112 52 112 42 113 55 113 53 113 42 114 56 114 55 114 42 115 112 115 56 115 43 116 45 116 46 116 44 117 46 117 45 117 44 118 47 118 46 118 44 119 48 119 49 119 44 120 49 120 47 120 48 121 50 121 57 121 48 122 57 122 59 122 50 123 51 123 57 123 51 124 52 124 54 124 51 125 54 125 57 125 52 126 53 126 54 126 53 127 55 127 54 127 54 128 55 128 57 128 55 129 56 129 58 129 55 130 58 130 59 130 55 131 59 131 57 131 56 132 86 132 84 132 56 133 112 133 116 133 56 134 115 134 118 134 56 135 116 135 122 135 56 136 118 136 121 136 56 137 119 137 115 137 56 138 121 138 86 138 56 139 122 139 123 139 56 140 123 140 119 140 60 141 63 141 61 141 61 142 63 142 110 142 61 143 110 143 64 143 63 144 65 144 66 144 63 145 66 145 110 145 64 146 110 146 117 146 64 147 111 147 112 147 64 148 117 148 111 148 65 149 68 149 109 149 65 150 91 150 105 150 65 151 93 151 91 151 65 152 105 152 66 152 65 153 109 153 93 153 66 154 105 154 108 154 66 155 108 155 110 155 67 156 71 156 72 156 67 157 72 157 68 157 68 158 72 158 73 158 68 159 73 159 109 159 69 160 70 160 73 160 69 161 74 161 100 161 69 162 75 162 74 162 69 163 95 163 70 163 69 164 98 164 95 164 69 165 100 165 98 165 70 166 95 166 101 166 70 167 101 167 103 167 70 168 103 168 109 168 70 169 109 169 73 169 74 170 75 170 85 170 74 171 85 171 100 171 75 172 76 172 85 172 76 173 84 173 85 173 77 174 78 174 82 174 77 175 79 175 78 175 77 176 81 176 107 176 77 177 82 177 81 177 77 178 83 178 79 178 77 179 84 179 83 179 77 180 85 180 84 180 77 181 87 181 85 181 77 182 90 182 87 182 77 183 107 183 90 183 78 184 79 184 82 184 79 185 83 185 82 185 80 186 83 186 120 186 80 187 114 187 119 187 80 188 119 188 83 188 80 189 120 189 114 189 81 190 82 190 113 190 81 191 112 191 107 191 81 192 113 192 112 192 82 193 83 193 119 193 82 194 112 194 113 194 82 195 119 195 122 195 82 196 122 196 112 196 83 197 84 197 120 197 84 198 86 198 120 198 85 199 87 199 94 199 85 200 94 200 98 200 85 201 98 201 100 201 86 202 121 202 120 202 87 203 89 203 92 203 87 204 90 204 89 204 87 205 92 205 94 205 88 206 89 206 90 206 88 207 90 207 107 207 88 208 91 208 89 208 88 209 104 209 91 209 88 210 106 210 104 210 88 211 107 211 106 211 89 212 91 212 92 212 91 213 93 213 92 213 91 214 104 214 105 214 92 215 93 215 94 215 93 216 95 216 94 216 93 217 103 217 95 217 93 218 109 218 103 218 94 219 95 219 96 219 94 220 96 220 98 220 95 221 97 221 96 221 95 222 98 222 99 222 95 223 99 223 97 223 95 224 102 224 101 224 95 225 103 225 102 225 96 226 97 226 99 226 96 227 99 227 98 227 101 228 102 228 103 228 104 229 106 229 108 229 104 230 108 230 105 230 106 231 107 231 111 231 106 232 111 232 108 232 107 233 112 233 111 233 108 234 111 234 117 234 108 235 117 235 110 235 112 236 122 236 116 236 114 237 115 237 119 237 114 238 120 238 121 238 114 239 121 239 115 239 115 240 121 240 118 240 119 241 123 241 122 241</p>
        </polylist>
      </mesh>
      <extra><technique profile="MAYA"><double_sided>1</double_sided></technique></extra>
    </geometry>
  </library_geometries>
  <library_controllers/>
  <library_visual_scenes>
    <visual_scene id="Scene" name="Scene">
      <node id="Camera" name="Camera" type="NODE">
        <matrix sid="transform">0.6858805 -0.3173701 0.6548619 7.481132 0.7276338 0.3124686 -0.6106656 -6.50764 -0.01081678 0.8953432 0.4452454 5.343665 0 0 0 1</matrix>
        <instance_camera url="#Camera-camera"/>
      </node>
      <node id="Lamp" name="Lamp" type="NODE">
        <matrix sid="transform">-0.2908646 -0.7711008 0.5663932 4.076245 0.9551712 -0.1998834 0.2183912 1.005454 -0.05518906 0.6045247 0.7946723 5.903862 0 0 0 1</matrix>
        <instance_light url="#Lamp-light"/>
      </node>
      <node id="ShapeIndexedFaceSet" name="ShapeIndexedFaceSet" type="NODE">
        <matrix sid="transform">-1 6.60024e-15 -8.74228e-8 0 -8.74228e-8 -7.54979e-8 1 0 0 1 7.54979e-8 0 0 0 0 1</matrix>
        <instance_geometry url="#ShapeIndexedFaceSet-mesh"/>
      </node>
    </visual_scene>
  </library_visual_scenes>
  <scene>
    <instance_visual_scene url="#Scene"/>
  </scene>
</COLLADA>